%!PS-Adobe-3.0
%%Creator: graphviz version 2.47.2 (0)
%%Title: tree
%%Pages: (atend)
%%BoundingBox: (atend)
%%EndComments
save
%%BeginProlog
/DotDict 200 dict def
DotDict begin

/setupLatin1 {
mark
/EncodingVector 256 array def
 EncodingVector 0

ISOLatin1Encoding 0 255 getinterval putinterval
EncodingVector 45 /hyphen put

% Set up ISO Latin 1 character encoding
/starnetISO {
        dup dup findfont dup length dict begin
        { 1 index /FID ne { def }{ pop pop } ifelse
        } forall
        /Encoding EncodingVector def
        currentdict end definefont
} def
/Times-Roman starnetISO def
/Times-Italic starnetISO def
/Times-Bold starnetISO def
/Times-BoldItalic starnetISO def
/Helvetica starnetISO def
/Helvetica-Oblique starnetISO def
/Helvetica-Bold starnetISO def
/Helvetica-BoldOblique starnetISO def
/Courier starnetISO def
/Courier-Oblique starnetISO def
/Courier-Bold starnetISO def
/Courier-BoldOblique starnetISO def
cleartomark
} bind def

%%BeginResource: procset graphviz 0 0
/coord-font-family /Times-Roman def
/default-font-family /Times-Roman def
/coordfont coord-font-family findfont 8 scalefont def

/InvScaleFactor 1.0 def
/set_scale {
       dup 1 exch div /InvScaleFactor exch def
       scale
} bind def

% styles
/solid { [] 0 setdash } bind def
/dashed { [9 InvScaleFactor mul dup ] 0 setdash } bind def
/dotted { [1 InvScaleFactor mul 6 InvScaleFactor mul] 0 setdash } bind def
/invis {/fill {newpath} def /stroke {newpath} def /show {pop newpath} def} bind def
/bold { 2 setlinewidth } bind def
/filled { } bind def
/unfilled { } bind def
/rounded { } bind def
/diagonals { } bind def
/tapered { } bind def

% hooks for setting color 
/nodecolor { sethsbcolor } bind def
/edgecolor { sethsbcolor } bind def
/graphcolor { sethsbcolor } bind def
/nopcolor {pop pop pop} bind def

/beginpage {	% i j npages
	/npages exch def
	/j exch def
	/i exch def
	/str 10 string def
	npages 1 gt {
		gsave
			coordfont setfont
			0 0 moveto
			(\() show i str cvs show (,) show j str cvs show (\)) show
		grestore
	} if
} bind def

/set_font {
	findfont exch
	scalefont setfont
} def

% draw text fitted to its expected width
/alignedtext {			% width text
	/text exch def
	/width exch def
	gsave
		width 0 gt {
			[] 0 setdash
			text stringwidth pop width exch sub text length div 0 text ashow
		} if
	grestore
} def

/boxprim {				% xcorner ycorner xsize ysize
		4 2 roll
		moveto
		2 copy
		exch 0 rlineto
		0 exch rlineto
		pop neg 0 rlineto
		closepath
} bind def

/ellipse_path {
	/ry exch def
	/rx exch def
	/y exch def
	/x exch def
	matrix currentmatrix
	newpath
	x y translate
	rx ry scale
	0 0 1 0 360 arc
	setmatrix
} bind def

/endpage { showpage } bind def
/showpage { } def

/layercolorseq
	[	% layer color sequence - darkest to lightest
		[0 0 0]
		[.2 .8 .8]
		[.4 .8 .8]
		[.6 .8 .8]
		[.8 .8 .8]
	]
def

/layerlen layercolorseq length def

/setlayer {/maxlayer exch def /curlayer exch def
	layercolorseq curlayer 1 sub layerlen mod get
	aload pop sethsbcolor
	/nodecolor {nopcolor} def
	/edgecolor {nopcolor} def
	/graphcolor {nopcolor} def
} bind def

/onlayer { curlayer ne {invis} if } def

/onlayers {
	/myupper exch def
	/mylower exch def
	curlayer mylower lt
	curlayer myupper gt
	or
	{invis} if
} def

/curlayer 0 def

%%EndResource
%%EndProlog
%%BeginSetup
14 default-font-family set_font
% /arrowlength 10 def
% /arrowwidth 5 def

% make sure pdfmark is harmless for PS-interpreters other than Distiller
/pdfmark where {pop} {userdict /pdfmark /cleartomark load put} ifelse
% make '<<' and '>>' safe on PS Level 1 devices
/languagelevel where {pop languagelevel}{1} ifelse
2 lt {
    userdict (<<) cvn ([) cvn load put
    userdict (>>) cvn ([) cvn load put
} if

%%EndSetup
setupLatin1
%%Page: 1 1
%%PageBoundingBox: 36 36 1482 1912
%%PageOrientation: Portrait
0 0 1 beginpage
gsave
36 36 1446 1876 boxprim clip newpath
1 1 set_scale 0 rotate 40 40 translate
0 0 0 graphcolor
14 /Times-Roman set_font
664.4067 7.8 moveto 109 (S\(T\)=0.872557) alignedtext
% 0
gsave
1 setlinewidth
0 0 0 nodecolor
516.5037 176.2286 206.0634 18 ellipse_path stroke
0 0 0 nodecolor
14 /Times-Roman set_font
366.0037 172.5286 moveto 301 (Cryptographic Engineering_\(NWI-IMC039) alignedtext
grestore
% 101
gsave
1 setlinewidth
0 0 0 nodecolor
527.1815 264.4816 27 18 ellipse_path stroke
grestore
% 0--101
gsave
1 setlinewidth
0 0 0 edgecolor
newpath 518.7162 194.5147 moveto
520.561 209.762 523.1747 231.3649 525.0085 246.5209 curveto
stroke
grestore
% 10112
gsave
1 setlinewidth
0 0 1 nodecolor
543.5359 98.5369 37.0935 18 ellipse_path stroke
0 0 0 nodecolor
14 /Times-Roman set_font
523.0359 94.8369 moveto 41 (0.851) alignedtext
grestore
% 0--10112
gsave
1 setlinewidth
dotted
0 0 0 edgecolor
newpath 522.7734 158.2093 moveto
527.1405 145.658 532.9406 128.9883 537.3003 116.4585 curveto
stroke
grestore
% 10168
gsave
1 setlinewidth
0 0 1 nodecolor
441.3924 137.144 37.0935 18 ellipse_path stroke
0 0 0 nodecolor
14 /Times-Roman set_font
420.8924 133.444 moveto 41 (0.806) alignedtext
grestore
% 0--10168
gsave
1 setlinewidth
dotted
0 0 0 edgecolor
newpath 482.0257 158.2878 moveto
476.9351 155.6388 471.7685 152.9504 466.9035 150.4188 curveto
stroke
grestore
% 1
gsave
1 setlinewidth
0 0 0 nodecolor
1049.4558 1020.1923 215.5619 18 ellipse_path stroke
0 0 0 nodecolor
14 /Times-Roman set_font
891.4558 1016.4923 moveto 316 (Machine Learning in Practice_\(NWI-IMC030) alignedtext
grestore
% 98
gsave
1 setlinewidth
0 0 0 nodecolor
963.2167 980.7023 27 18 ellipse_path stroke
grestore
% 1--98
gsave
1 setlinewidth
0 0 0 edgecolor
newpath 1010.625 1002.4112 moveto
1002.0413 998.4806 993.2285 994.4451 985.5656 990.9361 curveto
stroke
grestore
% 10123
gsave
1 setlinewidth
0 0 1 nodecolor
1110.1467 937.6693 37.0935 18 ellipse_path stroke
0 0 0 nodecolor
14 /Times-Roman set_font
1089.6467 933.9693 moveto 41 (0.814) alignedtext
grestore
% 1--10123
gsave
1 setlinewidth
dotted
0 0 0 edgecolor
newpath 1062.9251 1001.8778 moveto
1073.262 987.8225 1087.4297 968.5583 1097.5439 954.8057 curveto
stroke
grestore
% 10124
gsave
1 setlinewidth
0 0 1 nodecolor
992.1962 1083.0442 37.0935 18 ellipse_path stroke
0 0 0 nodecolor
14 /Times-Roman set_font
971.6962 1079.3442 moveto 41 (0.857) alignedtext
grestore
% 1--10124
gsave
1 setlinewidth
dotted
0 0 0 edgecolor
newpath 1032.8939 1038.3717 moveto
1024.8348 1047.2179 1015.2141 1057.7782 1007.3505 1066.4098 curveto
stroke
grestore
% 2
gsave
1 setlinewidth
0 0 0 nodecolor
1095.2187 971.8121 172.7694 18 ellipse_path stroke
0 0 0 nodecolor
14 /Times-Roman set_font
970.2187 968.1121 moveto 250 (Research Internship_\(NWI-IMC047) alignedtext
grestore
% 105
gsave
1 setlinewidth
0 0 0 nodecolor
998.9564 998.62 27 18 ellipse_path stroke
grestore
% 2--105
gsave
1 setlinewidth
0 0 0 edgecolor
newpath 1034.5274 988.7139 moveto
1030.9232 989.7176 1027.4201 990.6932 1024.1067 991.6159 curveto
stroke
grestore
% 10151
gsave
1 setlinewidth
0 0 1 nodecolor
1189.4148 970.7385 37.0935 18 ellipse_path stroke
0 0 0 nodecolor
14 /Times-Roman set_font
1168.9148 967.0385 moveto 41 (0.858) alignedtext
grestore
% 2--10151
gsave
1 setlinewidth
dotted
0 0 0 edgecolor
newpath 1189.3465 970.7393 moveto
1189.3691 970.739 1189.3862 970.7388 1189.3976 970.7387 curveto
stroke
grestore
% 10152
gsave
1 setlinewidth
0 0 1 nodecolor
1049.3359 940.2905 37.0935 18 ellipse_path stroke
0 0 0 nodecolor
14 /Times-Roman set_font
1028.8359 936.5905 moveto 41 (0.897) alignedtext
grestore
% 2--10152
gsave
1 setlinewidth
dotted
0 0 0 edgecolor
newpath 1069.0606 953.8414 moveto
1068.8996 953.7308 1068.7388 953.6204 1068.5783 953.5101 curveto
stroke
grestore
% 3
gsave
1 setlinewidth
0 0 0 nodecolor
699.0696 115.2912 163.2712 18 ellipse_path stroke
0 0 0 nodecolor
14 /Times-Roman set_font
581.5696 111.5912 moveto 235 (Software Security_\(NWI-IMC051) alignedtext
grestore
% 84
gsave
1 setlinewidth
0 0 0 nodecolor
642.7532 180.7037 27 18 ellipse_path stroke
grestore
% 3--84
gsave
1 setlinewidth
0 0 0 edgecolor
newpath 683.3823 133.5122 moveto
674.9204 143.341 664.5754 155.3568 656.442 164.8039 curveto
stroke
grestore
% 10113
gsave
1 setlinewidth
0 0 1 nodecolor
670.6891 41 37.0935 18 ellipse_path stroke
0 0 0 nodecolor
14 /Times-Roman set_font
650.1891 37.3 moveto 41 (0.039) alignedtext
grestore
% 3--10113
gsave
1 setlinewidth
dotted
0 0 0 edgecolor
newpath 692.0542 96.9271 moveto
687.6223 85.3256 681.9232 70.4073 677.5259 58.8965 curveto
stroke
grestore
% 10114
gsave
1 setlinewidth
0 0 1 nodecolor
753.1886 155.3693 37.0935 18 ellipse_path stroke
0 0 0 nodecolor
14 /Times-Roman set_font
732.6886 151.6693 moveto 41 (0.812) alignedtext
grestore
% 3--10114
gsave
1 setlinewidth
dotted
0 0 0 edgecolor
newpath 723.2799 133.2202 moveto
726.432 135.5545 729.6362 137.9274 732.7189 140.2104 curveto
stroke
grestore
% 4
gsave
1 setlinewidth
0 0 0 nodecolor
713.4779 1477.6396 209.8628 18 ellipse_path stroke
0 0 0 nodecolor
14 /Times-Roman set_font
559.9779 1473.9396 moveto 307 (Law for Computer Scientists_\(NWI-IBC037) alignedtext
grestore
% 97
gsave
1 setlinewidth
0 0 0 nodecolor
643.9773 1444.571 27 18 ellipse_path stroke
grestore
% 4--97
gsave
1 setlinewidth
0 0 0 edgecolor
newpath 675.8799 1459.7503 moveto
672.5535 1458.1676 669.2622 1456.6016 666.129 1455.1108 curveto
stroke
grestore
% 10142
gsave
1 setlinewidth
0 0 1 nodecolor
764.2606 1550.2849 37.0935 18 ellipse_path stroke
0 0 0 nodecolor
14 /Times-Roman set_font
743.7606 1546.5849 moveto 41 (0.751) alignedtext
grestore
% 4--10142
gsave
1 setlinewidth
dotted
0 0 0 edgecolor
newpath 726.2925 1495.9711 moveto
734.2846 1507.4039 744.5007 1522.0181 752.3222 1533.2069 curveto
stroke
grestore
% 10143
gsave
1 setlinewidth
0 0 1 nodecolor
722.7119 1404.6895 37.0935 18 ellipse_path stroke
0 0 0 nodecolor
14 /Times-Roman set_font
702.2119 1400.9895 moveto 41 (0.877) alignedtext
grestore
% 4--10143
gsave
1 setlinewidth
dotted
0 0 0 edgecolor
newpath 715.7605 1459.607 moveto
717.1811 1448.3838 719.0019 1433.9993 720.4236 1422.7675 curveto
stroke
grestore
% 5
gsave
1 setlinewidth
0 0 0 nodecolor
315.0725 1693.1312 177.3685 18 ellipse_path stroke
0 0 0 nodecolor
14 /Times-Roman set_font
186.5725 1689.4312 moveto 257 (Logic and Applications_\(NWI-IPI004) alignedtext
grestore
% 74
gsave
1 setlinewidth
0 0 0 nodecolor
380.2785 1630.986 27 18 ellipse_path stroke
grestore
% 5--74
gsave
1 setlinewidth
0 0 0 edgecolor
newpath 333.9328 1675.1563 moveto
343.7122 1665.836 355.5107 1654.5913 364.7558 1645.7801 curveto
stroke
grestore
% 10135
gsave
1 setlinewidth
0 0 1 nodecolor
235.5931 1678.4014 37.0935 18 ellipse_path stroke
0 0 0 nodecolor
14 /Times-Roman set_font
215.0931 1674.7014 moveto 41 (0.896) alignedtext
grestore
% 5--10135
gsave
1 setlinewidth
dotted
0 0 0 edgecolor
newpath 235.6507 1678.4121 moveto
235.6316 1678.4085 235.6172 1678.4058 235.6075 1678.4041 curveto
stroke
grestore
% 10136
gsave
1 setlinewidth
0 0 1 nodecolor
314.2384 1772.6312 37.0935 18 ellipse_path stroke
0 0 0 nodecolor
14 /Times-Roman set_font
293.7384 1768.9312 moveto 41 (0.921) alignedtext
grestore
% 5--10136
gsave
1 setlinewidth
dotted
0 0 0 edgecolor
newpath 314.8832 1711.171 moveto
314.7477 1724.09 314.5658 1741.4225 314.4298 1754.3876 curveto
stroke
grestore
% 6
gsave
1 setlinewidth
0 0 0 nodecolor
371.4514 1487.55 174.6691 18 ellipse_path stroke
0 0 0 nodecolor
14 /Times-Roman set_font
244.9514 1483.85 moveto 253 (Information Retrieval_\(NWI-I00041) alignedtext
grestore
% 102
gsave
1 setlinewidth
0 0 0 nodecolor
438.61 1440.1207 27 18 ellipse_path stroke
grestore
% 6--102
gsave
1 setlinewidth
0 0 0 edgecolor
newpath 396.8412 1469.619 moveto
404.4188 1464.2675 412.5888 1458.4976 419.6763 1453.4922 curveto
stroke
grestore
% 10133
gsave
1 setlinewidth
0 0 1 nodecolor
283.5084 1484.3442 37.0935 18 ellipse_path stroke
0 0 0 nodecolor
14 /Times-Roman set_font
263.0084 1480.6442 moveto 41 (0.892) alignedtext
grestore
% 6--10133
gsave
1 setlinewidth
dotted
0 0 0 edgecolor
newpath 283.5721 1484.3465 moveto
283.551 1484.3458 283.535 1484.3452 283.5244 1484.3448 curveto
stroke
grestore
% 10134
gsave
1 setlinewidth
0 0 1 nodecolor
315.3359 1549.0878 37.0935 18 ellipse_path stroke
0 0 0 nodecolor
14 /Times-Roman set_font
294.8359 1545.3878 moveto 41 (0.907) alignedtext
grestore
% 6--10134
gsave
1 setlinewidth
dotted
0 0 0 edgecolor
newpath 354.9184 1505.6805 moveto
347.1594 1514.1893 337.9771 1524.2588 330.4108 1532.5563 curveto
stroke
grestore
% 7
gsave
1 setlinewidth
0 0 0 nodecolor
272.6365 334.5353 193.8658 18 ellipse_path stroke
0 0 0 nodecolor
14 /Times-Roman set_font
131.6365 330.8353 moveto 282 (Imperative Programming_\(NWI-IPC031) alignedtext
grestore
% 73
gsave
1 setlinewidth
0 0 0 nodecolor
339.1021 392.2986 27 18 ellipse_path stroke
grestore
% 7--73
gsave
1 setlinewidth
0 0 0 edgecolor
newpath 293.3023 352.4953 moveto
302.753 360.7087 313.7938 370.3039 322.667 378.0154 curveto
stroke
grestore
% 10165
gsave
1 setlinewidth
0 0 1 nodecolor
190.6207 324.0759 37.0935 18 ellipse_path stroke
0 0 0 nodecolor
14 /Times-Roman set_font
170.1207 320.3759 moveto 41 (0.854) alignedtext
grestore
% 7--10165
gsave
1 setlinewidth
dotted
0 0 0 edgecolor
newpath 190.6801 324.0835 moveto
190.6604 324.081 190.6455 324.0791 190.6356 324.0778 curveto
stroke
grestore
% 10166
gsave
1 setlinewidth
0 0 1 nodecolor
316.5689 289.9242 37.0935 18 ellipse_path stroke
0 0 0 nodecolor
14 /Times-Roman set_font
296.0689 286.2242 moveto 41 (0.847) alignedtext
grestore
% 7--10166
gsave
1 setlinewidth
dotted
0 0 0 edgecolor
newpath 290.5055 316.3903 moveto
293.8313 313.0131 297.287 309.504 300.5529 306.1876 curveto
stroke
grestore
% 8
gsave
1 setlinewidth
0 0 0 nodecolor
511.469 621.5741 192.2659 18 ellipse_path stroke
0 0 0 nodecolor
14 /Times-Roman set_font
371.469 617.8741 moveto 280 (Functional Programming_\(NWI-IBC040) alignedtext
grestore
% 60
gsave
1 setlinewidth
0 0 0 nodecolor
599.185 624.7471 27 18 ellipse_path stroke
grestore
% 8--60
gsave
1 setlinewidth
0 0 0 edgecolor
newpath 599.1214 624.7448 moveto
599.1425 624.7455 599.1584 624.7461 599.169 624.7465 curveto
stroke
grestore
% 10159
gsave
1 setlinewidth
0 0 1 nodecolor
510.3716 537.0561 37.0935 18 ellipse_path stroke
0 0 0 nodecolor
14 /Times-Roman set_font
489.8716 533.3561 moveto 41 (0.826) alignedtext
grestore
% 8--10159
gsave
1 setlinewidth
dotted
0 0 0 edgecolor
newpath 511.2309 603.235 moveto
511.0455 588.9614 510.7897 569.2592 510.6055 555.0691 curveto
stroke
grestore
% 10160
gsave
1 setlinewidth
0 0 1 nodecolor
425.1708 631.0695 37.0935 18 ellipse_path stroke
0 0 0 nodecolor
14 /Times-Roman set_font
404.6708 627.3695 moveto 41 (0.877) alignedtext
grestore
% 8--10160
gsave
1 setlinewidth
dotted
0 0 0 edgecolor
newpath 425.2333 631.0626 moveto
425.2126 631.0649 425.1969 631.0666 425.1865 631.0678 curveto
stroke
grestore
% 9
gsave
1 setlinewidth
0 0 0 nodecolor
262.9938 1431.3131 213.6622 18 ellipse_path stroke
0 0 0 nodecolor
14 /Times-Roman set_font
106.4938 1427.6131 moveto 313 (Introduction to Cryptography_\(NWI-IBC023) alignedtext
grestore
% 87
gsave
1 setlinewidth
0 0 0 nodecolor
355.0332 1410.5905 27 18 ellipse_path stroke
grestore
% 9--87
gsave
1 setlinewidth
0 0 0 edgecolor
newpath 338.1518 1414.3913 moveto
338.308 1414.3561 338.4635 1414.3211 338.6182 1414.2863 curveto
stroke
grestore
% 10132
gsave
1 setlinewidth
0 0 1 nodecolor
181.8038 1414.3812 37.0935 18 ellipse_path stroke
0 0 0 nodecolor
14 /Times-Roman set_font
161.3038 1410.6812 moveto 41 (0.893) alignedtext
grestore
% 9--10132
gsave
1 setlinewidth
dotted
0 0 0 edgecolor
newpath 182.9515 1414.6206 moveto
182.5783 1414.5427 182.2914 1414.4829 182.0978 1414.4425 curveto
stroke
grestore
% 9--10133
gsave
1 setlinewidth
dotted
0 0 0 edgecolor
newpath 270.0537 1449.5634 moveto
272.1863 1455.0762 274.5238 1461.1186 276.6434 1466.598 curveto
stroke
grestore
% 10
gsave
1 setlinewidth
0 0 0 nodecolor
952.3198 757.9841 208.7631 18 ellipse_path stroke
0 0 0 nodecolor
14 /Times-Roman set_font
799.8198 754.2841 moveto 305 (Advanced Network Security_\(NWI-IMC050) alignedtext
grestore
% 79
gsave
1 setlinewidth
0 0 0 nodecolor
888.6068 813.9437 27 18 ellipse_path stroke
grestore
% 10--79
gsave
1 setlinewidth
0 0 0 edgecolor
newpath 931.8099 775.9981 moveto
923.2248 783.5385 913.375 792.1896 905.2505 799.3255 curveto
stroke
grestore
% 10154
gsave
1 setlinewidth
0 0 1 nodecolor
1050.5248 762.0394 37.0935 18 ellipse_path stroke
0 0 0 nodecolor
14 /Times-Roman set_font
1030.0248 758.3394 moveto 41 (0.873) alignedtext
grestore
% 10--10154
gsave
1 setlinewidth
dotted
0 0 0 edgecolor
newpath 1050.4537 762.0365 moveto
1050.4773 762.0374 1050.4951 762.0382 1050.5069 762.0387 curveto
stroke
grestore
% 10155
gsave
1 setlinewidth
0 0 1 nodecolor
882.3837 740.9971 37.0935 18 ellipse_path stroke
0 0 0 nodecolor
14 /Times-Roman set_font
861.8837 737.2971 moveto 41 (0.866) alignedtext
grestore
% 10--10155
gsave
1 setlinewidth
dotted
0 0 0 edgecolor
newpath 882.4344 741.0094 moveto
882.4175 741.0053 882.4049 741.0022 882.3964 741.0002 curveto
stroke
grestore
% 11
gsave
1 setlinewidth
0 0 0 nodecolor
711.2147 1337.9786 159.4721 18 ellipse_path stroke
0 0 0 nodecolor
14 /Times-Roman set_font
596.7147 1334.2786 moveto 229 (Research Methods_\(NWI-IBI007) alignedtext
grestore
% 63
gsave
1 setlinewidth
0 0 0 nodecolor
651.1478 1296.3669 27 18 ellipse_path stroke
grestore
% 11--63
gsave
1 setlinewidth
0 0 0 edgecolor
newpath 685.3923 1320.09 moveto
680.1776 1316.4775 674.79 1312.7452 669.8754 1309.3406 curveto
stroke
grestore
% 11--10143
gsave
1 setlinewidth
dotted
0 0 0 edgecolor
newpath 714.3563 1356.2077 moveto
715.9786 1365.6207 717.9523 1377.0727 719.574 1386.4825 curveto
stroke
grestore
% 10144
gsave
1 setlinewidth
0 0 1 nodecolor
786.406 1384.1588 37.0935 18 ellipse_path stroke
0 0 0 nodecolor
14 /Times-Roman set_font
765.906 1380.4588 moveto 41 (0.880) alignedtext
grestore
% 11--10144
gsave
1 setlinewidth
dotted
0 0 0 edgecolor
newpath 740.0706 1355.701 moveto
747.6909 1360.3812 755.8183 1365.3728 763.1042 1369.8476 curveto
stroke
grestore
% 12
gsave
1 setlinewidth
0 0 0 nodecolor
717.2861 515.0359 177.3685 18 ellipse_path stroke
0 0 0 nodecolor
14 /Times-Roman set_font
588.7861 511.3359 moveto 257 (Type Theory and Coq_\(NWI-IMC010) alignedtext
grestore
% 88
gsave
1 setlinewidth
0 0 0 nodecolor
702.1805 595.6159 27 18 ellipse_path stroke
grestore
% 12--88
gsave
1 setlinewidth
0 0 0 edgecolor
newpath 713.8584 533.3207 moveto
711.3689 546.601 708.0168 564.4825 705.5426 577.681 curveto
stroke
grestore
% 10157
gsave
1 setlinewidth
0 0 1 nodecolor
786.3674 529.8147 37.0935 18 ellipse_path stroke
0 0 0 nodecolor
14 /Times-Roman set_font
765.8674 526.1147 moveto 41 (0.821) alignedtext
grestore
% 12--10157
gsave
1 setlinewidth
dotted
0 0 0 edgecolor
newpath 786.3174 529.804 moveto
786.334 529.8075 786.3465 529.8102 786.3549 529.812 curveto
stroke
grestore
% 10158
gsave
1 setlinewidth
0 0 1 nodecolor
656.057 471.4007 37.0935 18 ellipse_path stroke
0 0 0 nodecolor
14 /Times-Roman set_font
635.557 467.7007 moveto 41 (0.875) alignedtext
grestore
% 12--10158
gsave
1 setlinewidth
dotted
0 0 0 edgecolor
newpath 692.0284 497.0358 moveto
687.0212 493.4675 681.8167 489.7585 676.9734 486.3068 curveto
stroke
grestore
% 13
gsave
1 setlinewidth
0 0 0 nodecolor
510.6744 1227.6864 200.3646 18 ellipse_path stroke
0 0 0 nodecolor
14 /Times-Roman set_font
364.6744 1223.9864 moveto 292 (Organizing Cyber Security_\(NWI-IBC039) alignedtext
grestore
% 83
gsave
1 setlinewidth
0 0 0 nodecolor
590.6784 1195.4421 27 18 ellipse_path stroke
grestore
% 13--83
gsave
1 setlinewidth
0 0 0 edgecolor
newpath 554.4217 1210.0548 moveto
558.9452 1208.2316 563.4043 1206.4345 567.5648 1204.7577 curveto
stroke
grestore
% 10129
gsave
1 setlinewidth
0 0 1 nodecolor
446.313 1202.5541 37.0935 18 ellipse_path stroke
0 0 0 nodecolor
14 /Times-Roman set_font
425.813 1198.8541 moveto 41 (0.930) alignedtext
grestore
% 13--10129
gsave
1 setlinewidth
dotted
0 0 0 edgecolor
newpath 465.6235 1210.0946 moveto
465.539 1210.0616 465.4546 1210.0287 465.3704 1209.9958 curveto
stroke
grestore
% 10130
gsave
1 setlinewidth
0 0 1 nodecolor
419.1012 1255.7191 37.0935 18 ellipse_path stroke
0 0 0 nodecolor
14 /Times-Roman set_font
398.6012 1252.0191 moveto 41 (0.941) alignedtext
grestore
% 13--10130
gsave
1 setlinewidth
dotted
0 0 0 edgecolor
newpath 454.2439 1244.9611 moveto
453.0661 1245.3216 451.8983 1245.6791 450.7437 1246.0326 curveto
stroke
grestore
% 14
gsave
1 setlinewidth
0 0 0 nodecolor
402.7641 1076.1027 142.1749 18 ellipse_path stroke
0 0 0 nodecolor
14 /Times-Roman set_font
301.2641 1072.4027 moveto 203 (Computability_\(NWI-IBC003) alignedtext
grestore
% 86
gsave
1 setlinewidth
0 0 0 nodecolor
492.9251 1100.0937 27 18 ellipse_path stroke
grestore
% 14--86
gsave
1 setlinewidth
0 0 0 edgecolor
newpath 463.9013 1092.3707 moveto
465.1575 1092.705 466.3946 1093.0342 467.6079 1093.357 curveto
stroke
grestore
% 10127
gsave
1 setlinewidth
0 0 1 nodecolor
445.9128 1018.3411 37.0935 18 ellipse_path stroke
0 0 0 nodecolor
14 /Times-Roman set_font
425.4128 1014.6411 moveto 41 (0.882) alignedtext
grestore
% 14--10127
gsave
1 setlinewidth
dotted
0 0 0 edgecolor
newpath 416.1801 1058.1432 moveto
421.6227 1050.8574 427.8776 1042.4841 433.242 1035.3031 curveto
stroke
grestore
% 10128
gsave
1 setlinewidth
0 0 1 nodecolor
356.8338 1120.9852 37.0935 18 ellipse_path stroke
0 0 0 nodecolor
14 /Times-Roman set_font
336.3338 1117.2852 moveto 41 (0.913) alignedtext
grestore
% 14--10128
gsave
1 setlinewidth
dotted
0 0 0 edgecolor
newpath 384.3471 1094.0995 moveto
380.7533 1097.6114 377.0046 1101.2745 373.4725 1104.7261 curveto
stroke
grestore
% 15
gsave
1 setlinewidth
0 0 0 nodecolor
974.7203 342.6592 252.6553 18 ellipse_path stroke
0 0 0 nodecolor
14 /Times-Roman set_font
788.2203 338.9592 moveto 373 (Knowledge Representation for Inf.Sc._\(NWI-IMK012) alignedtext
grestore
% 106
gsave
1 setlinewidth
0 0 0 nodecolor
903.557 401.7452 27 18 ellipse_path stroke
grestore
% 15--106
gsave
1 setlinewidth
0 0 0 edgecolor
newpath 952.9823 360.708 moveto
942.6819 369.2603 930.5477 379.3351 920.8802 387.362 curveto
stroke
grestore
% 10116
gsave
1 setlinewidth
0 0 1 nodecolor
941.7813 271.241 37.0935 18 ellipse_path stroke
0 0 0 nodecolor
14 /Times-Roman set_font
921.2813 267.541 moveto 41 (0.707) alignedtext
grestore
% 15--10116
gsave
1 setlinewidth
dotted
0 0 0 edgecolor
newpath 966.4084 324.6374 moveto
961.377 313.7283 954.9866 299.8727 949.9765 289.0097 curveto
stroke
grestore
% 10117
gsave
1 setlinewidth
0 0 1 nodecolor
1037.9997 373.7098 37.0935 18 ellipse_path stroke
0 0 0 nodecolor
14 /Times-Roman set_font
1017.4997 370.0098 moveto 41 (0.731) alignedtext
grestore
% 15--10117
gsave
1 setlinewidth
dotted
0 0 0 edgecolor
newpath 1011.1635 360.5415 moveto
1011.3833 360.6494 1011.6028 360.7571 1011.8219 360.8646 curveto
stroke
grestore
% 16
gsave
1 setlinewidth
0 0 0 nodecolor
174.1845 395.2874 174.3693 18 ellipse_path stroke
0 0 0 nodecolor
14 /Times-Roman set_font
48.1845 391.5874 moveto 252 (Software Verification_\(NWI-IBC024) alignedtext
grestore
% 82
gsave
1 setlinewidth
0 0 0 nodecolor
257.5624 417.2001 27 18 ellipse_path stroke
grestore
% 16--82
gsave
1 setlinewidth
0 0 0 edgecolor
newpath 238.2243 412.1178 moveto
238.3117 412.1408 238.399 412.1638 238.4861 412.1867 curveto
stroke
grestore
% 10164
gsave
1 setlinewidth
0 0 1 nodecolor
180.3386 478.1579 37.0935 18 ellipse_path stroke
0 0 0 nodecolor
14 /Times-Roman set_font
159.8386 474.4579 moveto 41 (0.825) alignedtext
grestore
% 16--10164
gsave
1 setlinewidth
dotted
0 0 0 edgecolor
newpath 175.5503 413.6791 moveto
176.5773 427.5075 177.977 446.3567 178.9978 460.1028 curveto
stroke
grestore
% 16--10165
gsave
1 setlinewidth
dotted
0 0 0 edgecolor
newpath 178.4173 376.9487 moveto
180.8903 366.2341 183.9986 352.767 186.4592 342.106 curveto
stroke
grestore
% 17
gsave
1 setlinewidth
0 0 0 nodecolor
456.3483 218.4999 167.0704 18 ellipse_path stroke
0 0 0 nodecolor
14 /Times-Roman set_font
335.8483 214.7999 moveto 241 (Hardware Security_\(NWI-IMC001) alignedtext
grestore
% 17--101
gsave
1 setlinewidth
0 0 0 edgecolor
newpath 483.9371 236.4093 moveto
491.8616 241.5535 500.3364 247.055 507.665 251.8123 curveto
stroke
grestore
% 10167
gsave
1 setlinewidth
0 0 1 nodecolor
394.271 247.314 37.0935 18 ellipse_path stroke
0 0 0 nodecolor
14 /Times-Roman set_font
373.771 243.614 moveto 41 (0.868) alignedtext
grestore
% 17--10167
gsave
1 setlinewidth
dotted
0 0 0 edgecolor
newpath 418.4495 236.0912 moveto
418.3485 236.1381 418.2477 236.1849 418.1469 236.2317 curveto
stroke
grestore
% 17--10168
gsave
1 setlinewidth
dotted
0 0 0 edgecolor
newpath 453.0291 200.4444 moveto
450.5507 186.9623 447.1785 168.6189 444.7023 155.149 curveto
stroke
grestore
% 18
gsave
1 setlinewidth
0 0 0 nodecolor
963.3299 1315.9973 256.1546 18 ellipse_path stroke
0 0 0 nodecolor
14 /Times-Roman set_font
774.3299 1312.2973 moveto 378 (Academisch Schrijven voor Informatici_\(NWI-IBC035) alignedtext
grestore
% 93
gsave
1 setlinewidth
0 0 0 nodecolor
878.5686 1265.6125 27 18 ellipse_path stroke
grestore
% 18--93
gsave
1 setlinewidth
0 0 0 edgecolor
newpath 933.2076 1298.0917 moveto
921.7875 1291.3032 909.0681 1283.7424 898.7768 1277.6249 curveto
stroke
grestore
% 10146
gsave
1 setlinewidth
0 0 1 nodecolor
1021.9429 1390.8059 37.0935 18 ellipse_path stroke
0 0 0 nodecolor
14 /Times-Roman set_font
1001.4429 1387.1059 moveto 41 (0.861) alignedtext
grestore
% 18--10146
gsave
1 setlinewidth
dotted
0 0 0 edgecolor
newpath 977.5185 1334.1064 moveto
987.005 1346.2141 999.4017 1362.0362 1008.6885 1373.8891 curveto
stroke
grestore
% 10147
gsave
1 setlinewidth
0 0 1 nodecolor
1048.2548 1333.6892 37.0935 18 ellipse_path stroke
0 0 0 nodecolor
14 /Times-Roman set_font
1027.7548 1329.9892 moveto 41 (0.865) alignedtext
grestore
% 18--10147
gsave
1 setlinewidth
dotted
0 0 0 edgecolor
newpath 1045.4291 1333.1006 moveto
1045.5423 1333.1241 1045.6523 1333.147 1045.7591 1333.1693 curveto
stroke
grestore
% 19
gsave
1 setlinewidth
0 0 0 nodecolor
264.4472 497.9414 116.9792 18 ellipse_path stroke
0 0 0 nodecolor
14 /Times-Roman set_font
182.4472 494.2414 moveto 164 (Big Data_\(NWI-IBC036) alignedtext
grestore
% 19--82
gsave
1 setlinewidth
0 0 0 edgecolor
newpath 262.8849 479.62 moveto
261.7582 466.4062 260.2438 448.6462 259.1185 435.4491 curveto
stroke
grestore
% 10163
gsave
1 setlinewidth
0 0 1 nodecolor
350.233 520.2144 37.0935 18 ellipse_path stroke
0 0 0 nodecolor
14 /Times-Roman set_font
329.733 516.5144 moveto 41 (0.846) alignedtext
grestore
% 19--10163
gsave
1 setlinewidth
dotted
0 0 0 edgecolor
newpath 324.4944 513.5318 moveto
324.6071 513.561 324.7195 513.5902 324.8318 513.6194 curveto
stroke
grestore
% 19--10164
gsave
1 setlinewidth
dotted
0 0 0 edgecolor
newpath 200.2712 482.8463 moveto
200.1813 482.8251 200.0915 482.804 200.002 482.783 curveto
stroke
grestore
% 20
gsave
1 setlinewidth
0 0 0 nodecolor
396.6599 326.8934 130.777 18 ellipse_path stroke
0 0 0 nodecolor
14 /Times-Roman set_font
304.1599 323.1934 moveto 185 (Data Mining_\(NWI-IBI008) alignedtext
grestore
% 76
gsave
1 setlinewidth
0 0 0 nodecolor
434.5895 396.0163 27 18 ellipse_path stroke
grestore
% 20--76
gsave
1 setlinewidth
0 0 0 edgecolor
newpath 406.6255 345.0546 moveto
412.3322 355.4546 419.4542 368.4338 425.0825 378.6908 curveto
stroke
grestore
% 20--10166
gsave
1 setlinewidth
dotted
0 0 0 edgecolor
newpath 358.9596 309.4913 moveto
353.7663 307.0941 348.5203 304.6726 343.5724 302.3887 curveto
stroke
grestore
% 20--10167
gsave
1 setlinewidth
dotted
0 0 0 edgecolor
newpath 396.1178 308.8356 moveto
395.7296 295.9036 395.2088 278.5538 394.8192 265.5758 curveto
stroke
grestore
% 21
gsave
1 setlinewidth
0 0 0 nodecolor
536.4136 1040.8065 217.1615 18 ellipse_path stroke
0 0 0 nodecolor
14 /Times-Roman set_font
377.4136 1037.1065 moveto 318 (Reflection & Vocational Orient._\(NWI-IBI010) alignedtext
grestore
% 21--86
gsave
1 setlinewidth
0 0 0 edgecolor
newpath 523.1293 1058.9168 moveto
517.3342 1066.8171 510.5894 1076.0123 504.9453 1083.7068 curveto
stroke
grestore
% 10126
gsave
1 setlinewidth
0 0 1 nodecolor
623.1564 1030.6112 37.0935 18 ellipse_path stroke
0 0 0 nodecolor
14 /Times-Roman set_font
602.6564 1026.9112 moveto 41 (0.957) alignedtext
grestore
% 21--10126
gsave
1 setlinewidth
dotted
0 0 0 edgecolor
newpath 623.0935 1030.6186 moveto
623.1144 1030.6161 623.1301 1030.6143 623.1406 1030.613 curveto
stroke
grestore
% 21--10127
gsave
1 setlinewidth
dotted
0 0 0 edgecolor
newpath 467.3603 1023.6651 moveto
467.2635 1023.6411 467.1669 1023.6171 467.0705 1023.5932 curveto
stroke
grestore
% 22
gsave
1 setlinewidth
0 0 0 nodecolor
982.9765 812.0225 153.2729 18 ellipse_path stroke
0 0 0 nodecolor
14 /Times-Roman set_font
872.9765 808.3225 moveto 220 (Model Checking_\(NWI-IMC046) alignedtext
grestore
% 22--79
gsave
1 setlinewidth
0 0 0 edgecolor
newpath 888.6752 813.9423 moveto
888.6525 813.9427 888.6354 813.9431 888.624 813.9433 curveto
stroke
grestore
% 10153
gsave
1 setlinewidth
0 0 1 nodecolor
998.7875 881.8368 37.0935 18 ellipse_path stroke
0 0 0 nodecolor
14 /Times-Roman set_font
978.2875 878.1368 moveto 41 (0.904) alignedtext
grestore
% 22--10153
gsave
1 setlinewidth
dotted
0 0 0 edgecolor
newpath 987.1306 830.3654 moveto
989.4729 840.7078 992.3871 853.5756 994.7157 863.8579 curveto
stroke
grestore
% 22--10154
gsave
1 setlinewidth
dotted
0 0 0 edgecolor
newpath 1007.363 793.9775 moveto
1014.7698 788.4967 1022.8309 782.5318 1029.96 777.2566 curveto
stroke
grestore
% 23
gsave
1 setlinewidth
0 0 0 nodecolor
987.5455 443.7904 261.8535 18 ellipse_path stroke
0 0 0 nodecolor
14 /Times-Roman set_font
794.0455 440.0904 moveto 387 (Syst. Appr. to Inform. and Organization_\(NWI-IMK010) alignedtext
grestore
% 80
gsave
1 setlinewidth
0 0 0 nodecolor
911.4918 490.184 27 18 ellipse_path stroke
grestore
% 23--80
gsave
1 setlinewidth
0 0 0 edgecolor
newpath 957.9234 461.8602 moveto
949.0812 467.254 939.6009 473.0371 931.5268 477.9624 curveto
stroke
grestore
% 23--10117
gsave
1 setlinewidth
dotted
0 0 0 edgecolor
newpath 1000.5387 425.7429 moveto
1008.2469 415.0362 1017.9657 401.5368 1025.5723 390.9712 curveto
stroke
grestore
% 10118
gsave
1 setlinewidth
0 0 1 nodecolor
1031.0025 483.2964 37.0935 18 ellipse_path stroke
0 0 0 nodecolor
14 /Times-Roman set_font
1010.5025 479.5964 moveto 41 (0.860) alignedtext
grestore
% 23--10118
gsave
1 setlinewidth
dotted
0 0 0 edgecolor
newpath 1007.4933 461.9246 moveto
1009.4569 463.7096 1011.4399 465.5124 1013.3777 467.274 curveto
stroke
grestore
% 24
gsave
1 setlinewidth
0 0 0 nodecolor
1190.8353 1035.2252 246.9562 18 ellipse_path stroke
0 0 0 nodecolor
14 /Times-Roman set_font
1008.8353 1031.5252 moveto 364 (Research Seminar Software Science_\(NWI-IMC045) alignedtext
grestore
% 61
gsave
1 setlinewidth
0 0 0 nodecolor
1092.6304 1043.3998 27 18 ellipse_path stroke
grestore
% 24--61
gsave
1 setlinewidth
0 0 0 edgecolor
newpath 1092.7016 1043.3938 moveto
1092.678 1043.3958 1092.6602 1043.3973 1092.6483 1043.3983 curveto
stroke
grestore
% 10150
gsave
1 setlinewidth
0 0 1 nodecolor
1225.649 1105.7631 37.0935 18 ellipse_path stroke
0 0 0 nodecolor
14 /Times-Roman set_font
1205.149 1102.0631 moveto 41 (0.785) alignedtext
grestore
% 24--10150
gsave
1 setlinewidth
dotted
0 0 0 edgecolor
newpath 1199.8007 1053.3905 moveto
1205.0388 1064.0037 1211.6226 1077.3434 1216.8345 1087.9036 curveto
stroke
grestore
% 24--10151
gsave
1 setlinewidth
dotted
0 0 0 edgecolor
newpath 1190.432 1016.9184 moveto
1190.2385 1008.1306 1190.0072 997.6325 1189.8141 988.8679 curveto
stroke
grestore
% 25
gsave
1 setlinewidth
0 0 0 nodecolor
1025.6459 714.7144 267.5527 18 ellipse_path stroke
0 0 0 nodecolor
14 /Times-Roman set_font
827.6459 711.0144 moveto 396 (Software Development Entrepreneurship_\(NWI-IMI004) alignedtext
grestore
% 75
gsave
1 setlinewidth
0 0 0 nodecolor
951.1993 670.6629 27 18 ellipse_path stroke
grestore
% 25--75
gsave
1 setlinewidth
0 0 0 edgecolor
newpath 995.3656 696.797 moveto
987.3145 692.033 978.814 687.0031 971.4438 682.642 curveto
stroke
grestore
% 10121
gsave
1 setlinewidth
0 0 1 nodecolor
1119.888 694.6829 37.0935 18 ellipse_path stroke
0 0 0 nodecolor
14 /Times-Roman set_font
1099.388 690.9829 moveto 41 (0.822) alignedtext
grestore
% 25--10121
gsave
1 setlinewidth
dotted
0 0 0 edgecolor
newpath 1106.784 697.4682 moveto
1106.9079 697.4419 1107.0311 697.4157 1107.1536 697.3896 curveto
stroke
grestore
% 10122
gsave
1 setlinewidth
0 0 1 nodecolor
1043.9945 804.3995 37.0935 18 ellipse_path stroke
0 0 0 nodecolor
14 /Times-Roman set_font
1023.4945 800.6995 moveto 41 (0.891) alignedtext
grestore
% 25--10122
gsave
1 setlinewidth
dotted
0 0 0 edgecolor
newpath 1029.359 732.8635 moveto
1032.5424 748.4235 1037.1051 770.7252 1040.2869 786.2773 curveto
stroke
grestore
% 26
gsave
1 setlinewidth
0 0 0 nodecolor
215.1189 1345.5049 193.0657 18 ellipse_path stroke
0 0 0 nodecolor
14 /Times-Roman set_font
74.6189 1341.8049 moveto 281 (Security in Organisations_\(NWI-I00153) alignedtext
grestore
% 89
gsave
1 setlinewidth
0 0 0 nodecolor
306.76 1350.2772 27 18 ellipse_path stroke
grestore
% 26--89
gsave
1 setlinewidth
0 0 0 edgecolor
newpath 306.6936 1350.2738 moveto
306.7156 1350.2749 306.7322 1350.2758 306.7433 1350.2763 curveto
stroke
grestore
% 10131
gsave
1 setlinewidth
0 0 1 nodecolor
242.1271 1271.8888 37.0935 18 ellipse_path stroke
0 0 0 nodecolor
14 /Times-Roman set_font
221.6271 1268.1888 moveto 41 (0.185) alignedtext
grestore
% 26--10131
gsave
1 setlinewidth
dotted
0 0 0 edgecolor
newpath 221.7951 1327.3077 moveto
226.0127 1315.8117 231.4362 1301.0288 235.6209 1289.6227 curveto
stroke
grestore
% 26--10132
gsave
1 setlinewidth
dotted
0 0 0 edgecolor
newpath 206.3657 1363.6014 moveto
201.4304 1373.8048 195.2899 1386.4997 190.3832 1396.6439 curveto
stroke
grestore
% 27
gsave
1 setlinewidth
0 0 0 nodecolor
615.4086 99.0064 162.4712 18 ellipse_path stroke
0 0 0 nodecolor
14 /Times-Roman set_font
498.4086 95.3064 moveto 234 (Software Security_\(NWI-ISOFSE) alignedtext
grestore
% 27--84
gsave
1 setlinewidth
0 0 0 edgecolor
newpath 621.4772 117.1377 moveto
626.0402 130.7704 632.2598 149.3528 636.7956 162.9042 curveto
stroke
grestore
% 27--10112
gsave
1 setlinewidth
dotted
0 0 0 edgecolor
newpath 543.588 98.5373 moveto
543.5708 98.5371 543.5577 98.5371 543.549 98.537 curveto
stroke
grestore
% 27--10113
gsave
1 setlinewidth
dotted
0 0 0 edgecolor
newpath 632.5967 80.9708 moveto
639.6963 73.5211 647.8749 64.9392 654.8294 57.6417 curveto
stroke
grestore
% 28
gsave
1 setlinewidth
0 0 0 nodecolor
801.5243 768.4264 183.0677 18 ellipse_path stroke
0 0 0 nodecolor
14 /Times-Roman set_font
668.5243 764.7264 moveto 266 (Networks and Security_\(NWI-IBC048) alignedtext
grestore
% 57
gsave
1 setlinewidth
0 0 0 nodecolor
805.785 826.0109 27 18 ellipse_path stroke
grestore
% 28--57
gsave
1 setlinewidth
0 0 0 edgecolor
newpath 802.8724 786.6465 moveto
803.3697 793.3684 803.9331 800.9829 804.431 807.7117 curveto
stroke
grestore
% 28--10155
gsave
1 setlinewidth
dotted
0 0 0 edgecolor
newpath 852.7338 751.055 moveto
852.8591 751.0125 852.9843 750.97 853.1094 750.9276 curveto
stroke
grestore
% 10156
gsave
1 setlinewidth
0 0 1 nodecolor
768.1955 699.7197 37.0935 18 ellipse_path stroke
0 0 0 nodecolor
14 /Times-Roman set_font
747.6955 696.0197 moveto 41 (0.874) alignedtext
grestore
% 28--10156
gsave
1 setlinewidth
dotted
0 0 0 edgecolor
newpath 792.7675 750.3746 moveto
787.8302 740.1962 781.6872 727.5325 776.7785 717.4134 curveto
stroke
grestore
% 29
gsave
1 setlinewidth
0 0 0 nodecolor
950.2133 935.1308 151.3732 18 ellipse_path stroke
0 0 0 nodecolor
14 /Times-Roman set_font
841.7133 931.4308 moveto 217 (Privacy Seminar_\(NWI-I00136) alignedtext
grestore
% 69
gsave
1 setlinewidth
0 0 0 nodecolor
887.4206 957.5917 27 18 ellipse_path stroke
grestore
% 29--69
gsave
1 setlinewidth
0 0 0 edgecolor
newpath 902.3016 952.2687 moveto
902.1673 952.3168 902.0336 952.3646 901.9005 952.4122 curveto
stroke
grestore
% 29--10152
gsave
1 setlinewidth
dotted
0 0 0 edgecolor
newpath 1049.2641 940.2868 moveto
1049.2879 940.288 1049.3059 940.289 1049.3179 940.2896 curveto
stroke
grestore
% 29--10153
gsave
1 setlinewidth
dotted
0 0 0 edgecolor
newpath 966.6583 917.0879 moveto
972.1629 911.0484 978.2696 904.3484 983.668 898.4254 curveto
stroke
grestore
% 30
gsave
1 setlinewidth
0 0 0 nodecolor
600.4406 538.721 213.6622 18 ellipse_path stroke
0 0 0 nodecolor
14 /Times-Roman set_font
443.9406 535.021 moveto 313 (Object Oriented Programming_\(NWI-IPI005) alignedtext
grestore
% 30--60
gsave
1 setlinewidth
0 0 0 edgecolor
newpath 600.1743 556.9649 moveto
599.9612 571.5638 599.6639 591.9375 599.4509 606.5295 curveto
stroke
grestore
% 30--10158
gsave
1 setlinewidth
dotted
0 0 0 edgecolor
newpath 615.3448 520.6804 moveto
623.5819 510.7098 633.76 498.3899 641.8787 488.5626 curveto
stroke
grestore
% 30--10159
gsave
1 setlinewidth
dotted
0 0 0 edgecolor
newpath 510.4368 537.0573 moveto
510.4152 537.0569 510.3989 537.0566 510.388 537.0564 curveto
stroke
grestore
% 31
gsave
1 setlinewidth
0 0 0 nodecolor
669.2221 1773.3178 241.5573 18 ellipse_path stroke
0 0 0 nodecolor
14 /Times-Roman set_font
491.2221 1769.6178 moveto 356 (System Development Management_\(NWI-IMC021) alignedtext
grestore
% 103
gsave
1 setlinewidth
0 0 0 nodecolor
604.437 1710.2685 27 18 ellipse_path stroke
grestore
% 31--103
gsave
1 setlinewidth
0 0 0 edgecolor
newpath 650.4836 1755.0813 moveto
640.7673 1745.6254 629.045 1734.2171 619.8595 1725.2778 curveto
stroke
grestore
% 10139
gsave
1 setlinewidth
0 0 1 nodecolor
657.5112 1850.3109 37.0935 18 ellipse_path stroke
0 0 0 nodecolor
14 /Times-Roman set_font
637.0112 1846.6109 moveto 41 (0.647) alignedtext
grestore
% 31--10139
gsave
1 setlinewidth
dotted
0 0 0 edgecolor
newpath 666.4468 1791.5641 moveto
664.58 1803.8374 662.1293 1819.9497 660.2666 1832.1956 curveto
stroke
grestore
% 10140
gsave
1 setlinewidth
0 0 1 nodecolor
715.2351 1733.2924 37.0935 18 ellipse_path stroke
0 0 0 nodecolor
14 /Times-Roman set_font
694.7351 1729.5924 moveto 41 (0.880) alignedtext
grestore
% 31--10140
gsave
1 setlinewidth
dotted
0 0 0 edgecolor
newpath 690.0746 1755.1789 moveto
692.3573 1753.1932 694.6685 1751.1827 696.9174 1749.2265 curveto
stroke
grestore
% 32
gsave
1 setlinewidth
0 0 0 nodecolor
333.5041 1278.14 197.665 18 ellipse_path stroke
0 0 0 nodecolor
14 /Times-Roman set_font
189.5041 1274.44 moveto 288 (Security in Organisations_\(NWI-IMC053) alignedtext
grestore
% 32--89
gsave
1 setlinewidth
0 0 0 edgecolor
newpath 326.7554 1296.3432 moveto
322.6703 1307.3622 317.4818 1321.3572 313.4139 1332.3297 curveto
stroke
grestore
% 32--10130
gsave
1 setlinewidth
dotted
0 0 0 edgecolor
newpath 398.8159 1261.0325 moveto
398.9074 1261.0086 398.9987 1260.9846 399.0899 1260.9608 curveto
stroke
grestore
% 32--10131
gsave
1 setlinewidth
dotted
0 0 0 edgecolor
newpath 242.1933 1271.8933 moveto
242.1713 1271.8918 242.1548 1271.8907 242.1437 1271.8899 curveto
stroke
grestore
% 33
gsave
1 setlinewidth
0 0 0 nodecolor
709.0494 1041.1542 168.97 18 ellipse_path stroke
0 0 0 nodecolor
14 /Times-Roman set_font
587.0494 1037.4542 moveto 244 (Bayesian Networks_\(NWI-IMC012) alignedtext
grestore
% 110
gsave
1 setlinewidth
0 0 0 nodecolor
785.2237 1025.8072 27 18 ellipse_path stroke
grestore
% 33--110
gsave
1 setlinewidth
0 0 0 edgecolor
newpath 785.1685 1025.8184 moveto
785.1868 1025.8147 785.2006 1025.8119 785.2099 1025.81 curveto
stroke
grestore
% 10125
gsave
1 setlinewidth
0 0 1 nodecolor
796.9024 1083.3962 37.0935 18 ellipse_path stroke
0 0 0 nodecolor
14 /Times-Roman set_font
776.4024 1079.6962 moveto 41 (0.851) alignedtext
grestore
% 33--10125
gsave
1 setlinewidth
dotted
0 0 0 edgecolor
newpath 745.798 1058.8239 moveto
754.0734 1062.8029 762.6982 1066.9499 770.4543 1070.6792 curveto
stroke
grestore
% 33--10126
gsave
1 setlinewidth
dotted
0 0 0 edgecolor
newpath 623.2187 1030.6188 moveto
623.198 1030.6163 623.1825 1030.6144 623.172 1030.6131 curveto
stroke
grestore
% 34
gsave
1 setlinewidth
0 0 0 nodecolor
765.6028 614.9638 206.8635 18 ellipse_path stroke
0 0 0 nodecolor
14 /Times-Roman set_font
614.6028 611.2638 moveto 302 (Introd. to Formal Reasoning_\(NWI-IPK001) alignedtext
grestore
% 34--88
gsave
1 setlinewidth
0 0 0 edgecolor
newpath 708.4935 597.5418 moveto
708.3719 597.5047 708.2516 597.468 708.1328 597.4318 curveto
stroke
grestore
% 34--10156
gsave
1 setlinewidth
dotted
0 0 0 edgecolor
newpath 766.1654 633.3546 moveto
766.6032 647.6683 767.2076 667.426 767.6429 681.656 curveto
stroke
grestore
% 34--10157
gsave
1 setlinewidth
dotted
0 0 0 edgecolor
newpath 770.0064 596.9059 moveto
773.5303 582.4558 778.448 562.2898 781.9701 547.8466 curveto
stroke
grestore
% 35
gsave
1 setlinewidth
0 0 0 nodecolor
962.8859 1411.5217 204.1638 18 ellipse_path stroke
0 0 0 nodecolor
14 /Times-Roman set_font
813.8859 1407.8217 moveto 298 (Semantics and Correctness_\(NWI-IBC026) alignedtext
grestore
% 94
gsave
1 setlinewidth
0 0 0 nodecolor
894.9379 1343.3666 27 18 ellipse_path stroke
grestore
% 35--94
gsave
1 setlinewidth
0 0 0 edgecolor
newpath 944.6771 1393.2574 moveto
933.8273 1382.3746 920.2214 1368.7271 909.9835 1358.4581 curveto
stroke
grestore
% 10145
gsave
1 setlinewidth
0 0 1 nodecolor
930.7909 1475.5742 37.0935 18 ellipse_path stroke
0 0 0 nodecolor
14 /Times-Roman set_font
910.2909 1471.8742 moveto 41 (0.717) alignedtext
grestore
% 35--10145
gsave
1 setlinewidth
dotted
0 0 0 edgecolor
newpath 953.7746 1429.7052 moveto
949.3268 1438.5818 943.9987 1449.2152 939.5929 1458.008 curveto
stroke
grestore
% 35--10146
gsave
1 setlinewidth
dotted
0 0 0 edgecolor
newpath 1012.7152 1394.0427 moveto
1012.8018 1394.0124 1012.8878 1393.9822 1012.9734 1393.9522 curveto
stroke
grestore
% 36
gsave
1 setlinewidth
0 0 0 nodecolor
1136.4438 636.0045 201.4642 18 ellipse_path stroke
0 0 0 nodecolor
14 /Times-Roman set_font
989.4438 632.3045 moveto 294 (Requirements Engineering_\(NWI-IPC023) alignedtext
grestore
% 100
gsave
1 setlinewidth
0 0 0 nodecolor
1042.0824 631.4017 27 18 ellipse_path stroke
grestore
% 36--100
gsave
1 setlinewidth
0 0 0 edgecolor
newpath 1042.1508 631.405 moveto
1042.1281 631.4039 1042.111 631.4031 1042.0996 631.4025 curveto
stroke
grestore
% 10120
gsave
1 setlinewidth
0 0 1 nodecolor
1195.6895 580.7125 37.0935 18 ellipse_path stroke
0 0 0 nodecolor
14 /Times-Roman set_font
1175.1895 577.0125 moveto 41 (0.801) alignedtext
grestore
% 36--10120
gsave
1 setlinewidth
dotted
0 0 0 edgecolor
newpath 1155.843 617.8998 moveto
1163.1324 611.0969 1171.3632 603.4154 1178.4437 596.8074 curveto
stroke
grestore
% 36--10121
gsave
1 setlinewidth
dotted
0 0 0 edgecolor
newpath 1131.2962 654.249 moveto
1129.2838 661.3813 1126.9821 669.5395 1124.9755 676.6512 curveto
stroke
grestore
% 37
gsave
1 setlinewidth
0 0 0 nodecolor
1028.6172 896.4123 213.3623 18 ellipse_path stroke
0 0 0 nodecolor
14 /Times-Roman set_font
872.6172 892.7123 moveto 312 (Statistical Machine Learning_\(NWI-IMC056) alignedtext
grestore
% 37--98
gsave
1 setlinewidth
0 0 0 edgecolor
newpath 1014.4262 914.702 moveto
1002.9304 929.5181 986.884 950.1992 975.8326 964.4425 curveto
stroke
grestore
% 37--10122
gsave
1 setlinewidth
dotted
0 0 0 edgecolor
newpath 1031.6552 878.2335 moveto
1034.3511 862.1024 1038.2688 838.6602 1040.9627 822.5405 curveto
stroke
grestore
% 37--10123
gsave
1 setlinewidth
dotted
0 0 0 edgecolor
newpath 1064.1401 914.3882 moveto
1070.8342 917.7757 1077.7201 921.2602 1084.0595 924.4682 curveto
stroke
grestore
% 38
gsave
1 setlinewidth
0 0 0 nodecolor
863.0251 1411.68 193.8658 18 ellipse_path stroke
0 0 0 nodecolor
14 /Times-Roman set_font
722.0251 1407.98 moveto 282 (Semantics and Rewriting_\(NWI-IBC025) alignedtext
grestore
% 38--94
gsave
1 setlinewidth
0 0 0 edgecolor
newpath 871.5771 1393.3733 moveto
876.3036 1383.2556 882.1438 1370.754 886.8024 1360.7817 curveto
stroke
grestore
% 38--10144
gsave
1 setlinewidth
dotted
0 0 0 edgecolor
newpath 814.501 1394.2504 moveto
814.3822 1394.2077 814.2636 1394.1651 814.1451 1394.1226 curveto
stroke
grestore
% 38--10145
gsave
1 setlinewidth
dotted
0 0 0 edgecolor
newpath 882.2628 1429.8186 moveto
892.1235 1439.116 904.0335 1450.3455 913.5867 1459.3529 curveto
stroke
grestore
% 39
gsave
1 setlinewidth
0 0 0 nodecolor
594.9431 1795.0481 174.6691 18 ellipse_path stroke
0 0 0 nodecolor
14 /Times-Roman set_font
468.4431 1791.3481 moveto 253 (Software Engineering_\(NWI-IBI001) alignedtext
grestore
% 39--103
gsave
1 setlinewidth
0 0 0 edgecolor
newpath 597.0031 1776.6522 moveto
598.6065 1762.3344 600.8196 1742.5712 602.4136 1728.3372 curveto
stroke
grestore
% 10138
gsave
1 setlinewidth
0 0 1 nodecolor
531.1973 1842.4215 37.0935 18 ellipse_path stroke
0 0 0 nodecolor
14 /Times-Roman set_font
510.6973 1838.7215 moveto 41 (0.885) alignedtext
grestore
% 39--10138
gsave
1 setlinewidth
dotted
0 0 0 edgecolor
newpath 570.8435 1812.958 moveto
564.4972 1817.6743 557.7131 1822.716 551.5833 1827.2714 curveto
stroke
grestore
% 39--10139
gsave
1 setlinewidth
dotted
0 0 0 edgecolor
newpath 615.4303 1813.1432 moveto
623.1284 1819.9426 631.8208 1827.62 639.2984 1834.2245 curveto
stroke
grestore
% 40
gsave
1 setlinewidth
0 0 0 nodecolor
1026.9305 1217.3284 243.1569 18 ellipse_path stroke
0 0 0 nodecolor
14 /Times-Roman set_font
847.9305 1213.6284 moveto 358 (Foundations of Information Systems_\(NWI-I00035) alignedtext
grestore
% 65
gsave
1 setlinewidth
0 0 0 nodecolor
929.4065 1211.3486 27 18 ellipse_path stroke
grestore
% 40--65
gsave
1 setlinewidth
0 0 0 edgecolor
newpath 929.4772 1211.3529 moveto
929.4537 1211.3515 929.4361 1211.3504 929.4243 1211.3497 curveto
stroke
grestore
% 10148
gsave
1 setlinewidth
0 0 1 nodecolor
1093.9445 1279.3748 37.0935 18 ellipse_path stroke
0 0 0 nodecolor
14 /Times-Roman set_font
1073.4445 1275.6748 moveto 41 (0.770) alignedtext
grestore
% 40--10148
gsave
1 setlinewidth
dotted
0 0 0 edgecolor
newpath 1046.3137 1235.2748 moveto
1055.9004 1244.1508 1067.375 1254.7749 1076.6595 1263.3711 curveto
stroke
grestore
% 10149
gsave
1 setlinewidth
0 0 1 nodecolor
1105.5844 1187.1102 37.0935 18 ellipse_path stroke
0 0 0 nodecolor
14 /Times-Roman set_font
1085.0844 1183.4102 moveto 41 (0.907) alignedtext
grestore
% 40--10149
gsave
1 setlinewidth
dotted
0 0 0 edgecolor
newpath 1073.1387 1199.5755 moveto
1074.2088 1199.1644 1075.2718 1198.756 1076.3245 1198.3516 curveto
stroke
grestore
% 41
gsave
1 setlinewidth
0 0 0 nodecolor
294.9726 1620.7349 226.6599 18 ellipse_path stroke
0 0 0 nodecolor
14 /Times-Roman set_font
128.4726 1617.0349 moveto 333 (Category Theory and Coalgebra_\(NWI-IMC036) alignedtext
grestore
% 41--74
gsave
1 setlinewidth
0 0 0 edgecolor
newpath 380.2167 1630.9786 moveto
380.2372 1630.9811 380.2526 1630.9829 380.263 1630.9842 curveto
stroke
grestore
% 41--10134
gsave
1 setlinewidth
dotted
0 0 0 edgecolor
newpath 300.1111 1602.6553 moveto
303.1745 1591.877 307.0527 1578.2318 310.1282 1567.4108 curveto
stroke
grestore
% 41--10135
gsave
1 setlinewidth
dotted
0 0 0 edgecolor
newpath 276.1845 1638.9809 moveto
268.5736 1646.3723 259.8528 1654.8415 252.45 1662.0307 curveto
stroke
grestore
% 42
gsave
1 setlinewidth
0 0 0 nodecolor
417.5079 662.2449 134.5761 18 ellipse_path stroke
0 0 0 nodecolor
14 /Times-Roman set_font
322.0079 658.5449 moveto 191 (R&D Project_\(NWI-IPC030) alignedtext
grestore
% 64
gsave
1 setlinewidth
0 0 0 nodecolor
510.1181 671.7236 27 18 ellipse_path stroke
grestore
% 42--64
gsave
1 setlinewidth
0 0 0 edgecolor
newpath 510.051 671.7167 moveto
510.0732 671.719 510.09 671.7207 510.1012 671.7219 curveto
stroke
grestore
% 10161
gsave
1 setlinewidth
0 0 1 nodecolor
349.3162 694.4537 37.0935 18 ellipse_path stroke
0 0 0 nodecolor
14 /Times-Roman set_font
328.8162 690.7537 moveto 41 (0.844) alignedtext
grestore
% 42--10161
gsave
1 setlinewidth
dotted
0 0 0 edgecolor
newpath 380.6179 679.6691 moveto
379.1116 680.3805 377.6126 681.0886 376.1328 681.7875 curveto
stroke
grestore
% 10162
gsave
1 setlinewidth
0 0 1 nodecolor
382.0266 583.8188 37.0935 18 ellipse_path stroke
0 0 0 nodecolor
14 /Times-Roman set_font
361.5266 580.1188 moveto 41 (0.858) alignedtext
grestore
% 42--10162
gsave
1 setlinewidth
dotted
0 0 0 edgecolor
newpath 409.2786 644.0553 moveto
403.5056 631.2948 395.8248 614.3175 390.089 601.6394 curveto
stroke
grestore
% 43
gsave
1 setlinewidth
0 0 0 nodecolor
1003.5569 1267.4359 173.5692 18 ellipse_path stroke
0 0 0 nodecolor
14 /Times-Roman set_font
878.0569 1263.7359 moveto 251 (Information Systems_\(NWI-IBC020) alignedtext
grestore
% 43--65
gsave
1 setlinewidth
0 0 0 edgecolor
newpath 979.6871 1249.3808 moveto
969.1875 1241.439 957.0626 1232.2677 947.3503 1224.9213 curveto
stroke
grestore
% 43--10147
gsave
1 setlinewidth
dotted
0 0 0 edgecolor
newpath 1015.7708 1285.5399 moveto
1022.2845 1295.1949 1030.2555 1307.0098 1036.6713 1316.5196 curveto
stroke
grestore
% 43--10148
gsave
1 setlinewidth
dotted
0 0 0 edgecolor
newpath 1093.879 1279.3661 moveto
1093.9007 1279.369 1093.9171 1279.3712 1093.9281 1279.3726 curveto
stroke
grestore
% 44
gsave
1 setlinewidth
0 0 0 nodecolor
438.526 701.3962 184.6673 18 ellipse_path stroke
0 0 0 nodecolor
14 /Times-Roman set_font
304.526 697.6962 moveto 268 (Compiler Construction_\(NWI-IMC004) alignedtext
grestore
% 44--64
gsave
1 setlinewidth
0 0 0 edgecolor
newpath 480.9988 683.7926 moveto
483.0463 682.944 485.0635 682.1079 487.0225 681.296 curveto
stroke
grestore
% 44--10160
gsave
1 setlinewidth
dotted
0 0 0 edgecolor
newpath 435.0867 683.2853 moveto
433.1082 672.8667 430.6292 659.8127 428.6448 649.3634 curveto
stroke
grestore
% 44--10161
gsave
1 setlinewidth
dotted
0 0 0 edgecolor
newpath 349.3809 694.4587 moveto
349.3594 694.4571 349.3432 694.4558 349.3324 694.455 curveto
stroke
grestore
% 45
gsave
1 setlinewidth
0 0 0 nodecolor
869.2547 323.462 163.5712 18 ellipse_path stroke
0 0 0 nodecolor
14 /Times-Roman set_font
751.2547 319.762 moveto 236 (Testing Techniques_\(NWI-I00110) alignedtext
grestore
% 45--106
gsave
1 setlinewidth
0 0 0 edgecolor
newpath 877.2106 341.6185 moveto
882.8314 354.446 890.3228 371.5427 895.8803 384.2257 curveto
stroke
grestore
% 10115
gsave
1 setlinewidth
0 0 1 nodecolor
802.3642 273.6118 37.0935 18 ellipse_path stroke
0 0 0 nodecolor
14 /Times-Roman set_font
781.8642 269.9118 moveto 41 (0.890) alignedtext
grestore
% 45--10115
gsave
1 setlinewidth
dotted
0 0 0 edgecolor
newpath 845.1057 305.4649 moveto
837.771 299.9988 829.7884 294.0497 822.7288 288.7885 curveto
stroke
grestore
% 45--10116
gsave
1 setlinewidth
dotted
0 0 0 edgecolor
newpath 894.2143 305.4905 moveto
902.901 299.2358 912.5493 292.2888 920.8736 286.2951 curveto
stroke
grestore
% 46
gsave
1 setlinewidth
0 0 0 nodecolor
444.2402 534.1464 237.4581 18 ellipse_path stroke
0 0 0 nodecolor
14 /Times-Roman set_font
269.7402 530.4464 moveto 349 (Research Methods \(master course\)_\(NWI-I00152) alignedtext
grestore
% 78
gsave
1 setlinewidth
0 0 0 nodecolor
537.3873 523.7326 27 18 ellipse_path stroke
grestore
% 46--78
gsave
1 setlinewidth
0 0 0 edgecolor
newpath 537.3198 523.7402 moveto
537.3422 523.7377 537.3591 523.7358 537.3703 523.7345 curveto
stroke
grestore
% 46--10162
gsave
1 setlinewidth
dotted
0 0 0 edgecolor
newpath 421.7797 552.0792 moveto
415.0971 557.4148 407.8362 563.212 401.3704 568.3744 curveto
stroke
grestore
% 46--10163
gsave
1 setlinewidth
dotted
0 0 0 edgecolor
newpath 350.3011 520.2245 moveto
350.2785 520.2212 350.2615 520.2187 350.2501 520.217 curveto
stroke
grestore
% 47
gsave
1 setlinewidth
0 0 0 nodecolor
478.3138 1779.3601 146.774 18 ellipse_path stroke
0 0 0 nodecolor
14 /Times-Roman set_font
373.3138 1775.6601 moveto 210 (Image Analysis_\(NWI-IBC046) alignedtext
grestore
% 70
gsave
1 setlinewidth
0 0 0 nodecolor
459.7129 1694.1488 27 18 ellipse_path stroke
grestore
% 47--70
gsave
1 setlinewidth
0 0 0 edgecolor
newpath 474.369 1761.289 moveto
471.2124 1746.8283 466.8071 1726.6476 463.652 1712.1939 curveto
stroke
grestore
% 10137
gsave
1 setlinewidth
0 0 1 nodecolor
415.7007 1833.9907 37.0935 18 ellipse_path stroke
0 0 0 nodecolor
14 /Times-Roman set_font
395.2007 1830.2907 moveto 41 (0.898) alignedtext
grestore
% 47--10137
gsave
1 setlinewidth
dotted
0 0 0 edgecolor
newpath 457.812 1797.2482 moveto
450.1083 1803.9697 441.4097 1811.5594 433.9267 1818.0883 curveto
stroke
grestore
% 47--10138
gsave
1 setlinewidth
dotted
0 0 0 edgecolor
newpath 493.6099 1797.6001 moveto
501.0531 1806.4758 509.9385 1817.0713 517.2011 1825.7317 curveto
stroke
grestore
% 48
gsave
1 setlinewidth
0 0 0 nodecolor
1114.8177 576.8761 207.9631 18 ellipse_path stroke
0 0 0 nodecolor
14 /Times-Roman set_font
962.8177 573.1761 moveto 304 (Operating Systems Security_\(NWI-IBC034) alignedtext
grestore
% 48--100
gsave
1 setlinewidth
0 0 0 edgecolor
newpath 1090.5979 595.0323 moveto
1080.6797 602.4674 1069.3997 610.9234 1060.2138 617.8095 curveto
stroke
grestore
% 10119
gsave
1 setlinewidth
0 0 1 nodecolor
1072.9965 531.6092 37.0935 18 ellipse_path stroke
0 0 0 nodecolor
14 /Times-Roman set_font
1052.4965 527.9092 moveto 41 (0.865) alignedtext
grestore
% 48--10119
gsave
1 setlinewidth
dotted
0 0 0 edgecolor
newpath 1098.0484 558.7251 moveto
1094.8669 555.2816 1091.5523 551.6938 1088.4151 548.2981 curveto
stroke
grestore
% 48--10120
gsave
1 setlinewidth
dotted
0 0 0 edgecolor
newpath 1195.6308 580.7097 moveto
1195.6503 580.7106 1195.6649 580.7113 1195.6747 580.7118 curveto
stroke
grestore
% 49
gsave
1 setlinewidth
0 0 0 nodecolor
892.803 1080.0818 147.5738 18 ellipse_path stroke
0 0 0 nodecolor
14 /Times-Roman set_font
787.303 1076.3818 moveto 211 (Deep Learning_\(NWI-IMC058) alignedtext
grestore
% 58
gsave
1 setlinewidth
0 0 0 nodecolor
868.8975 1021.0579 27 18 ellipse_path stroke
grestore
% 49--58
gsave
1 setlinewidth
0 0 0 edgecolor
newpath 885.5006 1062.052 moveto
882.4799 1054.5935 878.9896 1045.9759 875.991 1038.5723 curveto
stroke
grestore
% 49--10124
gsave
1 setlinewidth
dotted
0 0 0 edgecolor
newpath 992.1241 1083.042 moveto
992.148 1083.0427 992.166 1083.0433 992.178 1083.0436 curveto
stroke
grestore
% 49--10125
gsave
1 setlinewidth
dotted
0 0 0 edgecolor
newpath 796.9719 1083.3937 moveto
796.9489 1083.3945 796.9315 1083.3951 796.9199 1083.3955 curveto
stroke
grestore
% 50
gsave
1 setlinewidth
0 0 0 nodecolor
725.3812 240.2179 135.6761 18 ellipse_path stroke
0 0 0 nodecolor
14 /Times-Roman set_font
628.8812 236.5179 moveto 193 (Hacking in C_\(NWI-IPC025) alignedtext
grestore
% 66
gsave
1 setlinewidth
0 0 0 nodecolor
640.8473 270.1432 27 18 ellipse_path stroke
grestore
% 50--66
gsave
1 setlinewidth
0 0 0 edgecolor
newpath 677.6792 257.1046 moveto
673.3349 258.6425 669.0685 260.1528 665.0678 261.5691 curveto
stroke
grestore
% 50--10114
gsave
1 setlinewidth
dotted
0 0 0 edgecolor
newpath 731.2784 222.2237 moveto
735.9975 207.8246 742.5831 187.7298 747.2999 173.3376 curveto
stroke
grestore
% 50--10115
gsave
1 setlinewidth
dotted
0 0 0 edgecolor
newpath 765.2257 257.5018 moveto
768.3075 258.8386 771.3777 260.1704 774.3572 261.4629 curveto
stroke
grestore
% 51
gsave
1 setlinewidth
0 0 0 nodecolor
659.6274 1660.5946 242.357 18 ellipse_path stroke
0 0 0 nodecolor
14 /Times-Roman set_font
481.1274 1656.8946 moveto 357 (Information Modelling & Databases_\(NWI-IPC033) alignedtext
grestore
% 71
gsave
1 setlinewidth
0 0 0 nodecolor
585.8783 1621.1043 27 18 ellipse_path stroke
grestore
% 51--71
gsave
1 setlinewidth
0 0 0 edgecolor
newpath 626.2053 1642.6982 moveto
619.6502 1639.1881 612.9482 1635.5994 606.9378 1632.381 curveto
stroke
grestore
% 51--10140
gsave
1 setlinewidth
dotted
0 0 0 edgecolor
newpath 673.6596 1678.9393 moveto
682.411 1690.3804 693.5978 1705.0052 702.1624 1716.2021 curveto
stroke
grestore
% 10141
gsave
1 setlinewidth
0 0 1 nodecolor
707.2831 1605.6869 37.0935 18 ellipse_path stroke
0 0 0 nodecolor
14 /Times-Roman set_font
686.7831 1601.9869 moveto 41 (0.915) alignedtext
grestore
% 51--10141
gsave
1 setlinewidth
dotted
0 0 0 edgecolor
newpath 675.2317 1642.6158 moveto
680.8779 1636.1103 687.2263 1628.7959 692.7745 1622.4033 curveto
stroke
grestore
% 52
gsave
1 setlinewidth
0 0 0 nodecolor
687.4569 1525.6079 167.0704 18 ellipse_path stroke
0 0 0 nodecolor
14 /Times-Roman set_font
566.9569 1521.9079 moveto 241 (Law in Cyberspace_\(NWI-IMC006) alignedtext
grestore
% 52--97
gsave
1 setlinewidth
0 0 0 edgecolor
newpath 677.8074 1507.6232 moveto
670.452 1493.9142 660.3891 1475.1591 653.1534 1461.6733 curveto
stroke
grestore
% 52--10141
gsave
1 setlinewidth
dotted
0 0 0 edgecolor
newpath 691.9558 1543.7791 moveto
695.2005 1556.8845 699.5615 1574.4988 702.802 1587.5877 curveto
stroke
grestore
% 52--10142
gsave
1 setlinewidth
dotted
0 0 0 edgecolor
newpath 740.7996 1542.7469 moveto
740.902 1542.7798 741.0042 1542.8126 741.1063 1542.8454 curveto
stroke
grestore
% 53
gsave
1 setlinewidth
0 0 0 nodecolor
395.5348 1754.7805 261.8535 18 ellipse_path stroke
0 0 0 nodecolor
14 /Times-Roman set_font
202.0348 1751.0805 moveto 387 (Intelligent Systems in Medical Imaging_\(NWI-IMC037) alignedtext
grestore
% 53--70
gsave
1 setlinewidth
0 0 0 edgecolor
newpath 414.7903 1736.589 moveto
424.0947 1727.7988 435.1225 1717.3803 443.9232 1709.0659 curveto
stroke
grestore
% 53--10136
gsave
1 setlinewidth
dotted
0 0 0 edgecolor
newpath 316.9432 1772.0373 moveto
316.835 1772.061 316.7297 1772.0842 316.6274 1772.1066 curveto
stroke
grestore
% 53--10137
gsave
1 setlinewidth
dotted
0 0 0 edgecolor
newpath 400.2119 1773.152 moveto
403.4931 1786.04 407.8585 1803.1871 411.1185 1815.9919 curveto
stroke
grestore
% 54
gsave
1 setlinewidth
0 0 0 nodecolor
1137.3296 1113.8774 227.4596 18 ellipse_path stroke
0 0 0 nodecolor
14 /Times-Roman set_font
970.3296 1110.1774 moveto 334 (Research Seminar Data Science_\(NWI-IMC044) alignedtext
grestore
% 54--61
gsave
1 setlinewidth
0 0 0 edgecolor
newpath 1125.8185 1095.7277 moveto
1118.886 1084.7972 1110.1179 1070.9725 1103.3352 1060.2781 curveto
stroke
grestore
% 54--10149
gsave
1 setlinewidth
dotted
0 0 0 edgecolor
newpath 1129.4825 1131.9799 moveto
1124.5251 1143.4161 1118.1503 1158.1219 1113.2317 1169.4686 curveto
stroke
grestore
% 54--10150
gsave
1 setlinewidth
dotted
0 0 0 edgecolor
newpath 1225.585 1105.769 moveto
1225.6062 1105.7671 1225.6222 1105.7656 1225.6329 1105.7646 curveto
stroke
grestore
% 55
gsave
1 setlinewidth
0 0 0 nodecolor
436.6519 1150.1214 267.2527 18 ellipse_path stroke
0 0 0 nodecolor
14 /Times-Roman set_font
239.1519 1146.4214 moveto 395 (Inl. Acad. Schrijven en Ond.Meth. Inform_\(NWI-IBC043) alignedtext
grestore
% 72
gsave
1 setlinewidth
0 0 0 nodecolor
528.682 1157.9218 27 18 ellipse_path stroke
grestore
% 55--72
gsave
1 setlinewidth
0 0 0 edgecolor
newpath 528.6153 1157.9162 moveto
528.6374 1157.918 528.6541 1157.9195 528.6652 1157.9204 curveto
stroke
grestore
% 55--10128
gsave
1 setlinewidth
dotted
0 0 0 edgecolor
newpath 387.9221 1132.3334 moveto
387.5326 1132.1913 387.1443 1132.0495 386.7574 1131.9083 curveto
stroke
grestore
% 55--10129
gsave
1 setlinewidth
dotted
0 0 0 edgecolor
newpath 439.9767 1168.1657 moveto
440.9373 1173.3794 441.9862 1179.0721 442.9492 1184.2985 curveto
stroke
grestore
% 56
gsave
1 setlinewidth
0 0 0 nodecolor
982.0199 551.4167 213.6622 18 ellipse_path stroke
0 0 0 nodecolor
14 /Times-Roman set_font
825.5199 547.7167 moveto 313 (Design of Embedded Systems_\(NWI-I00155) alignedtext
grestore
% 111
gsave
1 setlinewidth
0 0 0 nodecolor
898.4053 581.1808 27 18 ellipse_path stroke
grestore
% 56--111
gsave
1 setlinewidth
0 0 0 edgecolor
newpath 932.4145 569.0746 moveto
929.0386 570.2763 925.733 571.453 922.5901 572.5718 curveto
stroke
grestore
% 56--10118
gsave
1 setlinewidth
dotted
0 0 0 edgecolor
newpath 995.1464 533.1617 moveto
1002.401 523.0727 1011.365 510.6063 1018.5154 500.6623 curveto
stroke
grestore
% 56--10119
gsave
1 setlinewidth
dotted
0 0 0 edgecolor
newpath 1059.1792 534.6175 moveto
1059.309 534.5893 1059.4381 534.5611 1059.5665 534.5332 curveto
stroke
grestore
% 67
gsave
1 setlinewidth
0 0 0 nodecolor
758.3793 842.906 27 18 ellipse_path stroke
grestore
% 57--67
gsave
1 setlinewidth
0 0 0 edgecolor
newpath 781.8044 834.5575 moveto
781.7125 834.5902 781.6207 834.6229 781.5288 834.6557 curveto
stroke
grestore
% 57--79
gsave
1 setlinewidth
0 0 0 edgecolor
newpath 832.4462 822.1264 moveto
841.9038 820.7484 852.5421 819.1983 861.9955 817.821 curveto
stroke
grestore
% 58--98
gsave
1 setlinewidth
0 0 0 edgecolor
newpath 891.7295 1011.289 moveto
906.4498 1004.9907 925.5248 996.8292 940.268 990.5212 curveto
stroke
grestore
% 58--110
gsave
1 setlinewidth
0 0 0 edgecolor
newpath 841.962 1022.5868 moveto
832.5027 1023.1237 821.8742 1023.727 812.3956 1024.265 curveto
stroke
grestore
% 59
gsave
1 setlinewidth
0 0 0 nodecolor
525.5512 423.0852 27 18 ellipse_path stroke
grestore
% 59--76
gsave
1 setlinewidth
0 0 0 edgecolor
newpath 500.6955 415.6885 moveto
487.8607 411.869 472.2456 407.2222 459.4152 403.4041 curveto
stroke
grestore
% 59--78
gsave
1 setlinewidth
0 0 0 edgecolor
newpath 527.6673 441.0789 moveto
529.8084 459.2856 533.1009 487.2831 535.2497 505.5553 curveto
stroke
grestore
% 107
gsave
1 setlinewidth
0 0 0 nodecolor
571.2394 335.8803 27 18 ellipse_path stroke
grestore
% 59--107
gsave
1 setlinewidth
0 0 0 edgecolor
newpath 534.5777 405.8563 moveto
542.5875 390.5681 554.2275 368.3508 562.2316 353.0734 curveto
stroke
grestore
% 62
gsave
1 setlinewidth
0 0 0 nodecolor
659.3506 653.2167 27 18 ellipse_path stroke
grestore
% 60--62
gsave
1 setlinewidth
0 0 0 edgecolor
newpath 621.2468 635.1864 moveto
626.4787 637.6621 632.0597 640.303 637.2915 642.7786 curveto
stroke
grestore
% 61--105
gsave
1 setlinewidth
0 0 0 edgecolor
newpath 1070.431 1032.7876 moveto
1055.4986 1025.6493 1035.8955 1016.2783 1020.9965 1009.156 curveto
stroke
grestore
% 81
gsave
1 setlinewidth
0 0 0 nodecolor
667.2667 696.9216 27 18 ellipse_path stroke
grestore
% 62--81
gsave
1 setlinewidth
0 0 0 edgecolor
newpath 662.6161 671.2455 moveto
663.076 673.7849 663.5489 676.3955 664.0087 678.9342 curveto
stroke
grestore
% 62--88
gsave
1 setlinewidth
0 0 0 edgecolor
newpath 671.5094 636.8647 moveto
677.3459 629.0152 684.3184 619.6382 690.1396 611.8094 curveto
stroke
grestore
% 92
gsave
1 setlinewidth
0 0 0 nodecolor
597.9251 1380.1657 27 18 ellipse_path stroke
grestore
% 63--92
gsave
1 setlinewidth
0 0 0 edgecolor
newpath 640.3774 1313.3248 moveto
631.0828 1327.9592 617.7345 1348.976 608.4979 1363.519 curveto
stroke
grestore
% 108
gsave
1 setlinewidth
0 0 0 nodecolor
672.7544 1204.8074 27 18 ellipse_path stroke
grestore
% 63--108
gsave
1 setlinewidth
0 0 0 edgecolor
newpath 655.4166 1278.2777 moveto
659.2045 1262.226 664.7092 1238.8993 668.4945 1222.859 curveto
stroke
grestore
% 90
gsave
1 setlinewidth
0 0 0 nodecolor
581.0598 628.3677 27 18 ellipse_path stroke
grestore
% 64--90
gsave
1 setlinewidth
0 0 0 edgecolor
newpath 530.2574 659.4155 moveto
539.9248 653.5073 551.4738 646.4491 561.1157 640.5565 curveto
stroke
grestore
% 104
gsave
1 setlinewidth
0 0 0 nodecolor
833.9864 1195.5406 27 18 ellipse_path stroke
grestore
% 65--104
gsave
1 setlinewidth
0 0 0 edgecolor
newpath 903.0799 1206.9871 moveto
889.7303 1204.7756 873.5645 1202.0974 860.227 1199.8878 curveto
stroke
grestore
% 66--84
gsave
1 setlinewidth
0 0 0 edgecolor
newpath 641.233 252.0438 moveto
641.5636 236.5265 642.0376 214.2858 642.3681 198.7762 curveto
stroke
grestore
% 66--107
gsave
1 setlinewidth
0 0 0 edgecolor
newpath 625.0522 285.06 moveto
613.6604 295.8183 598.3494 310.2779 586.972 321.0226 curveto
stroke
grestore
% 68
gsave
1 setlinewidth
0 0 0 nodecolor
757.8259 736.4643 27 18 ellipse_path stroke
grestore
% 67--68
gsave
1 setlinewidth
0 0 0 edgecolor
newpath 758.2854 824.8496 moveto
758.1837 805.2763 758.0222 774.2171 757.9203 754.6092 curveto
stroke
grestore
% 95
gsave
1 setlinewidth
0 0 0 nodecolor
789.8928 938.6798 27 18 ellipse_path stroke
grestore
% 67--95
gsave
1 setlinewidth
0 0 0 edgecolor
newpath 764.3067 860.9203 moveto
769.9765 878.1515 778.4734 903.9746 784.0984 921.0698 curveto
stroke
grestore
% 68--81
gsave
1 setlinewidth
0 0 0 edgecolor
newpath 734.974 726.486 moveto
721.2459 720.4916 703.8381 712.8905 690.1113 706.8967 curveto
stroke
grestore
% 91
gsave
1 setlinewidth
0 0 0 nodecolor
855.7069 667.7173 27 18 ellipse_path stroke
grestore
% 68--91
gsave
1 setlinewidth
0 0 0 edgecolor
newpath 776.6984 723.2092 moveto
794.0309 711.0357 819.5782 693.0924 836.8924 680.9317 curveto
stroke
grestore
% 69--95
gsave
1 setlinewidth
0 0 0 edgecolor
newpath 861.285 952.5236 moveto
847.2919 949.8102 830.1046 946.4774 816.1006 943.7618 curveto
stroke
grestore
% 69--105
gsave
1 setlinewidth
0 0 0 edgecolor
newpath 911.0745 966.2927 moveto
929.8746 973.2083 956.061 982.841 974.9521 989.79 curveto
stroke
grestore
% 96
gsave
1 setlinewidth
0 0 0 nodecolor
465.8435 1606.7744 27 18 ellipse_path stroke
grestore
% 70--96
gsave
1 setlinewidth
0 0 0 edgecolor
newpath 460.9831 1676.0447 moveto
462.0353 1661.0491 463.5231 1639.8444 464.5748 1624.8552 curveto
stroke
grestore
% 85
gsave
1 setlinewidth
0 0 0 nodecolor
530.7971 1545.6863 27 18 ellipse_path stroke
grestore
% 71--85
gsave
1 setlinewidth
0 0 0 edgecolor
newpath 573.9265 1604.7397 moveto
564.6875 1592.0896 551.9587 1574.661 542.7256 1562.0189 curveto
stroke
grestore
% 71--103
gsave
1 setlinewidth
0 0 0 edgecolor
newpath 589.6339 1639.148 moveto
592.8538 1654.6176 597.4687 1676.7898 600.6869 1692.2516 curveto
stroke
grestore
% 72--83
gsave
1 setlinewidth
0 0 0 edgecolor
newpath 548.9819 1170.2074 moveto
555.9035 1174.3963 563.6362 1179.0761 570.5446 1183.2571 curveto
stroke
grestore
% 72--86
gsave
1 setlinewidth
0 0 0 edgecolor
newpath 518.3396 1141.1955 moveto
513.637 1133.5901 508.0828 1124.6076 503.3681 1116.9827 curveto
stroke
grestore
% 73--76
gsave
1 setlinewidth
0 0 0 edgecolor
newpath 366.2095 393.354 moveto
379.1116 393.8563 394.5035 394.4556 407.4143 394.9583 curveto
stroke
grestore
% 73--82
gsave
1 setlinewidth
0 0 0 edgecolor
newpath 314.1944 399.9052 moveto
304.0781 402.9946 292.4182 406.5554 282.3175 409.6401 curveto
stroke
grestore
% 74--96
gsave
1 setlinewidth
0 0 0 edgecolor
newpath 405.488 1623.8527 moveto
416.6289 1620.7002 429.6941 1617.0033 440.8141 1613.8567 curveto
stroke
grestore
% 75--91
gsave
1 setlinewidth
0 0 0 edgecolor
newpath 924.0904 669.8267 moveto
911.1876 669.4287 895.795 668.9539 882.8835 668.5556 curveto
stroke
grestore
% 75--100
gsave
1 setlinewidth
0 0 0 edgecolor
newpath 974.1329 660.7557 moveto
987.9101 654.8039 1005.3802 647.2569 1019.1561 641.3058 curveto
stroke
grestore
% 77
gsave
1 setlinewidth
0 0 0 nodecolor
754.6069 1035.8498 27 18 ellipse_path stroke
grestore
% 77--95
gsave
1 setlinewidth
0 0 0 edgecolor
newpath 761.0789 1018.0273 moveto
767.4456 1000.4947 777.1093 973.8827 783.4619 956.3893 curveto
stroke
grestore
% 109
gsave
1 setlinewidth
0 0 0 nodecolor
749.6351 1143.745 27 18 ellipse_path stroke
grestore
% 77--109
gsave
1 setlinewidth
0 0 0 edgecolor
newpath 753.7635 1054.1527 moveto
752.8437 1074.1136 751.3809 1105.8587 750.466 1125.7124 curveto
stroke
grestore
% 77--110
gsave
1 setlinewidth
0 0 0 edgecolor
newpath 779.028 1027.8395 moveto
779.1416 1027.8022 779.2543 1027.7653 779.3658 1027.7287 curveto
stroke
grestore
% 78--90
gsave
1 setlinewidth
0 0 0 edgecolor
newpath 544.7957 541.4825 moveto
552.8753 560.8402 565.7247 591.6261 573.7608 610.8799 curveto
stroke
grestore
% 80--106
gsave
1 setlinewidth
0 0 0 edgecolor
newpath 909.8477 471.8594 moveto
908.4768 456.58 906.5345 434.9317 905.1719 419.7437 curveto
stroke
grestore
% 80--111
gsave
1 setlinewidth
0 0 0 edgecolor
newpath 908.9063 508.1621 moveto
906.6121 524.115 903.278 547.2984 900.9854 563.2401 curveto
stroke
grestore
% 81--90
gsave
1 setlinewidth
0 0 0 edgecolor
newpath 649.8214 683.0487 moveto
634.8649 671.1549 613.4281 654.1078 598.4791 642.22 curveto
stroke
grestore
% 83--108
gsave
1 setlinewidth
0 0 0 edgecolor
newpath 617.5532 1198.5086 moveto
626.7165 1199.5542 636.9536 1200.7223 646.0996 1201.7659 curveto
stroke
grestore
% 85--96
gsave
1 setlinewidth
0 0 0 edgecolor
newpath 515.0736 1560.474 moveto
505.0115 1569.9373 491.9947 1582.1794 481.8734 1591.6984 curveto
stroke
grestore
% 99
gsave
1 setlinewidth
0 0 0 nodecolor
528.0171 1448.0247 27 18 ellipse_path stroke
grestore
% 85--99
gsave
1 setlinewidth
0 0 0 edgecolor
newpath 530.2742 1527.3169 moveto
529.7772 1509.8565 529.0339 1483.7448 528.5376 1466.3117 curveto
stroke
grestore
% 87--89
gsave
1 setlinewidth
0 0 0 edgecolor
newpath 342.0969 1394.4276 moveto
335.1708 1385.774 326.6636 1375.1451 319.7321 1366.4847 curveto
stroke
grestore
% 87--102
gsave
1 setlinewidth
0 0 0 edgecolor
newpath 379.2071 1419.1319 moveto
390.2954 1423.0497 403.4089 1427.6831 414.4905 1431.5986 curveto
stroke
grestore
% 91--111
gsave
1 setlinewidth
0 0 0 edgecolor
newpath 864.3475 650.2054 moveto
871.8042 635.0929 882.513 613.3894 889.9232 598.3714 curveto
stroke
grestore
% 92--97
gsave
1 setlinewidth
0 0 0 edgecolor
newpath 609.546 1396.4179 moveto
616.4739 1406.1067 625.2446 1418.3727 632.1999 1428.1 curveto
stroke
grestore
% 92--99
gsave
1 setlinewidth
0 0 0 edgecolor
newpath 582.4102 1395.2258 moveto
570.8253 1406.4712 555.0631 1421.7714 543.4886 1433.0067 curveto
stroke
grestore
% 93--94
gsave
1 setlinewidth
0 0 0 edgecolor
newpath 882.3652 1283.6463 moveto
885.0097 1296.2076 888.5219 1312.8907 891.1619 1325.4306 curveto
stroke
grestore
% 93--104
gsave
1 setlinewidth
0 0 0 edgecolor
newpath 868.0033 1249.0064 moveto
860.9995 1237.9983 851.8368 1223.5968 844.7856 1212.5142 curveto
stroke
grestore
% 99--102
gsave
1 setlinewidth
0 0 0 edgecolor
newpath 501.192 1445.6532 moveto
489.876 1444.6529 476.7301 1443.4907 465.4161 1442.4905 curveto
stroke
grestore
% 101--107
gsave
1 setlinewidth
0 0 0 edgecolor
newpath 537.6226 281.4021 moveto
544.6458 292.7836 553.8658 307.7252 560.8732 319.0813 curveto
stroke
grestore
% 104--109
gsave
1 setlinewidth
0 0 0 edgecolor
newpath 813.9963 1183.2658 moveto
800.6475 1175.069 783.1535 1164.3269 769.774 1156.1112 curveto
stroke
grestore
% 108--109
gsave
1 setlinewidth
0 0 0 edgecolor
newpath 690.1998 1190.9514 moveto
702.7818 1180.9582 719.6926 1167.5268 732.2587 1157.5462 curveto
stroke
grestore
endpage
showpage
grestore
%%PageTrailer
%%EndPage: 1
%%Trailer
%%Pages: 1
%%BoundingBox: 36 36 1482 1912
end
restore
%%EOF
