\babel@toc {british}{}
\beamer@sectionintoc {1}{Introduction}{3}{0}{1}
\beamer@sectionintoc {2}{Background}{4}{0}{2}
\beamer@sectionintoc {3}{My thesis}{6}{0}{3}
\beamer@sectionintoc {4}{Conclusion}{7}{0}{4}
