\BOOKMARK [2][]{Outline0.1}{\376\377\000I\000n\000t\000r\000o\000d\000u\000c\000t\000i\000o\000n}{}% 1
\BOOKMARK [2][]{Outline0.2}{\376\377\000B\000a\000c\000k\000g\000r\000o\000u\000n\000d}{}% 2
\BOOKMARK [2][]{Outline0.3}{\376\377\000M\000y\000\040\000t\000h\000e\000s\000i\000s}{}% 3
\BOOKMARK [2][]{Outline0.4}{\376\377\000C\000o\000n\000c\000l\000u\000s\000i\000o\000n}{}% 4
