Iteration 0. Optimum: 381.681 Params: -2.02539 2.49071 -1.30563 -1.70842 0.329794 -1.65126 -0.370529 2.35524 -1.26157 0.215824 -1.838 -2.40534 -2.1912 1.56094 -1.62889 -1.64816 -1.15824 -1.68714 0.924465 -2.24309 1.97355 1.13085 1.74928 0.333639 0.574842 0.537133 2.25633 -0.274607 -0.657724 -0.499261 1.35298 -0.183109 -0.508552 -2.45265 0.60847 2.32124 -1.60391 -2.26206
381.681 1.70094 -0.528085 1.4155 1.4922 2.05824 -1.51224 -0.823886 1.34115 -1.11113 0.26985 -0.113015 0.644355 -0.676078 0.0670046 2.26115 2.08098 0.678559 1.08648 -1.79199 0.534844 -2.4185 -1.28557 -1.81384 1.52088 -1.7166 -0.495278 -1.85105 -1.95596 2.49462 -1.40872 0.064662 1.69556 0.563199 -1.01984 0.687761 0.121436 -0.0320851 2.36388
381.267 -1.03742 1.35679 0.133725 1.34957 -0.498857 1.95765 -1.08343 -0.737708 1.53862 2.09513 -2.15122 2.24664 0.129977 -2.06972 -1.53893 0.816135 1.95116 -0.755535 -2.17914 -2.39988 -0.211491 -2.18452 -1.3086 2.35317 2.01104 1.7546 -1.16667 0.198802 -0.623965 1.30124 0.0626768 0.838619 0.158032 -2.3036 -0.311812 2.15918 2.15405 1.10476
377.748 -1.07853 1.19267 0.699894 -0.729757 0.939307 -1.67013 -0.299477 1.90038 1.64601 -0.848314 -1.35516 1.96686 -0.748199 0.93335 2.28234 0.443201 0.78652 1.79338 -0.3022 2.11985 -0.507817 1.57383 0.921093 2.05486 -0.0875467 -1.42088 2.25126 2.10064 -1.7617 1.90531 0.705403 -0.340233 0.597982 -1.0947 1.43001 -0.962711 -0.264832 -1.36947
376.949 -1.56233 -1.11883 0.282219 -0.417494 -1.65196 2.03402 -1.98414 -1.86962 -0.0227797 1.30238 2.42376 2.17502 0.922225 -0.584058 1.24885 -0.656682 -1.0292 -1.33869 0.422443 -1.27794 -1.73805 1.16074 -1.87263 1.46735 -1.67949 1.22536 -2.12735 2.25052 -2.23735 0.107817 -1.61895 -1.29969 1.48899 1.16327 0.782818 2.33703 0.697292 1.29867
376.925 -2.0326 -1.82549 0.10105 -2.10884 -2.15047 -1.47672 -0.192898 1.59839 0.366593 1.2779 -2.24031 -1.71096 2.49997 -1.47836 1.94978 -1.87266 2.48899 -2.22971 1.8527 -2.13836 -2.47919 2.11535 0.469461 -1.59814 -1.68434 -0.541549 2.06513 1.59848 -0.704523 0.262425 0.39715 -0.237121 0.936937 -2.0018 0.15404 1.28647 -0.978524 2.46114
376.884 0.384856 1.88807 1.23905 0.64455 -2.3229 1.23901 1.66619 2.12688 1.86636 1.65519 2.39717 1.21906 2.01683 2.41798 0.834402 -0.0137074 -1.68016 1.65006 1.94474 -2.11503 0.748535 -1.25978 0.647399 -1.35432 1.0031 -0.915664 -0.856115 -1.34286 -2.1292 0.665361 -1.38172 0.75566 0.0534299 2.35733 -1.09979 0.230534 1.09634 -1.9336
376.635 -0.142583 0.4627 2.22159 -0.245412 -0.818244 1.73842 -0.327434 -2.48384 -0.775285 0.492406 1.66622 -1.33054 0.87738 -0.0852486 -0.0903209 -0.975222 1.06044 -1.58722 0.609114 -2.29568 -0.430081 0.979919 0.869682 0.688201 -0.764421 -1.57689 0.545529 0.635789 1.15365 -0.858128 1.20219 -1.48894 2.10457 0.923783 0.765652 -1.21367 0.162205 -2.06178
376.582 -1.19752 1.88692 0.930625 -2.0313 -1.94362 -0.691995 0.383453 0.466057 0.832783 -1.05611 1.37884 -1.0581 -0.85179 -1.55125 2.42182 -2.48211 1.63696 -0.842605 -1.55899 -0.317515 2.29318 2.09465 1.32436 0.995377 -1.89428 0.928929 -0.58084 1.37137 2.21526 2.08136 1.80959 -1.48226 1.46828 0.24021 -1.01356 2.02466 2.04821 1.86989
376.532 -0.00928037 0.380998 -1.68622 -1.13044 1.82289 -0.0380059 -0.181689 1.74471 -0.020113 -1.04473 -1.59789 0.920892 1.13775 -1.80471 0.515544 -0.0378914 1.69067 1.12126 -1.60896 -1.39017 -0.00737259 -1.89371 -1.80881 -0.697787 -0.875965 2.15948 2.04242 0.610477 1.68414 1.59064 -0.0196279 -0.825142 -0.528364 0.794156 0.544414 -1.20547 -1.74385 -2.13727
376.385 -1.96076 0.736037 -0.682009 -1.05865 -0.843071 -2.04426 -0.363361 2.17247 0.417851 -1.17269 0.793733 1.30889 -0.0628657 -1.71364 1.91518 0.628327 0.0885736 -1.46078 0.287803 -0.369003 1.6497 -0.528058 -1.27837 -0.869933 1.1468 0.693271 2.42422 -0.808785 1.9878 -1.81963 -0.44606 -2.47296 1.41641 1.37193 -1.03161 -1.92666 1.82767 1.10503
376.351 -2.25419 -0.254474 2.43234 1.03955 -1.44559 -0.13053 1.82591 -2.0304 -2.0022 -0.58552 -0.991184 0.7856 1.54548 -1.84149 -2.24246 -2.23289 -0.211422 1.40434 0.960382 -0.287199 -1.90444 0.448184 0.393174 0.149496 0.475226 -0.690416 -0.978573 1.94362 -0.117077 -1.6509 0.548646 0.128736 0.594627 0.480981 -1.33172 1.64904 -2.14955 -2.00581
376.104 2.11864 -1.65175 -0.0913332 -1.37255 1.63385 -1.04586 -0.714035 1.89139 -0.778745 1.57454 0.79573 -2.31836 -1.21266 1.39129 0.629821 1.68052 -0.959217 -1.39495 -1.5099 0.56221 -1.95134 0.873026 1.41131 1.09731 -1.49824 -0.494062 -0.92171 -0.329957 -1.34502 -0.571259 0.16423 -1.72638 0.276989 -2.4271 -0.598927 -0.589164 -0.97296 1.18704
375.96 -1.19778 0.748295 0.261582 2.09795 0.929932 1.54893 0.989241 -0.940248 0.729445 -2.46998 0.164799 1.71955 0.592234 0.713463 0.0925744 -0.496455 -0.689228 1.09434 1.50948 0.889062 -1.73562 -2.33554 -2.1822 0.928609 -1.56192 0.594792 1.00151 0.339155 -2.49437 -2.47145 -0.973806 -1.19215 0.776841 1.78778 -1.59419 -0.793228 0.836703 1.89505
375.903 0.766525 -0.933852 1.92507 -1.56868 -1.7143 0.0173049 1.64479 0.87827 2.02085 -1.54444 -0.527394 1.03033 1.84462 0.236985 1.1948 2.16242 -1.33441 2.13288 0.257215 2.1671 -0.0279656 0.262842 2.19565 1.49823 1.57069 0.472486 0.786005 2.4765 2.17926 -0.877293 1.87155 0.445783 0.688855 1.29662 1.37711 1.47455 -1.18608 0.521894
375.852 -0.147179 -1.66523 1.47745 1.82543 1.86511 0.822072 -0.437587 0.559904 0.484495 0.728007 0.192783 -1.75829 0.395108 -2.33518 1.00455 0.0907533 1.66305 0.0752454 -1.93676 -0.05095 0.0517451 -2.2575 1.57176 -0.576708 0.688282 -0.239388 -1.78009 -0.434611 -1.26484 -0.466167 -2.41272 1.08798 0.368606 1.56474 0.413411 -0.266287 -0.113193 2.47582
375.835 -2.20638 -2.1287 0.703832 0.486399 -1.38699 -1.40106 0.651216 2.11756 1.18969 -0.185739 -0.307191 1.75293 2.26331 2.24455 1.99543 1.33507 -0.832154 0.183712 -1.40432 -0.112244 2.2491 -0.169157 1.92159 2.33638 -1.58117 -0.209805 1.40112 1.33224 2.02391 -1.21207 1.30806 2.31752 -0.840771 -0.488106 0.303923 0.272241 0.610833 -1.54486
375.799 -0.110196 -0.699474 0.7694 2.08261 -1.44654 0.532711 1.82717 -1.95111 -0.632221 -1.50499 0.732601 0.463459 0.88277 0.481703 -2.2057 0.304359 0.318087 -1.28687 -2.40545 -0.780793 -2.45463 2.11846 0.507134 1.35343 1.93599 2.16636 -1.63468 -0.260092 -0.0613965 1.47616 0.695046 2.32841 -1.72332 -1.03555 1.91102 -0.66986 1.99716 1.23819
375.346 -0.120972 -1.13506 2.2332 -1.88837 1.8284 0.615972 1.09333 2.1227 -1.57967 -1.08858 -1.66417 -1.48512 0.630626 -1.61881 -1.86665 -1.36224 2.23462 -2.43067 -1.69588 -1.90005 -0.190761 0.742726 2.0761 -1.99572 0.571134 -2.14722 -0.53127 -0.0178452 -0.317075 -1.03411 -1.27966 2.06195 0.330822 -1.54645 -2.32642 -0.340782 1.56952 1.26691
375.142 -0.718085 2.48985 -2.32167 0.117742 -1.49527 0.808958 0.998936 -0.861919 1.94672 0.733559 -0.792588 -2.24916 1.33351 1.51665 0.993565 0.909609 2.02094 -0.935301 1.26239 -1.01033 1.54685 -1.55468 0.455553 -2.2328 -1.99273 -1.71362 -1.27926 -1.81915 0.445593 -2.20974 1.94777 2.22751 -2.21989 2.1261 -0.15475 -1.21515 0.435056 -1.65581
374.814 0.422926 -0.118227 1.57774 2.13034 0.132613 0.411251 1.14699 -1.37382 -1.17914 0.667924 0.190876 -2.41675 2.15759 -0.76227 -1.47143 0.113143 -0.495073 -0.964158 0.899519 0.72567 -0.283306 -1.15489 1.01593 -0.83554 -1.42738 1.29604 -1.20944 0.91787 -2.41911 1.72561 1.76206 0.503813 -0.892612 0.839801 0.134151 1.74 -1.24895 -1.21886
374.814 -2.13382 0.0719109 1.94906 0.557055 0.155164 1.60665 2.29478 1.18373 -0.780203 -0.700289 -2.28042 -2.38068 -2.47462 -0.0637292 -1.03557 1.04131 1.60073 0.0370478 -0.162646 -2.10871 -1.54508 -0.0817582 2.1169 -2.28303 -2.07795 -1.27571 1.05677 0.556206 -2.03571 2.30783 1.83735 -1.66953 -0.120263 1.28641 1.38752 -2.4651 0.393063 1.18231
374.694 1.21864 2.11286 -2.01798 1.43821 2.23218 -1.9926 -1.12552 -1.3034 1.54871 -2.02479 1.23365 -1.11393 -1.6335 2.18857 1.30431 -2.01659 2.40554 1.72636 -0.792302 0.962317 -0.217429 -0.32801 0.770143 -0.880084 0.502461 -1.85012 -2.09367 -0.610014 -1.81522 0.799388 -1.9277 1.90342 0.412248 -1.44568 0.841628 0.144424 -0.938283 2.21611
374.639 1.34103 -1.88957 -2.30868 0.0746798 -0.503501 -1.44217 -0.236751 -1.69919 -0.958766 -0.331208 -2.47283 0.748933 -1.86889 -0.190255 -2.07908 1.40125 1.42966 0.923384 2.05113 1.83599 -2.18663 -2.26409 0.135375 -1.61434 2.13933 -1.95238 -0.560019 0.480957 0.692047 1.0017 0.197067 -0.466925 1.61213 0.388391 2.10776 -1.39137 1.44622 -0.628996
374.348 -0.590562 -2.01255 1.5398 -0.563387 1.23639 2.17091 1.74636 1.65731 1.07216 0.67602 0.0806928 0.623291 0.0120063 0.394063 0.859204 -2.35262 1.27973 0.498533 -1.805 -1.78029 -1.52051 1.38705 1.72141 1.17656 -1.57987 0.833535 -0.935052 -1.97212 1.94216 -1.98883 -0.101114 -1.1484 -1.50138 -1.06132 0.788215 2.235 -1.39041 0.0345733
374.124 1.39231 2.18175 -1.78941 -1.02699 0.305037 0.722599 1.86707 -1.33576 0.86998 0.646797 1.66277 1.56498 1.3665 -2.35774 0.452036 0.587911 1.31882 1.37216 -1.07855 -2.11623 1.90004 -1.63639 -1.60507 -0.701071 -0.284787 -0.606448 0.737611 -1.99657 -0.871443 1.8472 0.538002 -1.97913 1.52894 1.24859 -0.506123 -0.666018 -0.528806 -1.13905
373.922 0.498222 -2.15883 2.00774 -0.339004 1.90616 0.874248 -0.196742 -0.141806 -1.03784 -1.37792 -1.26964 0.383605 -0.994156 -1.8696 1.24722 -0.0992225 -0.0706712 -1.53757 1.79433 -1.83306 -1.03414 -1.57711 -2.48586 2.00386 -1.05624 1.54308 0.752454 0.937635 -1.62293 -2.27635 2.29858 1.37529 -1.93518 1.80633 -1.46372 2.47098 0.180573 0.839542
373.528 -0.170826 1.64273 1.96162 1.05953 -0.473663 -1.53254 1.68993 -1.72645 0.868241 -0.880742 -0.764018 0.162571 -0.213802 0.701839 1.08546 -0.199663 0.205698 -2.47078 -1.15658 -1.54185 0.966851 -0.279513 -1.3182 0.765433 -1.40423 -0.75338 0.0717585 -0.367942 -0.7824 -2.24767 -2.0284 1.54677 1.89506 2.43322 0.106304 -1.0786 -1.59932 -0.703767
373.491 -0.305048 1.76892 0.915492 1.43093 -0.568507 -1.79831 -0.367227 -1.98305 0.502027 2.33847 -1.95383 1.84545 -1.70338 1.51302 -0.934065 -0.521579 -0.221548 0.161709 1.22504 2.35021 2.29377 -2.05736 -2.39746 -2.23463 1.98942 1.9976 -2.30141 -0.404281 -1.581 -1.40073 1.39195 0.613957 -2.13181 -0.192555 -0.45511 -0.200317 0.509134 1.67766
372.278 0.316634 -1.48884 1.51613 0.862801 -2.14339 2.31276 -0.124181 -0.577455 -0.708823 2.15427 2.08425 -1.98378 2.00448 1.87802 -1.54114 2.10702 2.14339 -2.05173 1.60463 2.34197 0.0439944 -2.47637 -1.55876 -1.06405 0.637589 -1.19057 1.24339 -2.31752 1.10911 -0.747474 1.86014 -1.07425 0.263688 0.876276 2.28855 0.620298 0.689031 -0.335634
372.104 -2.45716 2.48021 -0.681363 2.1271 -2.00357 -1.17688 1.50512 -1.04472 -1.56986 1.14851 -0.59644 -2.46523 0.990481 1.94755 -2.4416 1.93172 -1.6165 0.695993 -1.75885 2.12689 0.878472 1.85026 -1.12058 0.238614 -1.72399 1.64311 -1.38511 -1.93544 -0.236594 1.80392 0.228922 -0.193751 1.78413 2.04756 -0.566654 2.28055 -1.62932 -1.56153
372.065 -1.26416 -0.699179 2.08697 0.639399 -0.664408 0.577455 0.0869536 -0.606004 0.00917667 0.970455 -2.41001 0.750328 0.597349 0.96846 0.100591 1.97677 -1.29293 0.876601 1.11988 -0.178036 1.44116 -1.61672 -0.874115 -0.829921 0.689531 -1.58999 -1.28236 -2.37712 -1.80943 -0.411683 -1.43866 -0.573592 1.38914 -1.85168 -2.43419 -1.77527 1.22577 0.152761
371.731 0.118727 -1.26505 -1.37678 0.208715 1.98528 1.72057 -1.32282 -0.414132 1.19733 -0.11575 -2.03753 -0.18279 2.20621 1.90363 0.700492 -1.1679 -1.4263 -1.10998 -0.257886 -0.208657 -0.987099 0.432683 1.87966 0.074244 2.35909 0.768799 0.722561 2.4249 1.49353 -0.551667 0.0776592 -0.887744 0.683282 1.20088 1.82097 0.168558 0.421441 -2.00185
371.445 2.25443 -0.881226 0.382397 -2.2831 1.43598 0.0886112 2.12052 -0.363524 1.42071 -1.80578 1.0265 -1.33717 0.485568 -2.4606 1.59551 -0.134773 0.113644 1.4546 -1.86597 -1.66379 1.3795 2.12756 0.284539 -1.04284 -1.26019 -1.53218 -2.34197 -1.93922 1.13638 0.579472 -1.44107 0.890805 2.19825 1.44133 1.1077 1.13423 -0.970063 0.72822
371.423 -1.72929 -2.04935 1.42245 1.79721 -0.886526 -0.591987 1.83661 -1.79102 1.77324 -0.549748 2.16358 2.40727 0.286457 1.04308 2.03482 -1.929 -2.49977 -1.72537 -0.961184 -2.34173 -1.16458 -2.32481 0.737738 -0.105654 1.066 0.435985 -1.16433 -0.3263 -0.929784 0.365609 -2.09808 -0.159077 0.816258 1.82437 -0.86187 2.42973 -1.26762 -1.52526
371.422 -1.86129 -1.99438 0.424989 -2.19771 -2.08712 -1.78855 1.34537 2.44771 -1.21756 1.34561 -1.77766 0.321259 1.50387 -0.442244 0.496453 -0.258389 1.9521 -0.937547 -2.3224 -1.71223 1.23615 -0.752188 1.15338 1.63807 1.58874 -0.530359 0.962438 -1.77313 -0.600628 2.19482 -0.798397 0.0380856 -2.29956 2.12659 0.34038 -1.88668 -2.16196 -0.814248
371.412 -1.93897 -0.879518 -1.96864 -1.21663 1.94174 2.03523 0.841122 -0.0618061 -0.723156 0.293224 1.50065 -0.54556 1.081 0.2368 1.20225 -0.26562 -0.625127 0.290988 1.70402 -2.16269 1.01785 -1.39661 -2.46787 -2.28054 1.14148 -2.26744 2.34605 -1.01814 -1.65412 -2.31591 0.667611 -1.09309 -0.69543 1.19897 0.190277 -1.25369 0.734202 -1.4686
371.316 1.1845 -2.48895 1.32462 0.185151 -0.534514 -0.0943793 -2.07805 -1.83226 2.14 -0.203176 0.958727 1.34402 0.134135 -0.52342 2.44741 0.166263 -0.303963 1.08889 0.398826 -0.457915 -2.42925 1.24471 -0.273827 0.738362 -2.34838 1.53074 -0.562668 0.341897 -2.22295 -2.32847 1.3733 1.46156 -2.31742 0.19792 -0.853292 -0.351933 -2.39646 -0.431341
371.136 0.315805 2.24354 1.86548 -1.22547 1.08756 -0.500382 0.751112 1.03498 2.16588 -2.05285 -0.376131 0.0647071 -0.0107661 -0.305381 -1.19058 2.21541 -2.06702 -1.03896 1.24615 -0.129687 1.80293 1.5232 0.0418469 0.67623 0.484761 0.224427 -1.62585 2.13147 2.37249 -1.52231 -0.799872 0.188299 -1.77877 -1.43439 1.46283 1.80879 0.565229 -0.286057
370.37 0.34377 0.23111 0.161092 2.46764 -2.20418 -2.34967 -0.337742 -0.894767 2.36573 0.0952391 0.566271 1.11188 2.46555 -0.130795 0.135087 0.00739882 -1.95457 -1.88015 -2.26817 -1.08041 -2.24868 -2.39568 -0.102725 -0.548555 0.292619 0.618507 0.517056 -0.74455 -0.0726997 -1.41772 1.46939 -2.22893 1.31339 -0.869516 -2.26129 1.60921 -0.71919 -0.0990332
370.264 -1.78556 -0.853457 2.49621 1.28071 -2.24157 2.46176 -1.35008 0.393512 -0.0308434 -0.804646 1.01336 0.200983 0.614939 1.26468 0.305302 -1.98779 -1.78388 -1.90208 1.13072 1.23318 -0.14663 -1.44198 2.31546 -1.17724 -1.17091 1.12885 0.453247 -0.9322 0.238065 2.23406 1.46877 0.952509 -1.1194 1.46497 -0.266777 -0.860975 1.42673 0.883142
370.119 2.03254 -1.10411 -2.4215 0.545897 1.59687 0.693435 -0.689427 -0.597828 1.20565 0.026694 9.29914e-05 -0.163629 -1.24013 2.35346 0.894392 -1.42467 -1.32377 2.22348 2.20419 1.62947 -1.20872 -0.0577501 1.36353 -2.23995 -1.60524 -2.25587 1.72502 0.627982 -0.616846 0.651756 -0.988876 -1.08431 2.04764 -0.91038 1.96159 1.14451 2.28306 -1.22784
370.104 -1.95331 0.988705 1.29886 0.546779 -1.67492 -2.44127 0.400242 1.71947 -1.36594 1.57647 1.44295 -1.66176 0.705941 -2.26576 0.780492 -0.43053 -2.00571 1.67525 -0.186401 2.21931 -0.196768 1.69675 0.371069 1.31436 -1.88755 -0.0812882 -2.09602 -2.42597 -1.43677 -2.31297 -1.1538 -0.890089 1.17574 -2.35495 2.15669 2.00081 -2.29622 0.0569318
369.481 1.22028 -1.16216 -0.8666 0.163233 -0.323921 2.33934 0.397469 -2.04343 -0.591189 0.891757 2.13182 1.72241 0.61107 -0.564946 0.919164 -1.51786 -1.75059 1.53161 0.900851 -1.34661 1.60564 1.96408 -1.15958 -2.04816 -1.42601 -2.48384 -1.90311 -1.76932 2.01697 -1.69933 0.787609 0.737249 -0.36149 2.42101 -1.59952 1.81459 2.26035 1.29795
368.267 2.27116 -0.830841 -0.310292 1.90298 -1.60843 -2.19922 -1.16196 1.81073 -1.21708 -0.412553 0.842343 2.18377 0.740834 -0.0520133 1.64784 2.08125 0.399827 -2.27817 2.09741 0.996721 -1.54749 1.61438 1.79739 1.74012 -0.148376 -1.0641 1.66112 0.752106 -1.74951 1.42147 -0.449944 -1.97835 -1.90937 1.73976 2.42464 -1.0178 2.04054 -1.23733
367.198 -1.70706 -1.67654 0.85012 1.63528 -1.99277 -0.909046 -0.916735 2.15507 -1.32779 1.98309 2.3769 -1.73039 0.479813 -1.67059 2.38399 -0.222792 -2.43048 -0.264387 1.21311 1.73065 -2.01228 1.96361 0.652121 0.037775 2.48526 1.24275 -0.72246 2.4099 -2.27504 -1.18192 -1.32743 -1.48211 -0.358457 2.02269 -2.34683 0.14877 -1.38635 -0.763567
366.831 -0.196159 -0.214147 -1.28047 -0.319257 0.555467 1.69934 0.510152 0.439456 -1.02345 0.579676 -2.32493 -2.31034 -0.189675 -1.83721 2.15327 -2.03755 0.700563 2.13853 1.7052 2.4781 2.04843 1.93015 -1.20382 -1.779 -2.05195 0.937728 -2.25631 -1.89879 -1.4135 -1.14266 -0.162354 0.890339 1.14319 1.05717 -1.92892 -0.801341 0.256511 1.08123
366.317 2.13812 1.73306 -0.83909 2.31318 1.92272 1.47124 -2.02403 1.57598 1.93368 1.17654 1.21451 1.13888 1.15464 0.762941 0.569036 2.45082 1.48394 1.01708 0.88855 1.72763 1.61829 1.97505 -1.91503 -1.04406 0.365387 1.72817 -2.48689 0.936469 -1.57318 0.269623 -0.482297 -1.93506 -0.497319 1.17861 -2.12188 -1.0746 0.149849 -1.6459
365.445 -1.99862 -0.41647 2.03063 1.7159 -1.77759 0.68527 -0.0211641 1.29145 0.636093 -1.03722 -0.191471 -0.975357 -1.80959 -1.07318 -1.50031 -1.22462 0.382765 1.36508 -1.99645 0.395878 -0.198453 -1.06963 -1.8345 1.81925 -0.504689 0.168182 0.497863 -0.126564 1.59358 -1.85229 0.727532 2.09496 0.231242 0.258164 1.31086 0.953654 -1.55657 -1.21031
365.427 -0.254899 1.57953 0.252469 2.05363 -1.89583 0.942879 -1.51955 -0.89614 2.21826 1.36322 -2.03106 -2.27819 -0.740904 0.270485 -0.847819 -0.0754027 -0.410264 1.14749 -2.40722 -2.4124 -1.47907 1.68636 -1.76469 1.74846 1.28132 0.966553 -0.493375 0.0921778 -0.579793 0.45006 1.38187 1.66531 -0.470414 -0.86566 1.21894 0.133756 -2.42278 2.19939
365.304 1.73762 2.29548 1.06261 2.20655 -2.48271 -2.17829 -0.02296 -0.830529 0.246305 2.06678 -2.18304 0.339084 2.15437 -1.16211 -0.474557 -2.11031 -1.91365 -1.69324 1.35624 0.0929784 0.898942 -1.72356 -1.95696 -0.219188 2.44175 0.0726243 1.41515 1.16069 -2.29362 1.49237 0.860085 1.944 1.28785 -0.577304 1.65055 1.30514 -0.255596 -0.872409
365.245 -2.02539 2.49071 -1.30563 -1.70842 0.329794 -1.65126 -0.370529 2.35524 -1.26157 0.215824 -1.838 -2.40534 -2.1912 1.56094 -1.62889 -1.64816 -1.15824 -1.68714 0.924465 -2.24309 1.97355 1.13085 1.74928 0.333639 0.574842 0.537133 2.25633 -0.274607 -0.657724 -0.499261 1.35298 -0.183109 -0.508552 -2.45265 0.60847 2.32124 -1.60391 -2.26206
364.579 2.17648 -0.365482 0.453765 -2.16152 -0.270818 0.762568 1.89942 0.600292 1.61441 -1.75882 1.41315 0.0388738 -1.50191 0.886709 -1.33028 -2.25263 -1.27965 1.74456 0.784499 -1.52332 -1.03005 -2.37323 0.477421 -2.17706 -0.0563345 2.46887 -2.12971 -1.94786 2.29011 -1.23362 -1.70992 1.96659 0.900898 1.24384 2.30507 -1.86992 -0.49359 1.70449
364.161 1.23037 -1.37918 2.44567 0.143527 1.15969 -1.55624 -1.46976 2.32941 -1.30888 -0.249417 1.57397 1.97562 0.727265 -1.95607 2.1024 -1.29531 -1.63314 -0.453937 -1.32644 -1.26285 0.0981983 -1.53633 0.00353276 0.888275 -2.06974 -1.59557 -0.367884 -2.26467 -0.965488 1.63853 1.93982 -2.23512 -2.24066 1.88549 0.408411 1.41904 -2.17075 1.43865
364.015 1.24845 -0.979623 -1.31077 0.322421 -1.504 1.91649 0.866347 -1.9016 -1.87882 1.73321 0.14446 -0.705262 -2.02964 -2.25734 0.258405 0.473896 1.13093 0.688664 1.37833 -1.73695 0.923993 -2.08716 2.40158 0.363815 -1.82228 -2.33908 -0.25069 1.08613 1.57996 0.0785625 0.0247801 0.328405 1.59894 1.21401 -1.84917 -2.40506 0.630504 1.51717
363.851 -1.80666 1.25169 0.750383 0.837797 -1.95358 1.22075 1.08046 0.804829 -0.805357 -0.288611 -1.00651 -1.92703 0.474439 2.41748 -1.51419 0.376014 0.2813 -0.836469 0.536933 -2.46939 -2.25034 -0.38311 0.109172 0.274445 2.44529 -0.791888 -1.01155 -1.90388 -0.696949 2.11896 2.11329 -0.00361189 0.870644 0.363675 -1.66581 1.41707 -0.915579 1.91464
363.351 -0.278104 0.779064 -0.87397 1.21539 1.35203 2.10047 1.13287 2.33784 -0.0235173 -1.08583 -0.998627 -1.98658 -1.05522 -0.748963 0.130306 1.55396 2.02548 0.0756003 -1.73793 -1.48606 0.67172 0.0651182 -1.86711 0.285012 -2.43849 1.50354 -1.85131 -1.60431 0.420606 -0.266892 -2.18967 -2.3575 -1.98783 -0.563637 1.35789 1.86421 -0.963168 -0.00923699
362.838 1.70205 1.51332 1.40494 -1.79658 2.02673 -2.15028 -0.0455425 -0.342963 1.90367 -0.52006 2.23264 -2.33426 0.493876 0.404358 0.230859 1.12677 -1.81063 0.292365 0.13031 -1.16194 1.18806 -1.94908 1.07116 1.49839 -1.80658 1.58334 -1.56525 2.05131 0.947543 -0.0284143 -0.457929 0.14959 -1.0151 -1.55299 0.85301 -1.48837 -1.20327 -1.69253
362.642 0.668669 -1.7996 0.287407 0.401307 -1.63386 -1.71872 -1.69434 1.097 1.90805 -1.00497 -1.11064 -0.461636 0.33309 -2.42258 0.0892798 -1.09574 1.57581 0.782698 -2.01241 -2.48943 0.334005 1.43514 -0.0178491 2.37608 -0.915275 1.46705 -1.67692 2.43774 2.47868 -0.380191 -1.7548 0.647353 0.320208 1.03261 -1.45134 1.18635 1.81389 -0.645677
362.635 -0.216652 1.22195 0.849357 1.17271 -1.73969 -1.31755 1.25014 0.849591 0.0867029 0.325947 -0.867711 0.574295 0.336512 1.96629 -0.490569 -2.18134 1.84237 1.09416 1.78571 -2.33455 1.03189 1.7644 -0.214738 1.77709 -0.0882485 -2.39453 0.309704 0.960411 1.29182 -0.376402 -2.18527 -1.42483 -1.65445 1.16409 2.24788 -0.894142 2.34654 0.998016
361.097 2.45545 -0.0667582 -1.17604 -0.912262 -1.99246 1.66048 -1.44597 0.0169678 1.97914 -2.1036 -1.38888 1.26485 -1.93814 2.14301 0.529252 0.347118 1.42011 -2.059 0.452588 -0.770187 1.40141 -0.755593 1.35341 1.71615 0.319574 2.19896 0.38024 0.0674544 -1.19519 0.226779 -1.43453 -1.23974 -2.33998 -0.110567 0.348002 -1.83244 -0.950092 1.40203
361.094 0.684526 -1.47095 1.79844 1.79565 2.2939 2.36029 1.43866 0.323151 0.207411 0.358773 0.764155 -1.84 2.08859 -0.334431 -0.0955943 0.941997 -1.11828 -2.27602 0.640955 1.76196 0.291434 1.94577 -0.511264 1.3569 -1.79397 -0.351244 -1.25366 1.05403 0.316314 0.296244 -0.0439312 -1.49916 1.32529 -0.745494 -2.20351 1.11919 -0.885202 1.73515
361.081 -1.05766 1.82221 -0.406075 2.2065 2.48221 -0.817489 -0.627935 -0.113386 -2.37549 0.753783 0.110593 0.765464 0.0157405 -2.09797 0.211233 2.00448 1.75893 0.917266 -0.846767 -1.99473 -0.528699 1.96955 0.801512 1.92737 -2.02961 -0.373197 -1.31813 -1.73312 -1.75401 0.296673 -2.49797 -0.311666 -0.381117 -0.404047 -0.60517 -0.398909 1.27846 1.2669
361.072 1.9877 1.40297 -0.479321 -0.401702 -0.331563 2.03642 0.00032503 2.37967 1.5409 -0.740744 0.796936 -1.80587 -0.235476 -2.23176 -2.33632 -1.93396 2.19561 -1.86594 0.192839 -1.62252 -1.09906 0.938832 1.17415 -1.09703 -1.87283 -1.70696 0.998919 0.0219963 0.394127 -0.222616 -1.21111 -0.118168 -1.31964 0.809571 1.98013 0.848795 0.34599 -0.519546
335.069 0.728465 -0.613114 1.23971 -0.974599 0.0810145 -1.49577 -0.706363 0.24469 -0.929728 -1.01076 0.878752 1.76311 -0.133277 2.27969 0.201943 -1.45912 -1.31734 0.829109 -0.666086 2.18157 -1.64889 2.22804 -0.541042 -0.360003 -0.390127 0.639315 -2.05043 -0.909998 -1.01189 0.795558 1.07046 2.21657 -2.31756 -0.189833 -1.25802 0.263459 0.814402 0.535612
Iteration 1. Optimum: 381.787 Params: -2.02539 2.49071 -1.30563 -1.70842 0.329794 -1.65126 -0.370529 2.35524 -1.26157 0.215824 -1.838 -2.40534 -2.1912 1.56094 -1.62889 -1.64816 -1.15824 -1.68714 0.924465 -2.24309 1.97355 1.13085 1.74928 0.333639 0.574842 0.537133 2.25633 -0.274607 -0.657724 -0.499261 1.35298 -0.183109 -0.508552 -2.45265 0.60847 2.32124 -1.60391 -2.26206
381.787 -2.02539 2.49071 -1.30563 -1.70842 0.329794 -1.65126 -0.370529 2.35524 -1.26157 0.215824 -1.838 -2.40534 -2.1912 1.56094 -1.62889 -1.64816 -1.15824 -1.68714 0.924465 -2.24309 1.97355 1.13085 1.74928 0.333639 0.574842 0.537133 2.25633 -0.274607 -0.657724 -0.499261 1.35298 -0.183109 -0.508552 -2.45265 0.60847 2.32124 -1.60391 -2.26206
381.681 -2.0326 -1.82549 0.10105 -2.10884 -2.15047 -1.47672 -0.192898 1.59839 0.366593 1.2779 -2.24031 -1.71096 2.49997 -1.47836 1.94978 -1.87266 2.48899 -2.22971 1.8527 -2.13836 -2.47919 2.11535 0.469461 -1.59814 -1.68434 -0.541549 2.06513 1.59848 -0.704523 0.262425 0.39715 -0.237121 0.936937 -2.0018 0.15404 1.28647 -0.978524 2.46114
381.267 -1.19778 0.748295 0.261582 2.09795 0.929932 1.54893 0.989241 -0.940248 0.729445 -2.46998 0.164799 1.71955 0.592234 0.713463 0.0925744 -0.496455 -0.689228 1.09434 1.50948 0.889062 -1.73562 -2.33554 -2.1822 0.928609 -1.56192 0.594792 1.00151 0.339155 -2.49437 -2.47145 -0.973806 -1.19215 0.776841 1.78778 -1.59419 -0.793228 0.836703 1.89505
381.147 -1.99862 -0.41647 2.03063 1.7159 -1.77759 0.68527 -0.0211641 1.29145 0.636093 -1.03722 -0.191471 -0.975357 -1.80959 -1.07318 -1.50031 -1.22462 0.382765 1.36508 -1.99645 0.395878 -0.198453 -1.06963 -1.8345 1.81925 -0.504689 0.168182 0.497863 -0.126564 1.59358 -1.85229 0.727532 2.09496 0.231242 0.258164 1.31086 0.953654 -1.55657 -1.21031
377.829 -1.26416 -0.699179 2.08697 0.639399 -0.664408 0.577455 0.0869536 -0.606004 0.00917667 0.970455 -2.41001 0.750328 0.597349 0.96846 0.100591 1.97677 -1.29293 0.876601 1.11988 -0.178036 1.44116 -1.61672 -0.874115 -0.829921 0.689531 -1.58999 -1.28236 -2.37712 -1.80943 -0.411683 -1.43866 -0.573592 1.38914 -1.85168 -2.43419 -1.77527 1.22577 0.152761
377.789 -2.25419 -0.254474 2.43234 1.03955 -1.44559 -0.13053 1.82591 -2.0304 -2.0022 -0.58552 -0.991184 0.7856 1.54548 -1.84149 -2.24246 -2.23289 -0.211422 1.40434 0.960382 -0.287199 -1.90444 0.448184 0.393174 0.149496 0.475226 -0.690416 -0.978573 1.94362 -0.117077 -1.6509 0.548646 0.128736 0.594627 0.480981 -1.33172 1.64904 -2.14955 -2.00581
377.748 -1.96076 0.736037 -0.682009 -1.05865 -0.843071 -2.04426 -0.363361 2.17247 0.417851 -1.17269 0.793733 1.30889 -0.0628657 -1.71364 1.91518 0.628327 0.0885736 -1.46078 0.287803 -0.369003 1.6497 -0.528058 -1.27837 -0.869933 1.1468 0.693271 2.42422 -0.808785 1.9878 -1.81963 -0.44606 -2.47296 1.41641 1.37193 -1.03161 -1.92666 1.82767 1.10503
376.949 -1.78556 -0.853457 2.49621 1.28071 -2.24157 2.46176 -1.35008 0.393512 -0.0308434 -0.804646 1.01336 0.200983 0.614939 1.26468 0.305302 -1.98779 -1.78388 -1.90208 1.13072 1.23318 -0.14663 -1.44198 2.31546 -1.17724 -1.17091 1.12885 0.453247 -0.9322 0.238065 2.23406 1.46877 0.952509 -1.1194 1.46497 -0.266777 -0.860975 1.42673 0.883142
376.93 -1.78556 -0.853457 2.49621 1.28071 -2.24157 2.46176 -1.35008 0.393512 -0.0308434 -0.804646 1.01336 0.200983 0.614939 1.26468 0.305302 -1.98779 -1.78388 -1.90208 1.13072 1.23318 -0.14663 -1.44198 2.31546 -1.17724 -1.17091 1.12885 0.453247 -0.9322 0.238065 2.23406 1.46877 0.952509 -1.1194 1.46497 -0.266777 -0.860975 1.42673 0.883142
376.925 -0.00928037 0.380998 -1.68622 -1.13044 1.82289 -0.0380059 -0.181689 1.74471 -0.020113 -1.04473 -1.59789 0.920892 1.13775 -1.80471 0.515544 -0.0378914 1.69067 -0.751435 -1.60896 -1.39017 -0.00737259 -1.89371 -1.80881 -0.697787 -0.875965 2.15948 2.04242 0.610477 1.68414 1.59064 -0.0196279 -0.825142 -0.528364 0.794156 0.544414 -1.20547 -1.74385 -2.13727
376.911 -2.25419 -0.254474 2.43234 1.03955 -1.44559 -0.13053 1.82591 -2.0304 -2.0022 -0.58552 -0.991184 0.7856 1.54548 -1.84149 -2.24246 -2.23289 -0.211422 1.40434 0.960382 -0.287199 -1.90444 0.448184 0.393174 0.149496 0.475226 -0.690416 -0.978573 1.94362 -0.117077 -1.6509 0.548646 0.128736 0.594627 0.480981 -1.33172 1.64904 -2.14955 -2.00581
376.911 2.17648 -0.365482 0.453765 -2.16152 -0.270818 0.762568 1.89942 0.600292 1.61441 -1.75882 1.41315 0.0388738 -1.50191 0.886709 -1.33028 -2.25263 -1.27965 1.74456 0.784499 -1.52332 -1.03005 -2.37323 0.477421 -2.17706 -0.0563345 2.46887 -2.12971 -1.94786 2.29011 -1.23362 -1.70992 1.96659 0.900898 1.24384 2.30507 -1.86992 -0.49359 1.70449
376.906 0.766525 -0.933852 1.92507 -1.56868 -1.7143 0.0173049 1.64479 0.87827 2.02085 -1.54444 -0.527394 1.03033 1.84462 0.236985 1.1948 2.16242 -1.33441 2.13288 0.257215 2.1671 -0.0279656 0.262842 2.19565 1.49823 1.57069 0.472486 0.786005 2.4765 2.17926 -0.877293 1.87155 0.445783 0.688855 1.29662 1.37711 1.47455 -1.18608 0.521894
376.884 -1.19778 0.748295 0.261582 2.09795 -0.664099 1.54893 0.989241 -0.940248 0.729445 -2.46998 0.164799 1.71955 0.592234 0.713463 0.0925744 -0.496455 -0.689228 1.09434 1.50948 0.889062 -1.73562 -2.33554 -2.1822 0.928609 -1.56192 0.594792 1.00151 0.339155 -2.49437 -2.47145 -0.973806 -1.19215 0.776841 1.78778 -1.59419 -0.793228 0.836703 -1.67819
376.867 -0.147179 -1.66523 1.47745 1.82543 1.86511 0.822072 -0.437587 0.559904 0.484495 0.728007 0.192783 -1.75829 0.395108 -2.33518 1.00455 0.0907533 1.66305 0.0752454 -1.93676 -0.05095 0.0517451 -2.2575 1.57176 -0.576708 0.688282 -0.239388 -1.78009 -0.434611 -1.26484 -0.466167 -2.41272 1.08798 0.368606 1.56474 0.413411 -0.266287 -0.113193 2.47582
376.833 -1.19778 0.748295 0.261582 2.09795 -0.664099 1.54893 0.989241 -0.940248 0.729445 -2.46998 0.164799 1.71955 0.592234 0.713463 0.0925744 -0.496455 -0.689228 1.09434 1.50948 0.889062 -1.73562 -2.33554 -2.1822 0.928609 -1.56192 0.594792 1.00151 0.339155 -2.49437 -2.47145 -0.973806 -1.19215 0.776841 1.78778 -1.59419 -0.793228 0.836703 -1.67819
376.635 -1.96076 0.736037 -0.682009 -1.05865 -0.843071 -2.04426 -0.363361 2.17247 0.417851 -1.17269 0.793733 1.30889 -0.0628657 -1.71364 1.91518 0.628327 0.0885736 -1.46078 0.287803 -0.369003 1.6497 -0.528058 -1.27837 -0.869933 1.1468 0.693271 2.42422 -0.808785 1.9878 -1.81963 -0.44606 -2.47296 1.41641 1.37193 -1.03161 -1.92666 1.82767 1.10503
376.582 -0.110196 -0.699474 0.7694 2.08261 -1.44654 0.532711 1.82717 -1.95111 -0.632221 -1.50499 0.732601 0.463459 0.88277 0.481703 -2.2057 0.304359 0.318087 -1.28687 -2.40545 -0.780793 -2.45463 2.11846 0.507134 1.35343 1.93599 2.16636 -1.63468 -0.260092 -0.0613965 1.47616 0.695046 2.32841 -1.72332 -1.03555 1.91102 -0.66986 1.99716 1.23819
376.571 -2.25419 -0.254474 2.43234 1.03955 -1.44559 -0.13053 1.82591 -2.0304 -2.0022 -0.58552 -0.991184 0.7856 1.54548 -1.84149 -2.24246 -2.23289 -0.211422 1.40434 0.960382 -0.287199 -1.90444 0.448184 0.393174 0.149496 0.475226 -0.690416 -0.978573 1.94362 -0.117077 1.34931 0.548646 0.128736 0.594627 0.480981 -1.33172 1.64904 -2.14955 -2.00581
376.532 -0.718085 2.48985 -2.32167 0.117742 -1.49527 0.808958 0.998936 -0.861919 1.94672 0.733559 -0.792588 -2.24916 1.33351 1.51665 0.993565 0.909609 2.02094 -0.935301 1.26239 -1.01033 1.54685 -1.55468 0.455553 -2.2328 -1.99273 -1.71362 -1.27926 -1.81915 0.445593 -2.20974 1.94777 2.22751 -2.21989 2.1261 -0.15475 -1.21515 0.435056 -1.65581
376.504 -0.278104 0.779064 -0.87397 1.21539 1.35203 2.10047 1.13287 2.33784 -0.0235173 -1.08583 -0.998627 -1.98658 -1.05522 -0.748963 0.130306 1.55396 2.02548 0.0756003 -1.73793 -1.48606 0.67172 0.0651182 -1.86711 0.285012 -2.43849 1.50354 -1.85131 -1.60431 0.420606 -0.266892 -2.18967 -2.3575 -1.98783 -0.563637 1.35789 1.86421 -0.963168 -0.00923699
376.502 -2.13382 0.0719109 1.94906 0.557055 0.155164 1.60665 2.29478 1.18373 -0.780203 -0.700289 -2.28042 -2.38068 -2.47462 -0.0637292 -1.03557 1.04131 1.60073 0.0370478 -0.162646 -2.10871 -1.54508 -0.0817582 2.1169 -2.28303 -2.07795 -1.27571 1.05677 0.556206 -2.03571 2.30783 1.83735 -1.66953 -0.120263 1.28641 1.38752 -2.4651 0.393063 1.18231
376.499 -0.278104 0.779064 -0.87397 1.21539 1.35203 2.10047 1.13287 2.33784 -0.0235173 -1.08583 -0.998627 -1.98658 -1.05522 -0.748963 0.130306 1.55396 2.02548 0.0756003 -1.73793 -1.48606 0.67172 0.0651182 -1.86711 0.285012 -2.43849 1.50354 -1.85131 -1.60431 0.420606 -0.266892 -2.18967 -2.3575 -1.98783 -0.563637 1.35789 1.86421 -0.963168 -0.00923699
376.492 1.34103 -1.88957 -2.30868 0.0746798 -0.503501 -1.44217 -0.236751 -1.69919 -0.958766 -0.331208 -2.47283 0.748933 -1.86889 -0.190255 -2.07908 1.40125 1.42966 0.923384 2.05113 1.83599 -2.18663 -2.26409 0.135375 -1.61434 2.13933 -1.95238 -0.560019 0.480957 0.692047 1.0017 0.197067 -0.466925 1.61213 0.388391 2.10776 -1.39137 1.44622 -0.628996
376.08 1.39231 2.18175 -1.78941 -1.02699 0.305037 0.722599 1.86707 -1.33576 0.86998 0.646797 1.66277 1.56498 1.3665 -2.35774 0.452036 0.587911 -0.830714 1.37216 -1.07855 -2.11623 1.90004 -1.63639 -1.60507 -0.701071 -0.284787 -0.606448 0.737611 -1.99657 -0.871443 1.8472 0.538002 -1.97913 1.52894 1.24859 -0.506123 -0.666018 -0.528806 -1.13905
376.005 -2.25419 -0.254474 2.43234 1.03955 -1.44559 -0.13053 1.82591 -2.0304 -2.0022 -0.58552 -0.991184 0.7856 1.54548 -1.84149 -2.24246 -2.23289 -0.211422 1.40434 0.960382 -0.287199 -1.90444 0.448184 0.393174 0.149496 0.475226 -0.690416 -0.978573 1.94362 -0.117077 -1.6509 0.548646 0.128736 0.594627 0.480981 -1.33172 1.64904 -2.14955 -2.00581
375.996 -0.170826 1.64273 1.96162 1.05953 -0.473663 -1.53254 1.68993 -1.72645 0.868241 -0.880742 -0.764018 0.162571 -0.213802 0.701839 1.08546 -0.199663 0.205698 -2.47078 -1.15658 -1.54185 0.966851 -0.279513 -1.3182 0.765433 -1.40423 -0.75338 0.0717585 -0.367942 -0.7824 -2.24767 -2.0284 1.54677 1.89506 2.43322 0.106304 -1.0786 -1.59932 -0.703767
375.879 -1.78556 -0.853457 2.49621 1.28071 -2.24157 2.46176 -1.35008 0.393512 -0.0308434 -0.804646 1.01336 0.200983 0.614939 1.26468 0.305302 -1.98779 -1.78388 -1.90208 1.13072 1.23318 -0.14663 -1.44198 2.31546 -1.17724 -1.17091 1.12885 0.453247 -0.9322 0.238065 2.23406 1.46877 0.952509 -1.1194 1.46497 -0.266777 -0.860975 1.42673 0.883142
375.875 -0.278104 0.779064 -0.87397 1.21539 1.35203 2.10047 1.13287 2.33784 -0.0235173 -1.08583 -0.998627 -1.98658 -1.05522 -0.748963 0.130306 1.55396 2.02548 0.0756003 -1.73793 -1.48606 0.67172 0.0651182 -1.86711 0.285012 -2.43849 1.50354 -1.85131 -1.60431 0.420606 -0.266892 -2.18967 -2.3575 0.873924 -0.563637 1.35789 1.86421 -0.963168 -0.00923699
375.866 0.316634 -1.48884 1.51613 0.862801 -2.14339 2.31276 -0.124181 -0.577455 -0.708823 2.15427 2.08425 -1.98378 2.00448 1.87802 -1.54114 2.10702 2.14339 -2.05173 1.60463 2.34197 0.0439944 -2.47637 -1.55876 -1.06405 0.637589 -1.19057 1.24339 -2.31752 1.10911 -0.747474 1.86014 -1.07425 0.263688 0.876276 2.28855 0.620298 0.689031 -0.335634
375.12 -1.26416 -0.699179 2.08697 0.639399 -0.664408 0.577455 0.0869536 -0.606004 0.00917667 0.970455 -2.41001 0.750328 0.597349 0.96846 0.100591 1.97677 -1.29293 0.876601 1.11988 -0.178036 1.44116 -1.61672 -0.874115 -0.829921 0.689531 -1.58999 -1.28236 -2.37712 -1.80943 -0.411683 -1.43866 -0.573592 1.38914 -1.85168 -2.43419 -1.77527 1.22577 0.152761
375.07 -2.13382 0.0719109 1.94906 0.557055 0.155164 1.60665 2.29478 1.18373 -0.780203 -0.700289 -2.28042 -2.38068 -2.47462 -0.0637292 -1.03557 1.04131 1.60073 0.0370478 -0.162646 -2.10871 -1.54508 -0.0817582 2.1169 -2.28303 -2.07795 -1.27571 1.05677 0.556206 -2.03571 2.30783 1.83735 -1.66953 -0.120263 1.28641 1.38752 -2.4651 0.393063 1.18231
374.984 2.25443 -0.881226 0.382397 -2.2831 1.43598 0.0886112 2.12052 -0.363524 1.42071 -1.80578 1.0265 -1.33717 0.485568 -2.4606 1.59551 -0.134773 0.113644 1.4546 -1.86597 -1.66379 1.3795 2.12756 0.284539 -1.04284 -1.26019 -1.53218 -2.34197 -1.93922 1.13638 0.579472 -1.44107 0.890805 2.19825 1.44133 1.1077 1.13423 -0.970063 0.72822
374.961 -0.110196 -0.699474 0.7694 2.08261 -1.44654 0.532711 1.82717 -1.95111 -0.632221 -1.50499 0.732601 0.463459 0.88277 0.481703 -2.2057 0.304359 0.318087 -1.28687 -2.40545 -0.780793 -2.45463 2.11846 0.507134 1.35343 1.93599 2.16636 -1.63468 -0.260092 -0.0613965 1.47616 0.695046 2.32841 -1.72332 -1.03555 1.91102 -0.66986 1.99716 1.23819
374.945 -1.86129 -1.99438 0.424989 -2.19771 -2.08712 -1.78855 1.34537 2.44771 -1.21756 1.34561 -1.77766 0.321259 1.50387 -0.442244 0.496453 -0.258389 1.9521 -0.937547 -2.3224 -1.71223 1.23615 -0.752188 1.15338 1.63807 1.58874 -0.530359 0.962438 -1.77313 -0.600628 2.19482 -0.798397 0.0380856 -2.29956 2.12659 0.34038 -1.88668 -2.16196 -0.814248
374.891 1.23037 -1.37918 2.44567 0.143527 1.15969 -1.55624 -1.46976 2.32941 -1.30888 -0.249417 1.57397 1.97562 0.727265 -1.95607 2.1024 -1.29531 -1.63314 -0.453937 -1.32644 -1.26285 0.0981983 -1.53633 0.00353276 0.888275 -2.06974 -1.59557 -0.367884 -2.26467 -0.965488 1.63853 1.93982 -2.23512 -2.24066 1.88549 0.408411 1.41904 -2.17075 1.43865
374.786 1.1845 -2.48895 1.32462 0.185151 -0.534514 -0.0943793 -2.07805 -1.83226 2.14 -0.203176 0.958727 1.34402 0.134135 -0.52342 2.44741 0.166263 -0.303963 1.08889 0.398826 -0.457915 -2.42925 1.24471 -0.273827 0.738362 -2.34838 1.53074 -0.562668 0.341897 -2.22295 -2.32847 1.3733 1.46156 -2.31742 0.19792 -0.853292 -0.351933 -2.39646 -0.431341
373.937 2.03254 -1.10411 -2.4215 0.545897 1.59687 0.693435 -0.689427 -0.597828 1.20565 0.026694 9.29914e-05 -0.163629 -1.24013 2.35346 0.894392 -1.42467 -1.32377 2.22348 2.20419 1.62947 -1.20872 -0.0577501 1.36353 -2.23995 -1.60524 -2.25587 1.72502 0.627982 -0.616846 0.651756 -0.988876 -1.08431 2.04764 -0.91038 1.96159 1.14451 2.28306 -1.22784
372.076 0.34377 0.23111 0.161092 2.46764 -2.20418 -2.34967 -0.337742 -0.894767 2.36573 0.0952391 0.566271 1.11188 2.46555 -0.130795 0.135087 0.00739882 -1.95457 -1.88015 -2.26817 -1.08041 -2.24868 -2.39568 -0.102725 -0.548555 0.292619 0.618507 0.517056 -0.74455 -0.0726997 -1.41772 1.46939 -2.22893 1.31339 -0.869516 -2.26129 1.60921 -0.71919 -0.0990332
372.005 -1.26416 -0.699179 2.08697 0.639399 -0.664408 0.577455 0.0869536 -0.606004 0.00917667 0.970455 -2.41001 0.750328 0.597349 0.96846 0.100591 1.97677 -1.29293 0.876601 1.11988 -0.178036 1.44116 -1.61672 -0.874115 -0.829921 0.689531 -1.58999 -1.28236 -2.37712 -1.80943 -0.411683 -1.43866 -0.573592 1.38914 -1.85168 -2.43419 -1.77527 1.22577 0.152761
371.414 2.03254 -1.10411 -2.4215 0.545897 1.59687 0.693435 -0.689427 -0.597828 1.20565 0.026694 9.29914e-05 -0.163629 -1.24013 2.35346 0.894392 -1.42467 -1.32377 2.22348 2.20419 1.62947 -1.20872 -0.0577501 1.36353 -2.23995 -1.60524 -2.25587 1.72502 0.627982 -0.616846 0.651756 -0.988876 -1.08431 2.04764 -0.91038 1.96159 1.14451 2.28306 -1.22784
371.396 -2.0326 -1.82549 0.10105 -2.10884 -2.15047 -1.47672 -0.192898 1.59839 0.366593 1.2779 -2.24031 -1.71096 2.49997 -1.47836 1.94978 -1.87266 2.48899 -2.22971 1.8527 -2.13836 -2.47919 2.11535 0.469461 -1.59814 -1.68434 -0.541549 2.06513 1.59848 -0.704523 0.262425 0.39715 -0.237121 0.936937 -2.0018 0.15404 1.28647 -0.978524 2.46114
371.263 -1.78556 -0.853457 2.49621 1.28071 -2.24157 2.46176 -1.35008 0.393512 -0.0308434 -0.804646 1.01336 0.200983 0.614939 1.26468 0.305302 -1.98779 -1.78388 -1.90208 1.13072 1.23318 -0.14663 -1.44198 2.31546 -1.17724 -1.17091 1.12885 0.453247 -0.9322 0.238065 2.23406 1.46877 0.952509 -1.1194 1.46497 -0.266777 -0.860975 1.42673 0.883142
371.15 1.22028 -1.16216 -0.8666 0.163233 -0.323921 2.33934 0.397469 -2.04343 -0.591189 -0.01591 2.13182 1.72241 0.61107 -0.564946 0.919164 -1.51786 -1.75059 1.53161 0.900851 -1.34661 1.60564 1.96408 -1.15958 -2.04816 -1.42601 -2.48384 -1.90311 -1.76932 2.01697 -1.69933 0.787609 0.737249 -0.36149 2.42101 -1.59952 1.81459 2.26035 1.29795
370.372 2.17648 -0.365482 0.453765 -2.16152 -0.270818 0.762568 1.89942 0.600292 1.61441 -1.75882 1.41315 0.0388738 -1.50191 0.886709 -1.33028 -2.25263 -1.27965 1.74456 0.784499 -1.52332 -1.03005 -2.37323 0.477421 -2.17706 -0.0563345 2.46887 -2.12971 -1.94786 2.29011 -1.23362 -1.70992 0.300116 0.900898 1.24384 2.30507 -1.86992 -0.49359 1.70449
370.268 -1.70706 -1.67654 0.85012 1.63528 -1.99277 -0.909046 -0.916735 2.15507 -1.32779 1.98309 2.3769 -1.73039 0.479813 0.438625 2.38399 -0.222792 -2.43048 -0.264387 1.21311 1.73065 -2.01228 1.96361 0.652121 0.037775 2.48526 1.24275 -0.72246 2.4099 -2.27504 -1.18192 -1.32743 -1.48211 -0.358457 2.02269 -2.34683 0.14877 -1.38635 -0.763567
369.465 2.17648 -0.365482 0.453765 -2.16152 -0.270818 0.762568 1.89942 0.600292 1.61441 -1.75882 1.41315 0.0388738 -1.50191 0.886709 -1.33028 -2.25263 -1.27965 1.74456 0.784499 -1.52332 -1.03005 -2.37323 0.477421 -2.17706 -0.0563345 2.46887 -2.12971 -1.94786 2.29011 -1.23362 -1.70992 0.300116 0.900898 1.24384 2.30507 -1.86992 -0.49359 1.70449
366.81 2.13812 1.73306 -0.83909 2.31318 1.92272 1.47124 -2.02403 1.57598 1.93368 1.17654 1.21451 1.13888 1.15464 0.762941 0.569036 2.45082 1.48394 1.01708 0.88855 1.72763 1.61829 1.97505 -1.91503 -1.04406 0.365387 1.72817 -2.48689 0.936469 -1.57318 0.269623 -0.482297 -1.93506 -0.497319 1.17861 -2.12188 -1.0746 0.149849 -1.6459
366.281 0.728465 -0.613114 1.23971 -0.974599 0.0810145 -1.49577 -0.706363 0.24469 -0.929728 -1.01076 0.878752 1.76311 -0.133277 2.27969 0.201943 -1.45912 -1.31734 0.829109 -0.666086 2.18157 -1.64889 2.22804 -0.541042 -0.360003 -0.390127 0.639315 -2.05043 -0.909998 -1.01189 0.795558 1.07046 2.21657 -2.31756 -0.189833 -1.25802 0.263459 -2.23224 0.535612
365.455 -0.254899 1.57953 0.252469 2.05363 -1.89583 0.942879 -1.51955 -0.89614 2.21826 1.36322 -2.03106 -2.27819 -0.740904 0.270485 -0.847819 -0.0754027 -0.410264 1.14749 -2.40722 -2.4124 -1.47907 1.68636 -1.76469 1.74846 1.28132 0.966553 -0.493375 0.0921778 -0.579793 0.45006 1.38187 1.66531 -0.470414 -0.86566 1.21894 0.133756 -2.42278 2.19939
365.214 -2.02539 2.49071 -1.30563 -1.70842 0.329794 -1.65126 -0.370529 2.35524 -1.26157 0.215824 -1.838 -2.40534 -2.1912 1.56094 -1.62889 -1.64816 -1.15824 -1.68714 0.924465 -2.24309 1.97355 1.13085 1.74928 0.333639 0.574842 0.537133 2.25633 -0.274607 -0.657724 -0.499261 1.35298 -0.183109 -0.508552 -2.45265 0.60847 2.32124 -1.60391 -2.26206
364.567 2.03254 -1.10411 -2.4215 0.545897 1.59687 0.693435 -0.689427 -0.597828 1.19892 0.026694 9.29914e-05 -0.163629 -1.24013 2.35346 0.894392 -1.42467 -1.32377 2.22348 2.20419 1.62947 -1.20872 -0.0577501 1.36353 -2.23995 -1.60524 -2.25587 1.72502 0.627982 -0.616846 0.651756 -0.988876 -1.08431 2.04764 -0.91038 1.96159 1.14451 2.28306 -1.22784
364.183 0.766525 -0.933852 1.92507 -1.56868 -1.7143 0.0173049 1.64479 0.87827 2.02085 -1.54444 -0.527394 1.03033 1.84462 0.236985 1.1948 2.16242 -1.33441 2.13288 0.257215 2.1671 -0.0279656 0.262842 2.19565 1.49823 1.57069 0.472486 0.786005 2.4765 2.17926 -0.877293 1.87155 0.445783 0.688855 1.29662 1.37711 1.47455 -1.18608 0.521894
364.183 1.23037 -1.37918 2.44567 0.143527 1.15969 -1.55624 -1.46976 2.32941 -1.30888 -0.249417 1.57397 1.97562 0.727265 -1.95607 2.1024 -1.29531 -1.63314 -0.453937 -1.32644 -1.26285 0.0981983 -1.53633 0.00353276 0.888275 -2.06974 -1.59557 -0.367884 -2.26467 -0.965488 1.63853 1.93982 -2.23512 -2.24066 1.88549 0.408411 1.41904 -2.17075 1.43865
364.139 -1.80666 1.25169 0.750383 0.837797 -1.95358 1.22075 1.08046 0.804829 -0.805357 -0.288611 -1.00651 -1.92703 0.474439 2.41748 -1.51419 0.376014 0.2813 -0.836469 0.536933 -2.46939 -2.25034 -0.38311 0.109172 0.274445 2.44529 -0.791888 -1.01155 -1.90388 -0.696949 2.11896 2.11329 -0.00361189 0.870644 0.363675 -1.66581 1.41707 -0.915579 1.91464
363.788 -2.13382 0.0719109 1.94906 0.557055 0.155164 1.60665 2.29478 1.18373 -0.780203 -0.700289 -2.28042 -2.38068 -2.47462 -0.0637292 -1.03557 1.04131 1.60073 0.0370478 -0.162646 -2.10871 -1.54508 -0.0817582 2.1169 -2.28303 -2.07795 -1.27571 1.05677 0.556206 -2.03571 2.30783 1.83735 -1.66953 -0.120263 1.28641 1.38752 -2.4651 0.393063 1.18231
363.361 1.70205 1.51332 1.40494 -1.79658 2.02673 -2.15028 -0.0455425 -0.342963 1.90367 -0.52006 2.23264 -2.33426 0.493876 0.404358 0.230859 1.12677 -1.81063 0.292365 0.13031 -1.16194 1.18806 -1.94908 1.07116 1.49839 -1.80658 1.58334 -1.56525 2.05131 0.947543 -0.0284143 -0.457929 0.14959 -1.0151 -1.55299 0.85301 -1.48837 -1.20327 -1.69253
363.346 0.728465 -0.613114 1.23971 -0.974599 0.0810145 -1.49577 -0.706363 0.24469 -0.929728 -1.01076 0.878752 1.76311 -0.133277 2.27969 0.201943 -1.45912 -1.31734 0.829109 -0.666086 2.18157 -1.64889 2.22804 -0.541042 -0.360003 -0.390127 0.639315 -2.05043 -0.909998 -1.01189 0.795558 1.07046 2.21657 -2.31756 -0.189833 -1.25802 0.263459 -2.23224 0.535612
362.867 -0.278104 0.779064 -0.87397 1.21539 1.35203 2.10047 1.13287 2.33784 -0.0235173 -1.08583 -0.998627 -1.98658 -1.05522 -0.748963 0.130306 1.55396 2.02548 0.0756003 -1.73793 -1.48606 0.67172 0.0651182 -1.86711 0.285012 -2.43849 1.50354 -1.85131 -1.60431 0.420606 -0.266892 -2.18967 -2.3575 0.873924 -0.563637 1.35789 1.86421 -0.963168 -0.00923699
362.63 -0.216652 1.22195 0.849357 1.17271 -1.73969 -1.31755 1.25014 0.849591 0.0867029 0.325947 -0.867711 0.574295 0.336512 1.96629 -0.490569 -2.18134 1.84237 1.09416 1.78571 -2.33455 1.03189 1.7644 -0.214738 1.77709 -0.0882485 -2.39453 0.309704 0.960411 1.29182 -0.376402 -2.18527 -1.42483 -1.65445 1.16409 2.24788 -0.894142 2.34654 0.998016
362.607 0.684526 -1.47095 1.79844 1.79565 2.2939 2.36029 1.43866 0.323151 0.207411 0.358773 0.764155 -1.84 2.08859 -0.334431 -0.0955943 0.941997 -1.11828 -2.27602 0.640955 1.76196 0.291434 1.94577 -0.511264 1.3569 -1.79397 -0.351244 -1.25366 1.05403 0.316314 0.296244 -0.0439312 -1.49916 1.32529 -0.745494 -2.20351 1.11919 -0.885202 1.73515
361.117 -1.99862 -0.41647 2.03063 1.7159 -1.77759 0.68527 -0.0211641 1.29145 0.636093 -1.03722 -0.191471 -0.975357 -1.80959 -1.07318 -1.50031 -1.22462 0.382765 1.36508 -1.99645 0.395878 -0.198453 -1.06963 -1.8345 1.81925 -0.504689 0.168182 0.497863 -0.126564 1.59358 -1.85229 0.727532 2.09496 0.231242 0.258164 1.31086 0.953654 -1.55657 -1.21031
361.105 1.9877 1.40297 -0.479321 -0.401702 -0.331563 2.03642 0.00032503 2.37967 1.5409 -0.740744 0.796936 -1.80587 -0.235476 -2.23176 -2.33632 -1.93396 2.19561 -1.86594 0.192839 -1.62252 -1.09906 0.938832 1.17415 -1.09703 -1.87283 -1.70696 0.998919 0.0219963 0.394127 -0.222616 -1.21111 -0.118168 -1.31964 0.809571 1.98013 0.848795 0.34599 -0.519546
361.043 -1.96076 0.736037 -0.682009 -1.05865 -0.843071 -2.04426 -0.363361 2.17247 0.417851 -1.17269 0.793733 1.30889 -0.0628657 -1.71364 1.91518 0.628327 0.0885736 -1.46078 0.287803 -0.369003 1.6497 -0.528058 -1.27837 -0.869933 1.1468 0.693271 2.42422 -0.808785 1.9878 -1.81963 -0.44606 -2.47296 1.41641 1.37193 -1.03161 -1.92666 1.82767 1.10503
Iteration 2. Optimum: 381.787 Params: -2.02539 2.49071 -1.30563 -1.70842 0.329794 -1.65126 -0.370529 2.35524 -1.26157 0.215824 -1.838 -2.40534 -2.1912 1.56094 -1.62889 -1.64816 -1.15824 -1.68714 0.924465 -2.24309 1.97355 1.13085 1.74928 0.333639 0.574842 0.537133 2.25633 -0.274607 -0.657724 -0.499261 1.35298 -0.183109 -0.508552 -2.45265 0.60847 2.32124 -1.60391 -2.26206
381.787 -2.02539 2.49071 -1.30563 -1.70842 0.329794 -1.65126 -0.370529 2.35524 -1.26157 0.215824 -1.838 -2.40534 -2.1912 1.56094 -1.62889 -1.64816 -1.15824 -1.68714 0.924465 -2.24309 1.97355 1.13085 1.74928 0.333639 0.574842 0.537133 2.25633 -0.274607 -0.657724 -0.499261 1.35298 -0.183109 -0.508552 -2.45265 0.60847 2.32124 -1.60391 -2.26206
381.681 -2.02539 2.49071 -1.30563 -1.70842 0.329794 -1.65126 -0.370529 2.35524 -1.26157 0.215824 -1.838 -2.40534 -2.1912 1.56094 -1.62889 -1.64816 -1.15824 -1.68714 0.924465 -2.24309 1.97355 1.13085 1.74928 0.333639 0.574842 0.537133 2.25633 -0.274607 -0.657724 -0.499261 1.35298 -0.183109 -0.508552 -2.45265 0.60847 2.32124 -1.60391 -2.26206
381.643 -2.0326 -1.82549 0.10105 -2.10884 -2.15047 -1.47672 -0.192898 1.59839 0.366593 1.2779 -2.24031 -1.71096 2.49997 -1.47836 1.94978 -1.87266 2.48899 -2.22971 1.8527 -2.13836 -2.47919 2.11535 0.469461 -1.59814 -1.68434 -0.541549 2.06513 1.59848 -0.704523 0.262425 0.39715 -0.237121 0.936937 -2.0018 0.15404 1.28647 -0.978524 2.46114
381.576 -2.0326 -1.82549 0.10105 -2.10884 -2.15047 -1.47672 -0.192898 1.59839 0.366593 1.2779 -2.24031 -1.71096 2.49997 -1.47836 1.94978 -1.87266 2.48899 -2.22971 1.8527 -2.13836 -2.47919 2.11535 0.469461 -1.59814 -1.68434 -0.541549 2.06513 1.59848 -0.704523 0.262425 0.39715 -0.237121 0.936937 -2.0018 0.15404 1.28647 -0.978524 2.46114
381.267 -1.19778 0.748295 0.261582 2.09795 -0.664099 1.54893 0.989241 -0.940248 0.729445 -2.46998 0.164799 1.71955 0.592234 0.713463 0.0925744 -0.496455 -0.689228 1.09434 1.50948 0.889062 -1.73562 -2.33554 -2.1822 0.928609 -1.56192 0.594792 1.00151 0.339155 -2.49437 -2.47145 -0.973806 -1.19215 0.776841 1.78778 -1.59419 -0.793228 0.836703 -1.67819
381.147 -1.19778 0.748295 0.261582 2.09795 -0.664099 1.54893 0.989241 -0.940248 0.729445 -2.46998 0.164799 1.71955 0.592234 0.713463 0.0925744 -0.496455 -0.689228 1.09434 1.50948 0.889062 -1.73562 -2.33554 -2.1822 0.928609 -1.56192 0.594792 1.00151 0.339155 -2.49437 -2.47145 -0.973806 -1.19215 0.776841 1.78778 -1.59419 -0.793228 0.836703 -1.67819
377.829 -1.19778 0.748295 0.261582 2.09795 0.929932 1.54893 0.989241 -0.940248 0.729445 -2.46998 0.164799 1.71955 0.592234 0.713463 0.0925744 -0.496455 -0.689228 1.09434 1.50948 0.889062 -1.73562 -2.33554 -2.1822 0.928609 -1.56192 0.594792 1.00151 0.339155 -2.49437 -2.47145 -0.973806 -1.19215 0.776841 1.78778 -1.59419 -0.793228 0.836703 1.89505
377.789 -1.99862 -0.41647 2.03063 1.7159 -1.77759 0.68527 -0.0211641 1.29145 0.636093 -1.03722 -0.191471 -0.975357 -1.80959 -1.07318 -1.50031 -1.22462 0.382765 1.36508 -1.99645 0.395878 -0.198453 -1.06963 -1.8345 1.81925 -0.504689 0.168182 0.497863 -0.126564 1.59358 -1.85229 0.727532 2.09496 0.231242 0.258164 1.31086 0.953654 -1.55657 -1.21031
377.748 -1.78556 -0.853457 2.49621 1.28071 -2.24157 2.46176 -1.35008 0.393512 -0.0308434 -0.804646 1.01336 0.200983 0.614939 1.26468 0.305302 -1.98779 -1.78388 -1.90208 1.13072 1.23318 -0.14663 -1.44198 2.31546 -1.17724 -1.17091 1.12885 0.453247 -0.9322 0.238065 2.23406 1.46877 0.952509 -1.1194 1.46497 -0.266777 -0.860975 1.42673 0.883142
376.977 -1.80666 1.25169 0.750383 0.837797 -1.95358 1.22075 1.08046 0.804829 -0.805357 -0.288611 -1.00651 -1.92703 0.474439 2.41748 -1.51419 0.376014 0.2813 -0.836469 0.536933 -2.46939 -2.25034 -0.38311 0.109172 0.274445 2.44529 -0.791888 -1.01155 -1.90388 -0.696949 2.11896 2.11329 -0.00361189 0.870644 0.363675 -1.66581 1.41707 -0.915579 1.91464
376.976 -2.25419 -0.254474 2.43234 1.03955 -1.44559 -0.13053 1.82591 -2.0304 -2.0022 -0.58552 -0.991184 0.7856 1.54548 -1.84149 -2.24246 -2.23289 -0.211422 1.40434 0.960382 -0.287199 -0.366455 0.448184 0.393174 0.149496 0.475226 -0.690416 -0.978573 1.94362 -0.117077 -1.6509 0.548646 0.128736 0.594627 0.480981 -1.33172 1.64904 -2.14955 -2.00581
376.973 -2.02539 2.49071 -1.30563 -1.70842 0.329794 -1.65126 -0.370529 2.35524 -1.26157 0.215824 -1.838 -2.40534 -2.1912 1.56094 -1.62889 -1.64816 -1.15824 -1.68714 0.924465 -2.24309 1.97355 1.13085 1.74928 0.333639 0.574842 0.537133 2.25633 -0.274607 -0.657724 -0.499261 1.35298 -0.183109 -0.508552 -2.45265 0.60847 2.32124 -1.60391 -2.26206
376.966 0.766525 -0.933852 1.92507 -1.56868 -1.7143 0.0173049 1.64479 0.87827 2.02085 -1.54444 -0.527394 1.03033 1.84462 0.236985 1.1948 2.16242 -1.33441 2.13288 0.257215 2.1671 -0.0279656 0.262842 2.19565 1.49823 1.57069 0.472486 0.786005 2.4765 2.17926 -0.877293 1.87155 0.445783 0.688855 1.29662 1.37711 1.47455 -1.18608 0.521894
376.949 1.9877 1.40297 -0.479321 -0.401702 -0.331563 2.03642 0.00032503 2.37967 1.5409 -0.740744 0.796936 -1.80587 -0.235476 -2.23176 -2.33632 -1.93396 2.19561 -1.86594 0.192839 -1.62252 -1.09906 0.938832 1.17415 -1.09703 -1.87283 -1.70696 0.998919 0.0219963 0.394127 -0.222616 -1.21111 -0.118168 -1.31964 0.809571 1.98013 0.848795 0.34599 -0.519546
376.868 1.39231 2.18175 -1.78941 -1.02699 0.305037 0.722599 1.86707 -1.33576 0.86998 0.646797 1.66277 1.56498 1.3665 -2.35774 0.452036 0.587911 -0.830714 1.37216 -1.07855 -2.11623 1.90004 -1.63639 -1.60507 -0.701071 -0.284787 -0.606448 0.737611 -1.99657 -0.871443 1.8472 0.538002 -1.97913 1.52894 1.24859 -0.506123 -0.666018 -0.528806 -1.13905
376.821 -0.147179 -1.66523 1.47745 1.82543 1.86511 0.822072 -0.437587 0.559904 0.484495 0.728007 0.192783 -1.75829 0.395108 -2.33518 1.00455 0.0907533 1.66305 0.0752454 -1.93676 -0.05095 0.0517451 -2.2575 1.57176 -0.576708 0.688282 -0.239388 -1.78009 -0.434611 -1.26484 -0.466167 -2.41272 1.08798 0.368606 1.56474 0.413411 -0.266287 -0.113193 2.47582
376.666 -1.96076 0.736037 -0.682009 -1.05865 -0.843071 -2.04426 -0.363361 2.17247 0.417851 -1.17269 0.793733 1.30889 -0.0628657 -1.71364 1.91518 0.628327 0.0885736 -1.46078 0.287803 -0.369003 1.6497 -0.528058 -1.27837 -0.869933 1.1468 0.693271 2.42422 -0.808785 1.9878 -1.81963 -0.44606 -2.47296 1.41641 1.37193 -1.03161 -1.92666 1.82767 1.10503
376.566 2.03254 -1.10411 -2.4215 0.545897 1.59687 0.693435 -0.689427 -0.597828 1.20565 0.026694 9.29914e-05 -0.163629 -1.24013 2.35346 0.894392 -1.42467 -1.32377 2.22348 2.20419 1.62947 -1.20872 -0.0577501 1.36353 -2.23995 -1.60524 -2.25587 1.72502 0.627982 -0.616846 0.651756 -0.988876 -1.08431 2.04764 -0.91038 1.96159 1.14451 2.28306 -1.22784
376.527 1.9877 1.40297 -0.479321 -0.401702 -0.331563 2.03642 0.00032503 2.37967 1.5409 -0.740744 0.796936 -1.80587 -0.235476 -2.23176 -2.33632 -1.93396 2.19561 -1.86594 0.192839 -1.62252 -1.09906 0.938832 1.17415 -1.09703 -1.87283 -1.70696 0.998919 0.0219963 0.394127 -0.222616 -1.21111 -0.118168 -1.31964 0.809571 1.98013 0.848795 0.34599 -0.519546
376.498 -2.25419 -0.254474 2.43234 1.03955 -1.44559 -0.13053 1.82591 -2.0304 -2.0022 -0.58552 -0.991184 0.7856 1.54548 -1.84149 -2.24246 -2.23289 -0.211422 1.40434 0.960382 -0.287199 -1.90444 0.448184 0.393174 0.149496 0.475226 -0.690416 -0.978573 1.94362 -0.117077 1.34931 0.548646 0.128736 0.594627 0.480981 -1.33172 1.64904 -2.14955 -2.00581
376.449 0.316634 -1.48884 1.51613 0.862801 -2.14339 2.31276 -0.124181 -0.577455 -0.708823 2.15427 2.08425 -1.98378 2.00448 1.87802 -1.54114 2.10702 2.14339 -2.05173 1.60463 2.34197 0.0439944 -2.47637 -1.55876 -1.06405 0.637589 -1.19057 1.24339 -2.31752 1.10911 -0.747474 1.86014 -1.07425 0.263688 0.876276 2.28855 0.620298 0.689031 -0.335634
375.964 -0.278104 0.779064 -0.87397 1.21539 1.35203 2.10047 1.13287 2.33784 -0.0235173 -1.08583 -0.998627 -1.98658 -1.05522 -0.748963 0.130306 1.55396 2.02548 0.0756003 -1.73793 -1.48606 0.67172 0.0651182 -1.86711 0.285012 -2.43849 1.50354 -1.85131 -1.60431 0.420606 -0.266892 -2.18967 -2.3575 -1.98783 -0.563637 1.35789 1.86421 -0.963168 -0.00923699
375.927 0.766525 -0.933852 1.92507 -1.56868 -1.7143 0.0173049 1.64479 0.87827 2.02085 -1.54444 -0.527394 1.03033 1.84462 0.236985 1.1948 2.16242 -1.33441 2.13288 0.257215 2.1671 -0.0279656 0.262842 2.19565 1.49823 1.57069 0.472486 0.786005 2.4765 2.17926 -0.877293 1.87155 0.445783 0.688855 1.29662 1.37711 1.47455 -1.18608 0.521894
375.848 -0.278104 0.779064 -0.87397 1.21539 1.35203 2.10047 1.13287 2.33784 -0.0235173 -1.08583 -0.998627 -1.98658 -1.05522 -0.748963 0.130306 1.55396 0.282119 0.0756003 -1.73793 -1.48606 0.67172 0.0651182 -1.86711 0.285012 -2.43849 1.50354 -1.85131 -1.60431 0.420606 -0.266892 -2.18967 -2.3575 -1.98783 -0.563637 1.35789 1.86421 -0.963168 -0.00923699
375.073 1.39231 2.18175 -1.78941 -1.02699 0.305037 0.722599 1.86707 -1.33576 0.86998 0.646797 1.66277 1.56498 1.3665 -2.35774 0.452036 0.587911 -0.830714 1.37216 -1.07855 -2.11623 1.90004 -1.63639 -1.60507 -0.701071 -0.284787 -0.606448 0.737611 -1.99657 -0.871443 1.8472 0.538002 -1.97913 1.52894 1.24859 -0.506123 -0.666018 -0.528806 -1.13905
375.06 -0.278104 0.779064 -0.87397 1.21539 1.35203 2.10047 1.13287 2.33784 -0.0235173 -1.08583 -0.998627 -1.98658 -1.05522 -0.748963 0.130306 1.55396 2.02548 0.0756003 -1.73793 -1.48606 0.67172 0.0651182 -1.86711 0.285012 -2.43849 1.50354 -1.85131 -1.60431 0.420606 -0.266892 -2.18967 -2.3575 0.873924 -0.563637 1.35789 1.86421 -0.963168 -0.00923699
374.983 1.23037 -1.37918 -1.63942 0.143527 1.15969 -1.55624 -1.46976 2.32941 -1.30888 -0.249417 1.57397 1.97562 0.727265 -1.95607 2.1024 -1.29531 -1.63314 -0.453937 -1.32644 -1.26285 0.0981983 -1.53633 0.00353276 0.888275 -2.06974 -1.59557 -0.367884 -2.26467 -0.965488 1.63853 1.93982 -2.23512 -2.24066 1.88549 0.408411 1.41904 -2.17075 1.43865
374.973 -0.170826 1.64273 1.96162 1.05953 -0.473663 -1.53254 1.68993 -1.72645 0.868241 -0.880742 -0.764018 0.162571 -0.213802 0.701839 1.08546 -0.199663 0.205698 -2.47078 -1.15658 -1.54185 0.966851 -0.279513 -1.3182 0.765433 -1.40423 -0.75338 0.0717585 -0.367942 -0.7824 -2.24767 -2.0284 1.54677 1.89506 2.43322 0.106304 -1.0786 -1.59932 -0.703767
374.959 -0.278104 0.779064 -0.87397 1.21539 1.35203 2.10047 1.13287 2.33784 -0.0235173 -1.08583 -0.998627 -1.98658 -1.05522 -0.748963 0.130306 1.55396 2.02548 0.0756003 -1.73793 -1.48606 0.67172 0.0651182 -1.86711 0.285012 -2.43849 1.50354 -1.85131 -1.60431 0.420606 -0.266892 -2.18967 -2.3575 0.873924 -0.563637 1.35789 1.86421 -0.963168 -0.00923699
374.887 -2.25419 -0.254474 2.43234 1.03955 -1.44559 -0.13053 1.82591 -2.0304 -2.0022 -0.58552 -0.991184 0.7856 1.54548 -1.84149 -2.24246 -2.23289 -0.211422 1.40434 0.960382 -0.287199 -0.366455 0.448184 0.393174 0.149496 0.475226 -0.690416 -0.978573 1.94362 -0.117077 -1.6509 0.548646 0.128736 0.594627 0.480981 -1.33172 1.64904 -2.14955 -2.00581
374.853 -1.26416 -0.699179 2.08697 0.639399 -0.664408 0.577455 0.0869536 -0.606004 0.00917667 0.970455 -2.41001 0.750328 0.597349 0.96846 0.100591 1.97677 -1.29293 0.876601 1.11988 -0.178036 1.44116 -1.61672 -0.874115 -0.829921 0.689531 -1.58999 -1.28236 -2.37712 -1.80943 -0.411683 -1.43866 -0.573592 1.38914 -1.85168 -2.43419 -1.77527 1.22577 0.152761
373.959 -1.78556 -0.853457 2.49621 1.28071 -2.24157 2.46176 -1.35008 0.393512 -0.0308434 -0.804646 1.01336 0.200983 0.614939 1.26468 0.305302 -1.98779 -1.78388 -1.90208 1.13072 1.23318 -0.14663 -1.44198 2.31546 -1.17724 -1.17091 1.12885 0.453247 -0.9322 0.238065 2.23406 1.46877 0.952509 -1.1194 1.46497 -0.266777 -0.860975 1.42673 0.883142
373.944 2.17648 -0.365482 0.453765 -2.16152 -0.270818 0.762568 1.89942 0.600292 1.61441 -1.75882 1.41315 0.0388738 -1.50191 0.886709 -1.33028 -2.25263 -1.27965 1.74456 0.784499 -1.52332 -1.03005 -2.37323 0.477421 -2.17706 -0.0563345 2.46887 -2.12971 -1.94786 2.29011 -1.23362 -1.70992 0.300116 0.900898 1.24384 2.30507 -1.86992 -0.49359 1.70449
372.09 2.25443 -0.881226 0.382397 -2.2831 1.43598 0.0886112 2.12052 -0.363524 1.42071 -1.80578 1.0265 -1.33717 0.485568 -2.4606 1.59551 -0.134773 0.113644 1.4546 -1.86597 -1.66379 1.3795 2.12756 0.284539 -1.04284 -1.26019 -1.53218 -2.34197 -1.93922 1.13638 0.579472 -1.44107 0.890805 2.19825 1.44133 1.1077 1.13423 -0.970063 0.72822
371.441 -1.86129 -1.99438 0.424989 -2.19771 -2.08712 -1.78855 1.34537 2.44771 -1.21756 1.34561 -1.77766 0.321259 1.50387 -0.442244 0.496453 -0.258389 1.9521 -0.937547 -2.3224 -1.71223 1.23615 -0.752188 1.15338 1.63807 1.58874 -0.530359 0.962438 -1.77313 -0.600628 2.19482 -0.798397 0.0380856 -2.29956 2.12659 0.34038 -1.88668 -2.16196 -0.814248
371.419 0.728465 -0.613114 1.23971 -0.974599 0.0810145 -1.49577 -0.706363 0.24469 -0.929728 -1.01076 0.878752 1.76311 -0.133277 2.27969 0.201943 -1.45912 -1.31734 0.829109 -0.666086 2.18157 -1.64889 2.22804 -0.541042 -0.360003 -0.390127 0.639315 -2.05043 -0.909998 -1.01189 0.795558 1.07046 2.21657 -2.31756 -0.189833 -1.25802 0.263459 -2.23224 0.535612
371.151 -0.147179 -1.66523 1.47745 1.82543 1.86511 0.822072 -0.437587 0.559904 0.484495 0.728007 0.192783 -1.75829 0.395108 -2.33518 1.00455 0.0907533 1.66305 0.0752454 -1.93676 -0.05095 0.0517451 -2.2575 1.57176 -0.576708 0.688282 -0.239388 -1.78009 -0.434611 -1.26484 -0.466167 -2.41272 1.08798 0.368606 1.56474 0.413411 -0.266287 -0.113193 2.47582
371.145 1.1845 -2.48895 1.32462 0.185151 -0.534514 -0.0943793 -2.07805 -1.83226 2.14 -0.203176 0.958727 1.34402 0.134135 -0.52342 2.44741 0.166263 -0.303963 1.08889 0.398826 -0.457915 -2.42925 1.24471 -0.273827 0.738362 -2.34838 1.53074 -0.562668 0.341897 -2.22295 -2.32847 1.3733 1.46156 -2.31742 0.19792 -0.853292 -0.351933 -2.39646 -0.431341
370.8 0.34377 0.23111 0.161092 2.46764 -2.20418 -2.34967 -0.337742 -0.894767 2.36573 0.0952391 0.566271 1.11188 2.46555 -0.130795 0.135087 0.00739882 -1.95457 -1.88015 -2.26817 -1.08041 -2.24868 -2.39568 -0.102725 -0.548555 0.292619 0.618507 0.517056 -0.74455 -0.0726997 -1.41772 1.46939 -2.22893 1.31339 -0.869516 -2.26129 1.60921 -0.71919 -0.0990332
370.374 -2.13382 0.0719109 1.94906 0.557055 0.155164 1.60665 2.29478 1.18373 -0.780203 -0.700289 -2.28042 -2.38068 -2.47462 -0.0637292 -1.03557 1.04131 1.60073 0.0370478 -0.162646 -2.10871 -1.54508 -0.0817582 2.1169 -2.28303 -2.07795 -1.27571 1.05677 0.556206 -2.03571 2.30783 1.83735 -1.66953 -0.120263 1.28641 1.38752 -2.4651 0.393063 1.18231
366.752 -1.26416 -0.699179 2.08697 0.639399 -0.664408 0.577455 0.0869536 -0.606004 0.00917667 0.970455 -2.41001 0.750328 0.597349 0.96846 0.100591 1.97677 -1.29293 0.876601 1.11988 -0.178036 1.44116 -1.61672 -0.874115 -0.829921 0.689531 -1.58999 -1.28236 -2.37712 -1.80943 -0.411683 -1.43866 -0.573592 1.38914 -1.85168 -2.43419 -1.77527 1.22577 0.152761
366.053 2.03254 -1.10411 -2.4215 0.545897 1.59687 0.693435 -0.689427 -0.597828 -0.660396 0.026694 9.29914e-05 -0.163629 -1.24013 2.35346 0.894392 -1.42467 -1.32377 2.22348 2.20419 1.62947 -1.20872 -0.0577501 1.69073 -2.23995 -1.60524 -2.25587 1.72502 0.627982 -0.616846 0.651756 -0.988876 -1.08431 2.04764 -0.91038 1.96159 1.14451 2.28306 -1.22784
365.869 1.23037 -1.37918 2.44567 0.143527 1.15969 -1.55624 -1.46976 2.32941 -1.30888 -0.249417 1.57397 1.97562 0.727265 -1.95607 2.1024 -1.29531 -1.63314 -0.453937 -1.32644 -1.26285 0.0981983 -1.53633 0.00353276 0.888275 -2.06974 -1.59557 -0.367884 -2.26467 -0.965488 1.63853 1.93982 -2.23512 -2.24066 1.88549 0.408411 1.41904 -2.17075 1.43865
365.441 -1.78556 -0.853457 2.49621 1.28071 -2.24157 2.46176 -1.35008 0.393512 -0.0308434 -0.804646 1.01336 0.200983 0.614939 1.26468 0.305302 -1.98779 -1.78388 -1.90208 1.13072 1.23318 -0.14663 -1.44198 2.31546 -1.17724 -1.17091 1.12885 0.453247 -0.9322 0.238065 2.23406 1.46877 0.952509 -1.1194 1.46497 -0.266777 -0.860975 1.42673 0.883142
364.607 2.03254 -1.10411 -2.4215 0.545897 1.59687 0.693435 -0.689427 -0.597828 1.19892 0.026694 9.29914e-05 -0.163629 -1.24013 2.35346 0.894392 -1.42467 -1.32377 2.22348 2.20419 1.62947 -1.20872 -0.0577501 1.36353 -2.23995 -1.60524 -2.25587 1.72502 0.627982 -0.616846 0.651756 -0.988876 -1.08431 2.04764 -0.91038 1.96159 1.14451 2.28306 -1.22784
364.596 2.17648 -0.365482 0.453765 -2.16152 -0.270818 0.762568 1.89942 0.600292 1.61441 -1.75882 1.41315 0.0388738 -1.50191 0.886709 -1.33028 -2.25263 -1.27965 1.74456 0.784499 -1.52332 -1.03005 -2.37323 0.477421 -2.17706 -0.0563345 2.46887 -2.12971 -1.94786 2.29011 -1.23362 -1.70992 0.300116 0.900898 1.24384 2.30507 -1.86992 -0.49359 1.70449
364.575 2.17648 -0.365482 0.453765 -2.16152 -0.270818 0.762568 1.89942 0.600292 1.61441 -1.75882 1.41315 0.0388738 -1.50191 0.886709 -1.33028 -2.25263 -1.27965 1.74456 0.784499 -1.52332 -1.03005 -2.37323 0.477421 -2.17706 -0.0563345 2.46887 -2.12971 -1.94786 2.29011 -1.23362 -1.70992 0.300116 0.900898 1.24384 2.30507 -1.86992 -0.49359 1.70449
364.202 1.70205 1.51332 1.40494 -1.79658 2.02673 -2.15028 -0.0455425 -0.342963 1.90367 -0.52006 2.23264 -2.33426 0.493876 0.404358 0.230859 1.12677 -1.81063 0.292365 0.13031 -1.16194 1.18806 -1.94908 1.07116 1.49839 -1.80658 1.58334 -1.56525 2.05131 0.947543 -0.0284143 -0.457929 0.14959 -1.0151 -1.55299 0.85301 -1.48837 -1.20327 -1.69253
364.173 0.728465 -0.613114 1.23971 -0.974599 0.0810145 -1.49577 -0.706363 0.24469 -0.929728 -1.01076 0.878752 1.76311 -0.133277 2.27969 0.201943 -1.45912 -1.31734 0.829109 -0.666086 2.18157 -1.64889 2.22804 -0.541042 -0.360003 -0.390127 0.639315 -2.05043 -0.909998 -1.01189 0.795558 1.07046 2.21657 -2.31756 -0.189833 -1.25802 0.263459 -2.23224 0.535612
364.172 2.17648 -0.365482 0.453765 -2.16152 -0.270818 0.762568 1.89942 0.600292 1.61441 -1.75882 1.41315 0.0388738 -1.50191 0.886709 -1.33028 -2.25263 -1.27965 1.74456 0.784499 -1.52332 -1.03005 -2.37323 0.477421 -2.17706 -0.0563345 2.46887 -2.12971 -1.94786 2.29011 -1.23362 -1.70992 0.300116 0.900898 1.24384 2.30507 -1.86992 -0.49359 1.70449
364.152 -2.02539 2.49071 -1.30563 -1.70842 0.588094 -1.65126 -0.370529 2.35524 -1.26157 0.215824 -1.838 -2.40534 -2.1912 1.56094 -1.62889 -1.64816 -1.15824 -1.68714 0.924465 -2.24309 1.97355 1.13085 1.74928 0.333639 0.574842 0.537133 2.25633 -0.274607 -0.657724 -0.499261 1.35298 -0.183109 -0.508552 -2.45265 0.60847 2.32124 -1.60391 -2.26206
364.15 0.684526 -1.47095 1.79844 1.79565 2.2939 2.36029 1.43866 0.323151 0.207411 0.358773 0.764155 -1.84 2.08859 -0.334431 -0.0955943 0.941997 -1.11828 -2.27602 0.640955 1.76196 0.291434 1.94577 -0.511264 1.3569 -1.79397 -0.351244 -1.25366 1.05403 0.316314 0.296244 -0.0439312 -1.49916 1.32529 -0.745494 -2.20351 1.11919 -0.885202 1.73515
363.765 0.766525 -0.933852 1.92507 -1.56868 -1.7143 0.0173049 1.64479 0.87827 2.02085 -1.54444 -1.15576 1.03033 1.84462 0.236985 1.1948 2.16242 -1.33441 2.13288 0.257215 2.1671 -0.0279656 0.262842 2.19565 1.49823 1.57069 0.472486 0.786005 2.4765 2.17926 -0.877293 1.87155 0.445783 0.688855 1.29662 1.37711 1.47455 -1.18608 0.521894
363.757 -1.96076 0.736037 -0.682009 -1.05865 -0.843071 -2.04426 -0.363361 2.17247 0.417851 -1.17269 0.793733 1.30889 -0.0628657 -1.71364 1.91518 0.628327 0.0885736 -1.46078 0.287803 -0.369003 1.6497 -0.528058 -1.27837 -0.869933 1.1468 0.693271 2.42422 -0.808785 1.9878 -1.81963 -0.44606 -2.47296 1.41641 1.37193 -1.03161 -1.92666 1.82767 1.10503
363.412 -2.25419 -0.254474 2.43234 1.03955 -1.44559 -0.13053 1.82591 -2.0304 -2.0022 -0.58552 -0.991184 0.7856 1.54548 -1.84149 -2.24246 -2.23289 -0.211422 1.40434 0.960382 -0.287199 -0.366455 0.448184 0.393174 0.149496 0.475226 -0.690416 -0.978573 1.94362 -0.117077 -1.6509 0.548646 0.128736 0.594627 0.480981 -1.33172 1.64904 -2.14955 -2.00581
363.361 -1.80666 1.25169 0.750383 0.837797 -1.95358 1.22075 1.08046 0.804829 -0.805357 -0.288611 -1.00651 -1.92703 0.474439 -1.73768 -1.51419 0.376014 0.2813 -0.836469 0.536933 -2.46939 -2.25034 -0.38311 0.109172 0.274445 2.44529 -0.791888 -1.01155 -1.90388 -0.696949 2.11896 2.11329 -0.00361189 0.870644 0.363675 -1.66581 1.41707 -0.915579 1.91464
363.343 1.70205 1.51332 1.40494 -1.79658 2.02673 -2.15028 -0.0455425 -0.342963 1.90367 -0.52006 2.23264 -0.795567 0.493876 0.404358 0.230859 1.12677 -1.81063 0.292365 0.13031 -1.16194 1.18806 -1.94908 1.07116 1.49839 -1.80658 1.58334 -1.56525 2.05131 0.947543 -0.0284143 -0.457929 0.14959 -1.0151 -1.55299 0.85301 -1.48837 -1.20327 -1.69253
362.855 -0.278104 0.779064 -0.87397 1.21539 1.35203 2.10047 1.13287 2.33784 -0.0235173 -1.08583 -0.998627 -1.98658 -1.05522 -0.748963 0.130306 1.55396 2.02548 0.0756003 -1.73793 -1.48606 0.67172 0.0651182 -1.86711 0.285012 -2.43849 1.50354 -1.85131 -1.60431 0.420606 -0.266892 -2.18967 -2.3575 -1.98783 -0.563637 1.35789 1.86421 -0.963168 -0.00923699
362.841 2.03254 -1.10411 -2.4215 0.545897 1.59687 0.693435 -0.689427 -0.597828 1.20565 0.026694 9.29914e-05 -0.163629 -1.24013 2.35346 0.894392 -1.42467 -1.32377 2.22348 2.20419 1.62947 -1.20872 -0.0577501 1.36353 -2.23995 -1.60524 -2.25587 1.72502 0.627982 -0.616846 0.651756 -0.988876 -1.08431 2.04764 -0.91038 1.96159 1.14451 2.28306 -1.22784
362.594 -0.278104 0.779064 -0.87397 1.21539 1.35203 2.10047 1.13287 2.33784 -0.0235173 -1.08583 -0.998627 -1.98658 -1.05522 -0.748963 0.130306 1.55396 2.02548 0.0756003 -1.73793 -1.48606 0.67172 0.0651182 -1.86711 0.285012 -2.43849 1.50354 -1.85131 -1.60431 0.420606 -0.266892 -2.18967 -2.3575 0.873924 -0.563637 1.35789 1.86421 -0.963168 -0.00923699
361.104 1.39231 2.18175 -1.78941 -1.02699 0.305037 0.722599 1.86707 -1.33576 0.86998 0.646797 1.66277 1.56498 1.3665 -2.35774 0.452036 0.587911 -0.830714 1.37216 -1.07855 -2.11623 -0.591661 -1.63639 -1.60507 -0.701071 -0.284787 -0.606448 0.737611 -1.99657 -0.871443 1.8472 0.538002 -1.97913 1.52894 1.24859 -0.506123 -0.666018 -0.528806 -1.13905
361.099 0.684526 -1.47095 1.79844 1.79565 2.2939 2.36029 1.43866 0.323151 0.207411 0.358773 0.764155 -1.84 2.08859 -0.334431 -0.0955943 0.941997 -1.11828 -2.27602 0.640955 1.76196 0.291434 1.94577 -0.511264 1.3569 -1.79397 -0.351244 -1.25366 1.05403 0.316314 0.296244 -0.0439312 -1.49916 1.32529 -0.745494 -2.20351 1.11919 -0.885202 1.73515
361.067 -1.86129 -1.99438 0.424989 -2.19771 -2.08712 -1.78855 1.34537 2.44771 -1.21756 1.34561 -1.77766 0.321259 1.50387 -0.442244 0.496453 -0.258389 1.9521 -0.937547 -2.3224 -1.71223 1.23615 -0.752188 1.15338 1.63807 1.58874 -0.530359 0.962438 -1.77313 -0.600628 2.19482 -0.798397 0.0380856 -2.29956 2.12659 0.34038 -1.88668 -2.16196 -0.814248
361.049 1.9877 1.40297 -0.479321 -0.401702 -0.331563 2.03642 0.00032503 2.37967 1.5409 -0.740744 0.796936 -1.80587 -0.235476 -2.23176 -2.33632 -1.93396 2.19561 -1.86594 0.192839 -1.62252 -1.09906 0.938832 -2.12403 -1.09703 -1.87283 -1.70696 0.998919 0.0219963 0.394127 -0.222616 -1.21111 -0.118168 -1.31964 0.809571 1.98013 0.848795 0.34599 -0.519546
Iteration 3. Optimum: 381.829 Params: -2.02539 2.49071 -1.30563 -1.70842 0.329794 -1.65126 -0.370529 2.35524 -1.26157 0.215824 -1.838 -2.40534 -2.1912 1.56094 -1.62889 -1.64816 -1.15824 -1.68714 0.924465 -2.24309 1.97355 1.13085 1.74928 0.333639 0.574842 0.537133 2.25633 -0.274607 -0.657724 -0.499261 1.35298 -0.183109 -0.508552 -2.45265 0.60847 2.32124 -1.60391 -2.26206
381.829 -2.02539 2.49071 -1.30563 -1.70842 0.329794 -1.65126 -0.370529 2.35524 -1.26157 0.215824 -1.838 -2.40534 -2.1912 1.56094 -1.62889 -1.64816 -1.15824 -1.68714 0.924465 -2.24309 1.97355 1.13085 1.74928 0.333639 0.574842 0.537133 2.25633 -0.274607 -0.657724 -0.499261 1.35298 -0.183109 -0.508552 -2.45265 0.60847 2.32124 -1.60391 -2.26206
381.787 -2.02539 2.49071 -1.30563 -1.70842 0.329794 -1.65126 -0.370529 2.35524 -1.26157 0.215824 -1.838 -2.40534 -2.1912 1.56094 -1.62889 -1.64816 -1.15824 -1.68714 0.924465 -2.24309 1.97355 1.13085 1.74928 0.333639 0.574842 0.537133 2.25633 -0.274607 -0.657724 -0.499261 1.35298 -0.183109 -0.508552 -2.45265 0.60847 2.32124 -1.60391 -2.26206
381.759 -2.02539 2.49071 -1.30563 -1.70842 0.329794 -1.65126 -0.370529 2.35524 -1.26157 0.215824 -1.838 -2.40534 -2.1912 1.56094 -1.62889 -1.64816 -1.15824 -1.68714 0.924465 -2.24309 1.97355 1.13085 1.74928 0.333639 0.574842 0.537133 2.25633 -0.274607 -0.657724 -0.499261 1.35298 -0.183109 -0.508552 -2.45265 0.60847 2.32124 -1.60391 -2.26206
381.711 -2.02539 2.49071 -1.30563 -1.70842 0.588094 -1.65126 -0.370529 2.35524 -1.26157 0.215824 -1.838 -2.40534 -2.1912 1.56094 -1.62889 -1.64816 -1.15824 -1.68714 0.924465 -2.24309 1.97355 1.13085 1.74928 0.333639 0.574842 0.537133 2.25633 -0.274607 -0.657724 -0.499261 1.35298 -0.183109 -0.508552 -2.45265 0.60847 2.32124 -1.60391 -2.26206
381.681 -2.0326 -1.82549 0.10105 -2.10884 -2.15047 -1.47672 -0.192898 1.59839 0.366593 1.2779 -2.24031 -1.71096 2.49997 -1.47836 1.94978 -1.87266 2.48899 -2.22971 1.8527 -2.13836 -2.47919 2.11535 0.469461 -1.59814 -1.68434 -0.541549 2.06513 1.59848 -0.704523 0.262425 0.39715 -0.237121 0.936937 -2.0018 0.15404 1.28647 -0.978524 2.46114
381.643 -2.0326 -1.82549 0.10105 -2.10884 -2.15047 -1.47672 -0.192898 1.59839 0.366593 1.2779 -2.24031 -1.71096 2.49997 -1.47836 1.94978 -1.87266 2.48899 -2.22971 1.8527 -2.13836 -2.47919 2.11535 0.469461 -1.59814 -1.68434 -0.541549 2.06513 1.59848 -0.704523 0.262425 0.39715 -0.237121 0.936937 -2.0018 0.15404 1.28647 -0.978524 2.46114
381.597 -1.19778 0.748295 0.261582 2.09795 -0.664099 1.54893 0.989241 -0.940248 0.729445 -2.46998 0.164799 1.71955 0.592234 0.713463 0.0925744 -0.496455 -0.689228 1.09434 1.50948 0.889062 -1.73562 -2.33554 -2.1822 0.928609 -1.56192 0.594792 1.00151 0.339155 -2.49437 -2.47145 -0.973806 -1.19215 0.776841 1.78778 -1.59419 -0.793228 0.836703 -1.67819
381.576 -1.19778 0.748295 0.261582 2.09795 -0.664099 1.54893 0.989241 -0.940248 0.729445 -2.46998 0.164799 1.71955 0.592234 0.713463 0.0925744 -0.496455 -0.689228 1.09434 1.50948 0.889062 -1.73562 -2.33554 -2.1822 0.928609 -1.56192 0.594792 1.00151 0.339155 -2.49437 -2.47145 -0.973806 -1.19215 0.776841 1.78778 -1.59419 -0.793228 0.836703 -1.67819
381.563 0.728465 -0.613114 1.23971 -0.974599 0.0810145 -1.49577 -0.706363 0.24469 -0.929728 -1.01076 0.878752 1.76311 -0.133277 2.27969 0.201943 -1.45912 -1.31734 0.829109 -0.666086 2.18157 -1.64889 2.22804 -0.541042 -0.360003 -0.390127 0.639315 -2.05043 -0.909998 -1.01189 0.795558 1.07046 2.21657 -2.31756 -0.189833 -1.25802 0.263459 -2.23224 0.535612
381.267 -1.78556 -0.853457 2.49621 1.28071 -2.24157 2.46176 -1.35008 0.393512 -0.0308434 -0.804646 1.01336 0.200983 0.614939 1.26468 0.305302 -1.98779 -1.78388 -1.90208 1.13072 1.23318 -0.14663 -1.44198 2.31546 -1.17724 -1.17091 1.12885 0.453247 -0.9322 0.238065 2.23406 1.46877 0.952509 -1.1194 1.46497 -0.266777 -0.860975 1.42673 0.883142
381.147 -2.25419 -0.254474 2.43234 1.03955 -1.44559 -0.13053 1.82591 -2.0304 -2.0022 -0.58552 -0.991184 0.7856 1.54548 -1.84149 -2.24246 -2.23289 -0.211422 1.40434 0.960382 -0.287199 -0.366455 0.448184 0.393174 0.149496 0.475226 -0.690416 -0.978573 1.94362 -0.117077 -1.6509 0.548646 0.128736 0.594627 0.480981 -1.33172 1.64904 -2.14955 -2.00581
377.829 -2.02539 2.49071 -1.30563 -1.70842 0.588094 -1.65126 -0.370529 2.35524 -1.26157 0.215824 -1.838 -2.40534 -2.1912 1.56094 -1.62889 -1.64816 -1.15824 -1.68714 0.924465 -2.24309 1.97355 1.13085 1.74928 0.333639 0.574842 0.537133 2.25633 -0.274607 -0.657724 -0.499261 1.35298 -0.183109 -0.508552 -2.45265 0.60847 2.32124 -1.60391 -2.26206
377.789 -2.02539 2.49071 -1.30563 -1.70842 0.329794 -1.65126 -0.370529 2.35524 -1.26157 0.215824 -1.838 -2.40534 -2.1912 1.56094 -1.62889 -1.64816 -1.15824 -1.68714 0.924465 -2.24309 1.97355 1.13085 1.74928 0.333639 0.574842 0.537133 2.25633 -0.274607 -0.657724 -0.499261 1.35298 -2.26413 -0.508552 -2.45265 0.60847 2.32124 -1.60391 -2.26206
376.982 0.766525 -0.933852 1.92507 -1.56868 -1.7143 0.0173049 1.64479 0.87827 2.02085 -1.54444 -0.527394 1.03033 1.84462 0.236985 1.1948 2.16242 -1.33441 2.13288 0.257215 2.1671 -0.0279656 0.262842 2.19565 1.49823 1.57069 0.472486 0.786005 2.4765 2.17926 -0.877293 1.87155 0.445783 0.688855 1.29662 1.37711 1.47455 -1.18608 0.521894
376.967 1.39231 2.18175 -1.78941 -1.02699 0.305037 0.722599 1.86707 -1.33576 0.86998 0.646797 1.66277 1.56498 1.3665 -2.35774 0.452036 0.587911 -0.830714 1.37216 -1.07855 -2.11623 1.90004 -1.63639 -1.60507 -0.701071 -0.284787 -0.606448 0.737611 -1.99657 -0.871443 1.8472 0.538002 -1.97913 1.52894 1.24859 -0.506123 -0.666018 -0.528806 -1.13905
376.932 0.316634 -1.48884 1.51613 0.862801 -2.14339 2.31276 -0.124181 -0.577455 -0.708823 2.15427 2.08425 -1.98378 2.00448 1.87802 -1.54114 2.10702 2.14339 -2.05173 1.60463 2.34197 0.0439944 -2.47637 -1.55876 -1.06405 0.637589 -1.19057 1.24339 -2.31752 1.10911 -0.747474 1.86014 -1.07425 0.263688 0.876276 2.28855 0.620298 0.689031 -0.335634
376.912 -1.96076 0.736037 -0.682009 -1.05865 -0.843071 -2.04426 -0.363361 2.17247 0.417851 -1.17269 0.793733 1.30889 -0.0628657 -1.71364 1.91518 0.628327 0.0885736 -1.46078 0.287803 -0.369003 1.6497 -0.528058 -1.27837 -0.869933 1.1468 0.693271 2.42422 -0.808785 1.9878 -1.81963 -0.44606 -2.47296 1.41641 1.37193 -1.03161 -1.92666 1.82767 1.10503
376.907 0.316634 -1.48884 1.51613 0.862801 -2.14339 2.31276 -0.124181 -0.577455 -0.708823 2.15427 2.08425 -1.98378 2.00448 1.87802 -1.54114 2.10702 2.14339 -2.05173 1.60463 2.34197 0.0439944 -2.47637 -1.55876 -1.06405 0.637589 -1.19057 1.24339 -2.31752 1.10911 -0.747474 1.86014 -1.07425 0.263688 0.876276 2.28855 0.620298 0.689031 -0.335634
376.63 -0.278104 0.779064 -0.87397 1.21539 1.35203 2.10047 1.13287 2.33784 -0.0235173 -1.08583 -0.998627 -1.98658 -1.05522 -0.748963 0.130306 1.55396 2.02548 0.0756003 -1.73793 -1.48606 0.67172 0.0651182 -1.86711 0.285012 -2.43849 1.50354 -1.85131 -1.60431 0.420606 -0.266892 -2.18967 -2.3575 0.873924 -0.563637 1.35789 1.86421 -0.963168 -0.00923699
376.517 1.9877 1.40297 -0.479321 -0.401702 -0.331563 2.03642 0.00032503 2.37967 1.5409 -0.740744 0.796936 -1.80587 -0.235476 -2.23176 -2.33632 -1.93396 2.19561 -1.86594 0.192839 -1.62252 -1.09906 0.938832 1.17415 -1.09703 -1.87283 -1.70696 0.998919 0.0219963 0.394127 -0.222616 -1.21111 -0.118168 -1.31964 0.809571 1.98013 0.848795 0.34599 -0.519546
376.442 0.728465 -0.613114 1.23971 -0.974599 0.0810145 -1.49577 -0.706363 0.24469 -0.929728 -1.01076 0.878752 1.76311 -0.133277 2.27969 0.201943 -1.45912 -1.31734 0.829109 -0.666086 2.18157 -1.64889 2.22804 -0.541042 -0.360003 -0.390127 0.639315 -2.05043 -0.909998 -1.01189 0.795558 1.07046 2.21657 -2.31756 -0.189833 -1.25802 0.263459 -2.23224 0.535612
376.419 0.316634 -1.48884 1.51613 0.862801 -2.14339 2.31276 -0.124181 -0.577455 -0.708823 2.15427 2.08425 -1.98378 2.00448 1.87802 -1.54114 2.10702 2.14339 -2.05173 1.60463 2.34197 0.0439944 -2.47637 -1.55876 -1.06405 0.637589 -1.19057 1.24339 -2.31752 1.10911 -0.747474 1.86014 -1.07425 0.263688 0.876276 2.28855 0.620298 0.689031 -0.335634
375.85 0.766525 -0.933852 1.92507 -1.56868 -1.7143 0.0173049 1.64479 0.87827 2.02085 -1.54444 -0.527394 1.03033 1.84462 0.236985 1.1948 2.16242 -1.33441 2.13288 0.257215 2.1671 -0.0279656 0.262842 2.19565 1.49823 1.57069 0.472486 0.786005 2.4765 2.17926 -0.877293 1.87155 0.445783 0.688855 1.29662 1.37711 1.47455 -1.18608 0.521894
375.056 1.23037 -1.37918 -1.63942 0.143527 1.15969 -1.55624 -1.46976 2.32941 -1.30888 -0.249417 1.57397 1.97562 0.727265 -1.95607 2.1024 -1.29531 -1.63314 -0.453937 -1.32644 -1.26285 -2.39562 -1.53633 0.00353276 0.888275 -2.06974 -1.59557 -0.367884 -2.26467 -0.965488 1.63853 1.93982 -2.23512 -2.24066 1.88549 0.408411 1.41904 -2.17075 1.43865
375.031 -2.02539 2.49071 -1.30563 -1.70842 0.329794 -1.65126 -0.370529 2.35524 -1.26157 0.215824 -1.838 -2.40534 -2.1912 1.56094 -1.62889 -1.64816 -1.15824 -1.68714 0.924465 -2.24309 1.97355 1.13085 1.74928 0.333639 0.574842 0.537133 2.25633 -0.274607 -0.657724 -0.499261 1.35298 -0.183109 -0.508552 -2.45265 0.60847 2.32124 -1.60391 -2.26206
374.99 1.39231 2.18175 -1.78941 -1.02699 0.305037 0.722599 1.86707 -1.33576 0.86998 0.646797 1.66277 1.56498 1.3665 -2.35774 0.452036 0.587911 -0.830714 1.37216 -1.07855 -2.11623 1.90004 -1.63639 -1.60507 -0.701071 -0.284787 -0.606448 0.737611 -1.99657 -0.871443 1.8472 0.538002 -1.97913 1.52894 1.24859 -0.506123 -0.666018 -0.528806 -1.13905
374.972 1.23037 -1.37918 -1.63942 0.143527 1.15969 -1.55624 -1.46976 2.32941 -1.30888 -0.249417 1.57397 1.97562 0.727265 -1.95607 2.1024 -1.29531 -1.63314 -0.453937 -1.32644 -1.26285 0.0981983 -1.53633 0.00353276 0.888275 -2.06974 -1.59557 -0.367884 -2.26467 -0.965488 1.63853 1.93982 -2.23512 -2.24066 1.88549 0.408411 1.41904 -2.17075 1.43865
374.969 0.728465 -0.613114 1.23971 -0.974599 0.0810145 -1.49577 -0.706363 0.24469 -0.929728 -1.01076 0.878752 1.76311 -0.133277 2.27969 0.201943 -1.45912 -1.31734 0.829109 -0.666086 2.18157 -1.64889 2.22804 -0.541042 -0.360003 -0.390127 0.639315 -2.05043 -0.909998 -1.01189 0.795558 1.07046 2.21657 -2.31756 -0.189833 -1.25802 0.263459 -2.23224 0.535612
374.864 0.684526 -1.47095 1.79844 1.79565 2.2939 2.36029 1.43866 0.323151 0.207411 0.358773 0.764155 -1.84 2.08859 -0.334431 -0.0955943 0.941997 -1.11828 -2.27602 0.640955 1.76196 0.291434 1.94577 -0.511264 1.3569 -1.79397 -0.351244 -1.25366 1.05403 0.316314 0.296244 -0.0439312 -1.49916 1.32529 -0.745494 -2.20351 1.11919 -0.885202 1.73515
373.94 -0.278104 0.779064 -0.87397 1.21539 1.35203 2.10047 1.13287 2.33784 -0.0235173 -1.08583 -0.998627 -1.98658 -1.05522 -0.748963 0.130306 1.55396 2.02548 0.0756003 -1.73793 -1.48606 0.67172 0.0651182 -1.86711 0.285012 -2.43849 1.50354 -1.85131 -1.60431 0.420606 -0.266892 -2.18967 -2.3575 0.873924 -0.563637 1.35789 1.86421 -0.963168 -0.00923699
372.038 -1.26416 -0.699179 2.08697 0.639399 -0.664408 0.577455 0.0869536 -0.606004 0.00917667 0.970455 -2.41001 0.750328 0.597349 0.96846 0.100591 1.97677 -1.29293 0.876601 1.11988 -0.178036 1.44116 -1.61672 -0.874115 -0.829921 0.689531 -1.58999 -1.28236 -2.37712 -1.80943 -0.411683 -1.43866 -0.573592 1.38914 -1.85168 -2.43419 -1.77527 1.22577 0.152761
371.417 2.03254 -1.10411 -2.4215 0.545897 1.59687 0.693435 -0.689427 -0.597828 1.20565 0.026694 9.29914e-05 -0.163629 -1.24013 2.35346 0.894392 -1.42467 -1.32377 2.22348 2.20419 1.62947 -1.20872 -0.0577501 1.36353 -2.23995 -1.60524 -2.25587 1.72502 0.627982 -0.616846 0.651756 -0.988876 -1.08431 2.04764 -0.91038 1.96159 1.14451 2.28306 -1.22784
371.393 2.17648 -0.365482 0.453765 -2.16152 -0.270818 0.762568 1.89942 0.600292 1.61441 -1.75882 1.41315 0.0388738 -1.50191 0.886709 -1.33028 -2.25263 -1.27965 1.74456 0.784499 -1.52332 -1.03005 -2.37323 0.477421 -2.17706 -0.0563345 2.46887 -2.12971 -1.94786 2.29011 -1.23362 -1.70992 0.300116 0.900898 1.24384 2.30507 -1.86992 -0.49359 1.70449
371.387 -1.78556 -0.853457 2.49621 1.28071 -2.24157 2.46176 -1.35008 0.393512 -0.0308434 -0.804646 1.01336 0.200983 0.614939 1.26468 0.305302 -1.98779 -1.78388 -1.90208 1.13072 1.23318 -0.14663 -1.44198 2.31546 -1.17724 -1.17091 1.12885 0.453247 -0.9322 0.238065 2.23406 1.46877 0.952509 -1.1194 1.46497 -0.266777 -0.860975 1.42673 0.883142
371.379 0.766525 -0.933852 1.92507 -1.56868 -1.7143 0.0173049 1.64479 0.87827 2.02085 -1.54444 -0.527394 1.03033 1.84462 0.236985 1.1948 2.16242 -1.33441 2.13288 0.257215 2.1671 -0.0279656 -2.47899 2.19565 1.49823 1.57069 0.472486 0.786005 2.4765 2.17926 -0.877293 1.87155 0.445783 0.688855 1.29662 1.37711 1.47455 -1.18608 0.521894
371.378 -1.86129 -1.99438 0.424989 -2.19771 -2.08712 -1.78855 1.34537 2.44771 -1.21756 1.34561 -1.77766 0.321259 1.50387 -0.442244 0.496453 -0.258389 1.9521 -0.937547 -2.3224 -1.71223 1.23615 -0.752188 1.15338 1.63807 1.58874 -0.530359 0.962438 -1.77313 -0.600628 2.19482 -0.798397 0.0380856 -2.29956 2.12659 0.34038 -1.88668 -2.16196 -0.814248
371.356 0.316634 -1.48884 1.51613 0.862801 -2.14339 2.31276 -0.124181 -0.577455 -0.708823 2.15427 2.08425 -1.98378 2.00448 1.87802 -1.54114 2.10702 2.14339 -2.05173 1.60463 2.34197 0.0439944 -2.47637 -1.55876 -1.06405 0.637589 -1.19057 1.24339 -2.31752 1.10911 -0.747474 1.86014 -1.07425 0.263688 0.876276 2.28855 0.620298 0.689031 -0.335634
371.18 -0.147179 -1.66523 1.47745 1.82543 1.86511 0.822072 -0.437587 0.559904 0.484495 0.728007 0.192783 -1.75829 0.395108 -2.33518 1.00455 0.0907533 1.66305 0.0752454 -1.93676 -0.05095 0.0517451 -2.2575 1.57176 -0.576708 0.688282 -0.239388 -1.78009 -0.434611 -1.26484 -0.466167 -2.41272 1.08798 0.368606 1.56474 0.413411 -0.266287 -0.113193 2.47582
371.132 0.34377 0.23111 0.161092 2.46764 -2.20418 -2.34967 -0.337742 -0.894767 2.36573 0.0952391 0.566271 1.11188 2.46555 -0.130795 0.135087 0.00739882 -1.95457 -1.88015 -2.26817 -1.08041 -2.24868 -2.39568 -0.102725 -0.548555 0.292619 0.618507 0.517056 -0.74455 -0.0726997 -1.41772 1.46939 -2.22893 1.31339 -0.869516 -2.26129 1.60921 -0.71919 -0.0990332
365.694 -2.02539 2.49071 -1.30563 -1.70842 0.588094 -1.65126 -0.370529 2.35524 -1.26157 0.215824 -1.838 -2.40534 -2.1912 1.56094 -1.62889 -1.64816 -1.15824 -1.68714 0.924465 -2.24309 1.97355 1.13085 1.74928 0.333639 0.574842 0.537133 -1.6617 -0.274607 -0.657724 -0.499261 1.35298 -0.183109 -0.508552 -2.45265 0.60847 2.32124 -1.60391 -2.26206
365.512 1.39231 2.18175 -1.78941 -1.02699 0.305037 0.722599 1.86707 -1.33576 0.86998 0.646797 1.66277 1.56498 1.3665 -2.35774 0.452036 0.587911 -0.830714 1.37216 -1.07855 -2.11623 1.90004 -1.63639 -1.60507 -0.701071 -0.284787 -0.606448 0.737611 -1.99657 -0.871443 1.8472 0.538002 -1.97913 1.52894 1.24859 -0.506123 -0.666018 -0.528806 -1.13905
365.507 -1.26416 -0.699179 2.08697 0.639399 -0.664408 0.577455 0.0869536 -0.606004 0.00917667 0.970455 -2.41001 0.750328 0.597349 0.96846 0.100591 1.97677 -1.29293 0.876601 1.11988 -0.178036 1.44116 -1.61672 -0.874115 -0.829921 0.689531 -1.58999 -1.28236 -2.37712 -1.80943 -0.411683 -1.43866 -0.573592 1.38914 -1.85168 -2.43419 -1.77527 1.22577 0.152761
365.489 -1.26416 -0.699179 2.08697 0.639399 -0.664408 0.577455 0.0869536 -0.606004 0.00917667 0.970455 -2.41001 0.750328 0.597349 0.96846 0.100591 1.97677 -1.29293 0.876601 1.11988 -0.178036 1.44116 -1.61672 -0.874115 -0.829921 0.689531 -1.58999 -1.28236 -2.37712 -1.80943 -0.411683 -1.43866 -0.573592 1.38914 -1.85168 -2.43419 -1.77527 1.22577 0.152761
365.474 1.23037 -1.37918 2.44567 0.143527 1.15969 -1.55624 -1.46976 2.32941 -1.30888 -0.249417 1.57397 1.97562 0.727265 -1.95607 2.1024 -1.29531 -1.63314 -0.453937 -1.32644 -1.26285 0.0981983 -1.53633 0.00353276 0.888275 -2.06974 -1.59557 -0.367884 -2.26467 -0.965488 1.63853 1.93982 -2.23512 -2.24066 1.88549 0.408411 1.41904 -2.17075 1.43865
365.46 0.728465 -0.613114 1.23971 -0.974599 0.0810145 -1.49577 -0.706363 0.24469 -0.929728 -1.01076 0.878752 1.76311 -0.133277 2.27969 0.201943 -1.45912 -1.31734 0.829109 -0.666086 2.18157 -1.64889 2.22804 -0.541042 -0.360003 -0.390127 0.639315 -2.05043 -0.909998 -1.01189 0.795558 1.07046 2.21657 -2.31756 -0.189833 -1.25802 0.263459 -2.23224 0.535612
365.409 2.03254 -1.10411 -2.4215 0.545897 1.59687 0.693435 -0.689427 -0.597828 1.19892 0.026694 9.29914e-05 -0.163629 -1.24013 2.35346 0.894392 -1.42467 -1.32377 2.22348 2.20419 1.62947 -1.20872 -0.0577501 1.36353 -2.23995 -1.60524 -2.25587 1.72502 0.627982 -0.616846 0.651756 -0.988876 -1.08431 2.04764 -0.91038 1.96159 1.14451 2.28306 -1.22784
364.635 0.316634 -1.48884 1.51613 0.862801 -2.14339 2.31276 -0.124181 -0.577455 -0.708823 2.15427 2.08425 -1.98378 2.00448 1.87802 -1.54114 2.10702 2.14339 -2.05173 1.60463 2.34197 0.0439944 -2.47637 -1.55876 -1.06405 0.637589 -1.19057 1.24339 -2.31752 1.10911 -0.747474 1.86014 -1.07425 0.263688 0.876276 2.28855 0.620298 0.689031 -0.335634
364.625 2.17648 -0.365482 0.453765 -2.16152 -0.270818 0.762568 1.89942 0.600292 1.61441 -1.75882 1.41315 0.0388738 -1.50191 0.886709 -1.33028 -2.25263 -1.27965 1.74456 0.784499 -1.52332 -1.03005 -2.37323 0.477421 -2.17706 -0.0563345 2.46887 -2.12971 -1.94786 2.29011 -1.23362 -1.70992 0.300116 2.29308 1.24384 2.30507 -1.86992 -0.49359 1.70449
364.598 0.728465 -0.613114 1.23971 -0.974599 0.0810145 -1.49577 -0.706363 0.24469 -0.929728 -1.01076 0.878752 1.76311 -0.133277 2.27969 0.201943 -1.45912 -1.31734 0.829109 -0.666086 2.18157 -1.64889 2.22804 -0.541042 -0.360003 -0.390127 0.639315 -2.05043 -0.909998 -1.01189 0.795558 1.07046 2.21657 -2.31756 -0.189833 -1.25802 0.263459 -2.23224 0.535612
364.59 0.684526 -1.47095 1.79844 1.79565 2.2939 2.36029 1.43866 0.323151 0.207411 0.358773 0.764155 -1.84 2.08859 -0.334431 -0.0955943 0.941997 -1.11828 -2.27602 0.640955 1.76196 0.291434 1.94577 -0.511264 1.3569 -1.79397 -0.351244 -1.25366 1.05403 0.316314 0.296244 -0.0439312 -1.49916 1.32529 -0.745494 -2.20351 1.11919 -0.885202 1.73515
364.584 -2.02539 2.49071 -1.30563 -1.70842 0.329794 -1.65126 -0.370529 2.35524 -1.26157 0.215824 -1.838 -2.40534 -2.1912 1.56094 -1.62889 -1.64816 -1.15824 -1.68714 0.924465 -2.24309 1.97355 1.13085 1.74928 0.333639 0.574842 0.537133 2.25633 -0.274607 -0.657724 -0.499261 1.35298 -0.183109 -0.508552 -2.45265 0.60847 2.32124 -1.60391 -2.26206
364.563 -2.02539 2.49071 -1.30563 -1.70842 0.588094 -1.65126 -0.370529 2.35524 -1.26157 0.215824 -1.838 -2.40534 -2.1912 1.56094 -1.62889 -1.64816 -1.15824 -1.68714 0.924465 -2.24309 1.97355 1.13085 1.74928 0.333639 0.574842 0.537133 2.25633 -0.274607 -0.657724 -0.499261 1.35298 -0.183109 -0.508552 -2.45265 0.60847 2.32124 -1.60391 -2.26206
364.199 0.728465 -0.613114 1.23971 -0.974599 0.0810145 -1.49577 -0.706363 0.24469 -0.929728 -1.01076 0.878752 1.76311 -0.133277 2.27969 0.201943 -1.45912 -1.31734 0.829109 -0.666086 2.18157 -1.64889 2.22804 -0.541042 -0.360003 -0.390127 0.639315 -2.05043 -0.909998 -1.01189 0.795558 1.07046 2.21657 -2.31756 -0.189833 -1.25802 0.263459 -2.23224 0.535612
364.176 0.766525 -0.933852 1.92507 -1.56868 -1.7143 0.0173049 1.64479 0.87827 2.02085 -1.54444 -1.15576 1.03033 1.84462 0.236985 1.1948 2.16242 -1.33441 2.13288 0.257215 2.1671 -0.0279656 0.262842 2.19565 1.49823 1.57069 0.472486 0.786005 2.4765 2.17926 -0.877293 1.87155 0.445783 0.688855 1.29662 1.37711 1.47455 -1.18608 0.521894
364.166 -2.25419 -0.254474 2.43234 1.03955 -1.44559 -0.13053 1.82591 -2.0304 -2.0022 -0.58552 -0.991184 0.7856 1.54548 -1.84149 -2.24246 -2.23289 -0.211422 1.40434 0.960382 -0.287199 -0.366455 0.448184 0.393174 0.149496 0.475226 -0.690416 -0.978573 1.94362 -0.117077 -1.6509 0.548646 0.128736 0.594627 0.480981 -1.33172 1.64904 -2.14955 -2.00581
364.151 1.23037 -1.37918 -1.63942 0.143527 1.15969 -1.55624 -1.46976 2.32941 -1.30888 -0.249417 1.57397 1.97562 0.727265 -1.95607 2.1024 -1.29531 -1.63314 -0.453937 -1.32644 -1.26285 -2.39562 -1.53633 0.00353276 0.888275 -2.06974 -1.59557 -0.367884 -2.26467 -0.965488 1.63853 1.93982 -2.23512 -2.24066 1.88549 0.408411 1.41904 -2.17075 1.43865
363.734 1.39231 2.18175 -1.78941 -1.02699 0.305037 0.722599 1.86707 -1.33576 0.86998 0.646797 1.66277 1.56498 1.3665 -2.35774 0.452036 0.587911 -0.830714 1.37216 -1.07855 -2.11623 -0.591661 -1.63639 -1.60507 -0.701071 -0.284787 -0.606448 0.737611 -1.99657 -0.871443 1.8472 0.538002 -1.97913 1.52894 1.24859 -0.506123 -0.666018 -0.528806 -1.13905
363.36 1.70205 1.51332 1.40494 -1.79658 2.02673 -2.15028 -0.0455425 -0.342963 1.90367 -0.52006 2.23264 -0.795567 0.493876 0.404358 0.230859 1.12677 -1.81063 0.292365 0.13031 -1.16194 1.18806 -1.94908 1.07116 1.49839 -1.80658 1.58334 -1.56525 2.05131 0.947543 -0.0284143 -0.457929 0.14959 -1.0151 -1.55299 0.85301 -1.48837 -1.20327 -1.69253
363.359 1.23037 -1.37918 -1.63942 0.143527 1.15969 -1.55624 -1.46976 2.32941 -1.30888 -0.249417 1.57397 1.97562 0.727265 -1.95607 2.1024 -1.29531 -1.63314 -0.453937 -1.32644 -1.26285 0.0981983 -1.53633 0.00353276 0.888275 -2.06974 -1.59557 -0.367884 -2.26467 -0.965488 1.63853 1.93982 -2.23512 -2.24066 1.88549 0.408411 1.41904 -2.17075 1.43865
363.332 2.03254 -1.10411 -2.4215 0.545897 1.59687 0.693435 -0.689427 -0.597828 1.20565 0.026694 9.29914e-05 -0.163629 -1.24013 2.35346 0.894392 -1.42467 -1.32377 2.22348 2.20419 1.62947 -1.20872 -0.0577501 1.36353 -2.23995 -1.60524 -2.25587 1.72502 0.627982 -0.616846 0.651756 -0.988876 -1.08431 2.04764 -0.91038 1.96159 1.14451 2.28306 -1.22784
362.855 1.39231 2.18175 -1.78941 -1.02699 0.305037 0.722599 1.86707 -1.33576 0.86998 0.646797 1.66277 1.56498 1.3665 -2.35774 0.452036 0.587911 -0.830714 1.37216 -1.07855 -2.11623 -0.591661 -1.63639 -1.60507 -0.701071 -0.284787 -0.606448 0.737611 -1.99657 -0.871443 1.8472 0.538002 -1.97913 1.52894 1.24859 -0.506123 -0.666018 -0.528806 -1.13905
361.056 -1.96076 0.736037 -0.682009 -1.05865 -0.843071 -2.04426 -0.363361 2.17247 0.417851 -1.17269 0.793733 1.30889 -0.0628657 -1.71364 1.91518 0.628327 0.0885736 -1.46078 0.287803 -0.369003 1.6497 -0.528058 -1.27837 -0.869933 1.1468 0.693271 2.42422 -0.808785 1.9878 -1.81963 -0.44606 -2.47296 1.41641 1.37193 -1.03161 -1.92666 1.82767 1.10503
361.031 -1.86129 -1.99438 0.424989 -2.19771 -2.08712 -1.78855 1.34537 2.44771 -1.21756 1.34561 -1.77766 0.321259 1.50387 -0.442244 0.496453 -0.258389 1.9521 -0.937547 -2.3224 -1.71223 1.23615 -0.752188 1.15338 1.63807 1.58874 -0.530359 0.962438 -1.77313 -0.600628 2.19482 -0.798397 0.0380856 -2.29956 2.12659 0.34038 -1.88668 -2.16196 -0.814248
331.861 1.39231 2.18175 -1.78941 -1.02699 0.305037 0.722599 1.86707 -1.33576 0.86998 0.646797 1.66277 1.56498 1.3665 -2.35774 0.452036 0.587911 -0.830714 1.37216 -1.07855 -2.11623 -0.591661 -1.63639 -1.60507 -0.701071 -0.284787 -0.606448 0.737611 -1.99657 -0.871443 1.8472 0.538002 -1.97913 1.52894 1.24859 -0.506123 -0.666018 -0.528806 -1.13905
