%!PS-Adobe-3.0
%%Creator: graphviz version 2.46.0 (0)
%%Title: tree
%%Pages: (atend)
%%BoundingBox: (atend)
%%EndComments
save
%%BeginProlog
/DotDict 200 dict def
DotDict begin

/setupLatin1 {
mark
/EncodingVector 256 array def
 EncodingVector 0

ISOLatin1Encoding 0 255 getinterval putinterval
EncodingVector 45 /hyphen put

% Set up ISO Latin 1 character encoding
/starnetISO {
        dup dup findfont dup length dict begin
        { 1 index /FID ne { def }{ pop pop } ifelse
        } forall
        /Encoding EncodingVector def
        currentdict end definefont
} def
/Times-Roman starnetISO def
/Times-Italic starnetISO def
/Times-Bold starnetISO def
/Times-BoldItalic starnetISO def
/Helvetica starnetISO def
/Helvetica-Oblique starnetISO def
/Helvetica-Bold starnetISO def
/Helvetica-BoldOblique starnetISO def
/Courier starnetISO def
/Courier-Oblique starnetISO def
/Courier-Bold starnetISO def
/Courier-BoldOblique starnetISO def
cleartomark
} bind def

%%BeginResource: procset graphviz 0 0
/coord-font-family /Times-Roman def
/default-font-family /Times-Roman def
/coordfont coord-font-family findfont 8 scalefont def

/InvScaleFactor 1.0 def
/set_scale {
       dup 1 exch div /InvScaleFactor exch def
       scale
} bind def

% styles
/solid { [] 0 setdash } bind def
/dashed { [9 InvScaleFactor mul dup ] 0 setdash } bind def
/dotted { [1 InvScaleFactor mul 6 InvScaleFactor mul] 0 setdash } bind def
/invis {/fill {newpath} def /stroke {newpath} def /show {pop newpath} def} bind def
/bold { 2 setlinewidth } bind def
/filled { } bind def
/unfilled { } bind def
/rounded { } bind def
/diagonals { } bind def
/tapered { } bind def

% hooks for setting color 
/nodecolor { sethsbcolor } bind def
/edgecolor { sethsbcolor } bind def
/graphcolor { sethsbcolor } bind def
/nopcolor {pop pop pop} bind def

/beginpage {	% i j npages
	/npages exch def
	/j exch def
	/i exch def
	/str 10 string def
	npages 1 gt {
		gsave
			coordfont setfont
			0 0 moveto
			(\() show i str cvs show (,) show j str cvs show (\)) show
		grestore
	} if
} bind def

/set_font {
	findfont exch
	scalefont setfont
} def

% draw text fitted to its expected width
/alignedtext {			% width text
	/text exch def
	/width exch def
	gsave
		width 0 gt {
			[] 0 setdash
			text stringwidth pop width exch sub text length div 0 text ashow
		} if
	grestore
} def

/boxprim {				% xcorner ycorner xsize ysize
		4 2 roll
		moveto
		2 copy
		exch 0 rlineto
		0 exch rlineto
		pop neg 0 rlineto
		closepath
} bind def

/ellipse_path {
	/ry exch def
	/rx exch def
	/y exch def
	/x exch def
	matrix currentmatrix
	newpath
	x y translate
	rx ry scale
	0 0 1 0 360 arc
	setmatrix
} bind def

/endpage { showpage } bind def
/showpage { } def

/layercolorseq
	[	% layer color sequence - darkest to lightest
		[0 0 0]
		[.2 .8 .8]
		[.4 .8 .8]
		[.6 .8 .8]
		[.8 .8 .8]
	]
def

/layerlen layercolorseq length def

/setlayer {/maxlayer exch def /curlayer exch def
	layercolorseq curlayer 1 sub layerlen mod get
	aload pop sethsbcolor
	/nodecolor {nopcolor} def
	/edgecolor {nopcolor} def
	/graphcolor {nopcolor} def
} bind def

/onlayer { curlayer ne {invis} if } def

/onlayers {
	/myupper exch def
	/mylower exch def
	curlayer mylower lt
	curlayer myupper gt
	or
	{invis} if
} def

/curlayer 0 def

%%EndResource
%%EndProlog
%%BeginSetup
14 default-font-family set_font
% /arrowlength 10 def
% /arrowwidth 5 def

% make sure pdfmark is harmless for PS-interpreters other than Distiller
/pdfmark where {pop} {userdict /pdfmark /cleartomark load put} ifelse
% make '<<' and '>>' safe on PS Level 1 devices
/languagelevel where {pop languagelevel}{1} ifelse
2 lt {
    userdict (<<) cvn ([) cvn load put
    userdict (>>) cvn ([) cvn load put
} if

%%EndSetup
setupLatin1
%%Page: 1 1
%%PageBoundingBox: 36 36 540 370
%%PageOrientation: Portrait
0 0 1 beginpage
gsave
36 36 504 334 boxprim clip newpath
0.45232 0.45232 set_scale 0 rotate 83.5897 83.5897 translate
0 0 0 graphcolor
14 /Times-Roman set_font
498.6277 7.8 moveto 109 (S\(T\)=0.938162) alignedtext
% 0
gsave
1 setlinewidth
0 0 0 nodecolor
271.3133 633.4366 94.4839 18 ellipse_path stroke
0 0 0 nodecolor
14 /Times-Roman set_font
206.8133 629.7366 moveto 129 (anna_karenina.txt) alignedtext
grestore
% 29
gsave
1 setlinewidth
0 0 0 nodecolor
338.6894 577.5404 27 18 ellipse_path stroke
grestore
% 0--29
gsave
1 setlinewidth
0 0 0 edgecolor
newpath 292.6315 615.7507 moveto
302.0384 607.9466 312.9397 598.9027 321.7745 591.5732 curveto
stroke
grestore
% 10036
gsave
1 setlinewidth
0 0 1 nodecolor
189.7484 638.634 37.0935 18 ellipse_path stroke
0 0 0 nodecolor
14 /Times-Roman set_font
169.2484 634.934 moveto 41 (0.915) alignedtext
grestore
% 0--10036
gsave
1 setlinewidth
dotted
0 0 0 edgecolor
newpath 189.8075 638.6302 moveto
189.7879 638.6315 189.7731 638.6324 189.7632 638.633 curveto
stroke
grestore
% 10054
gsave
1 setlinewidth
0 0 1 nodecolor
298.5892 712.0195 37.0935 18 ellipse_path stroke
0 0 0 nodecolor
14 /Times-Roman set_font
278.0892 708.3195 moveto 41 (0.902) alignedtext
grestore
% 0--10054
gsave
1 setlinewidth
dotted
0 0 0 edgecolor
newpath 277.6395 651.6626 moveto
282.0775 664.4485 287.982 681.4598 292.3913 694.1633 curveto
stroke
grestore
% 1
gsave
1 setlinewidth
0 0 0 nodecolor
825.6213 580.9647 91.784 18 ellipse_path stroke
0 0 0 nodecolor
14 /Times-Roman set_font
763.1213 577.2647 moveto 125 (rokovye_yaica.txt) alignedtext
grestore
% 23
gsave
1 setlinewidth
0 0 0 nodecolor
770.0168 516.5245 27 18 ellipse_path stroke
grestore
% 1--23
gsave
1 setlinewidth
0 0 0 edgecolor
newpath 810.1323 563.0146 moveto
801.7773 553.3319 791.5631 541.4947 783.5325 532.188 curveto
stroke
grestore
% 10049
gsave
1 setlinewidth
0 0 1 nodecolor
890.1458 530.0936 37.0935 18 ellipse_path stroke
0 0 0 nodecolor
14 /Times-Roman set_font
869.6458 526.3936 moveto 41 (0.915) alignedtext
grestore
% 1--10049
gsave
1 setlinewidth
dotted
0 0 0 edgecolor
newpath 847.827 563.4578 moveto
855.2637 557.5947 863.4925 551.1071 870.7016 545.4234 curveto
stroke
grestore
% 10050
gsave
1 setlinewidth
0 0 1 nodecolor
770.6044 635.5012 37.0935 18 ellipse_path stroke
0 0 0 nodecolor
14 /Times-Roman set_font
750.1044 631.8012 moveto 41 (0.917) alignedtext
grestore
% 1--10050
gsave
1 setlinewidth
dotted
0 0 0 edgecolor
newpath 807.6067 598.822 moveto
800.963 605.4077 793.4771 612.8282 786.9856 619.263 curveto
stroke
grestore
% 2
gsave
1 setlinewidth
0 0 0 nodecolor
288.3083 75.6124 48.1917 18 ellipse_path stroke
0 0 0 nodecolor
14 /Times-Roman set_font
259.3083 71.9124 moveto 58 (idiot.txt) alignedtext
grestore
% 22
gsave
1 setlinewidth
0 0 0 nodecolor
318.3204 158.3996 27 18 ellipse_path stroke
grestore
% 2--22
gsave
1 setlinewidth
0 0 0 edgecolor
newpath 294.8205 93.576 moveto
299.889 107.5573 306.8852 126.8561 311.924 140.7555 curveto
stroke
grestore
% 10041
gsave
1 setlinewidth
0 0 1 nodecolor
210.5091 95.8832 37.0935 18 ellipse_path stroke
0 0 0 nodecolor
14 /Times-Roman set_font
190.0091 92.1832 moveto 41 (0.915) alignedtext
grestore
% 2--10041
gsave
1 setlinewidth
dotted
0 0 0 edgecolor
newpath 248.4971 85.9853 moveto
246.8521 86.4139 245.2094 86.8419 243.5805 87.2663 curveto
stroke
grestore
% 10042
gsave
1 setlinewidth
0 0 1 nodecolor
355.0407 41 37.0935 18 ellipse_path stroke
0 0 0 nodecolor
14 /Times-Roman set_font
334.5407 37.3 moveto 41 (0.930) alignedtext
grestore
% 2--10042
gsave
1 setlinewidth
dotted
0 0 0 edgecolor
newpath 316.6088 60.9336 moveto
320.8716 58.7226 325.2474 56.453 329.4489 54.2738 curveto
stroke
grestore
% 3
gsave
1 setlinewidth
0 0 0 nodecolor
700.1148 593.043 117.7793 18 ellipse_path stroke
0 0 0 nodecolor
14 /Times-Roman set_font
617.6148 589.343 moveto 165 (master_i_margarita.txt) alignedtext
grestore
% 21
gsave
1 setlinewidth
0 0 0 nodecolor
684.8358 507.9065 27 18 ellipse_path stroke
grestore
% 3--21
gsave
1 setlinewidth
0 0 0 edgecolor
newpath 696.8745 574.9878 moveto
694.2816 560.5398 690.6631 540.3768 688.0714 525.9357 curveto
stroke
grestore
% 3--10050
gsave
1 setlinewidth
dotted
0 0 0 edgecolor
newpath 729.1926 610.5575 moveto
735.1087 614.121 741.2642 617.8286 746.9639 621.2617 curveto
stroke
grestore
% 10051
gsave
1 setlinewidth
0 0 1 nodecolor
633.6347 611.6597 37.0935 18 ellipse_path stroke
0 0 0 nodecolor
14 /Times-Roman set_font
613.1347 607.9597 moveto 41 (0.941) alignedtext
grestore
% 3--10051
gsave
1 setlinewidth
dotted
0 0 0 edgecolor
newpath 643.4441 608.9127 moveto
643.3518 608.9386 643.2599 608.9643 643.1686 608.9899 curveto
stroke
grestore
% 4
gsave
1 setlinewidth
0 0 0 nodecolor
238.428 173.5646 50.8918 18 ellipse_path stroke
0 0 0 nodecolor
14 /Times-Roman set_font
207.428 169.8646 moveto 62 (igrok.txt) alignedtext
grestore
% 4--22
gsave
1 setlinewidth
0 0 0 edgecolor
newpath 283.5108 165.0071 moveto
286.484 164.4427 289.4185 163.8857 292.247 163.3488 curveto
stroke
grestore
% 10040
gsave
1 setlinewidth
0 0 1 nodecolor
219.1088 248.1191 37.0935 18 ellipse_path stroke
0 0 0 nodecolor
14 /Times-Roman set_font
198.6088 244.4191 moveto 41 (0.915) alignedtext
grestore
% 4--10040
gsave
1 setlinewidth
dotted
0 0 0 edgecolor
newpath 233.7514 191.6121 moveto
230.7139 203.334 226.7713 218.5491 223.7424 230.2377 curveto
stroke
grestore
% 4--10041
gsave
1 setlinewidth
dotted
0 0 0 edgecolor
newpath 231.9527 155.5476 moveto
227.4423 142.998 221.452 126.3306 216.9493 113.8024 curveto
stroke
grestore
% 5
gsave
1 setlinewidth
0 0 0 nodecolor
442.002 568.6097 57.6901 18 ellipse_path stroke
0 0 0 nodecolor
14 /Times-Roman set_font
405.502 564.9097 moveto 73 (yunost.txt) alignedtext
grestore
% 35
gsave
1 setlinewidth
0 0 0 nodecolor
389.4862 502.9104 27 18 ellipse_path stroke
grestore
% 5--35
gsave
1 setlinewidth
0 0 0 edgecolor
newpath 427.9287 551.0035 moveto
420.0293 541.121 410.2394 528.8735 402.5161 519.2114 curveto
stroke
grestore
% 10052
gsave
1 setlinewidth
0 0 1 nodecolor
518.8149 582.8368 37.0935 18 ellipse_path stroke
0 0 0 nodecolor
14 /Times-Roman set_font
498.3149 579.1368 moveto 41 (0.926) alignedtext
grestore
% 5--10052
gsave
1 setlinewidth
dotted
0 0 0 edgecolor
newpath 491.9495 577.8608 moveto
492.0641 577.8821 492.1786 577.9033 492.2929 577.9244 curveto
stroke
grestore
% 10053
gsave
1 setlinewidth
0 0 1 nodecolor
427.6614 654.9819 37.0935 18 ellipse_path stroke
0 0 0 nodecolor
14 /Times-Roman set_font
407.1614 651.2819 moveto 41 (0.913) alignedtext
grestore
% 5--10053
gsave
1 setlinewidth
dotted
0 0 0 edgecolor
newpath 438.9607 586.927 moveto
436.5106 601.6837 433.0848 622.317 430.6491 636.9872 curveto
stroke
grestore
% 6
gsave
1 setlinewidth
0 0 0 nodecolor
144.636 396.9083 118.0794 18 ellipse_path stroke
0 0 0 nodecolor
14 /Times-Roman set_font
61.636 393.2083 moveto 166 (rl_dvoryanskoe_gnezdo) alignedtext
grestore
% 33
gsave
1 setlinewidth
0 0 0 nodecolor
220.8507 435.9919 27 18 ellipse_path stroke
grestore
% 6--33
gsave
1 setlinewidth
0 0 0 edgecolor
newpath 178.2867 414.1647 moveto
185.4645 417.8455 192.8562 421.636 199.4242 425.0042 curveto
stroke
grestore
% 10038
gsave
1 setlinewidth
0 0 1 nodecolor
65.3986 419.6291 37.0935 18 ellipse_path stroke
0 0 0 nodecolor
14 /Times-Roman set_font
44.8986 415.9291 moveto 41 (0.892) alignedtext
grestore
% 6--10038
gsave
1 setlinewidth
dotted
0 0 0 edgecolor
newpath 89.1724 412.8121 moveto
89.0684 412.8419 88.9645 412.8717 88.8608 412.9014 curveto
stroke
grestore
% 10039
gsave
1 setlinewidth
0 0 1 nodecolor
164.5933 331.9244 37.0935 18 ellipse_path stroke
0 0 0 nodecolor
14 /Times-Roman set_font
144.0933 328.2244 moveto 41 (0.895) alignedtext
grestore
% 6--10039
gsave
1 setlinewidth
dotted
0 0 0 edgecolor
newpath 150.1952 378.8066 moveto
152.9633 369.7934 156.2999 358.9288 159.0639 349.929 curveto
stroke
grestore
% 7
gsave
1 setlinewidth
0 0 0 nodecolor
769.1408 229.0287 59.5901 18 ellipse_path stroke
0 0 0 nodecolor
14 /Times-Roman set_font
731.1408 225.3287 moveto 76 (portret.txt) alignedtext
grestore
% 20
gsave
1 setlinewidth
0 0 0 nodecolor
684.9141 249.9057 27 18 ellipse_path stroke
grestore
% 7--20
gsave
1 setlinewidth
0 0 0 edgecolor
newpath 722.5931 240.5663 moveto
718.4842 241.5848 714.4322 242.5891 710.596 243.54 curveto
stroke
grestore
% 10046
gsave
1 setlinewidth
0 0 1 nodecolor
810.0514 157.3326 37.0935 18 ellipse_path stroke
0 0 0 nodecolor
14 /Times-Roman set_font
789.5514 153.6326 moveto 41 (0.932) alignedtext
grestore
% 7--10046
gsave
1 setlinewidth
dotted
0 0 0 edgecolor
newpath 779.4643 210.9367 moveto
785.7133 199.9852 793.6502 186.0758 799.8729 175.1704 curveto
stroke
grestore
% 10047
gsave
1 setlinewidth
0 0 1 nodecolor
793.3886 293.0813 37.0935 18 ellipse_path stroke
0 0 0 nodecolor
14 /Times-Roman set_font
772.8886 289.3813 moveto 41 (0.927) alignedtext
grestore
% 7--10047
gsave
1 setlinewidth
dotted
0 0 0 edgecolor
newpath 776.0244 247.2122 moveto
779.3287 255.9409 783.2761 266.3683 786.5717 275.074 curveto
stroke
grestore
% 8
gsave
1 setlinewidth
0 0 0 nodecolor
837.2336 467.9044 104.7816 18 ellipse_path stroke
0 0 0 nodecolor
14 /Times-Roman set_font
764.7336 464.2044 moveto 145 (sobachye_serdce.txt) alignedtext
grestore
% 8--23
gsave
1 setlinewidth
0 0 0 edgecolor
newpath 812.9668 485.4574 moveto
804.8442 491.3327 795.9309 497.78 788.3397 503.271 curveto
stroke
grestore
% 10048
gsave
1 setlinewidth
0 0 1 nodecolor
802.6576 396.0018 37.0935 18 ellipse_path stroke
0 0 0 nodecolor
14 /Times-Roman set_font
782.1576 392.3018 moveto 41 (0.942) alignedtext
grestore
% 8--10048
gsave
1 setlinewidth
dotted
0 0 0 edgecolor
newpath 828.5087 449.7603 moveto
823.2272 438.7772 816.5193 424.8277 811.2601 413.891 curveto
stroke
grestore
% 8--10049
gsave
1 setlinewidth
dotted
0 0 0 edgecolor
newpath 852.538 485.8921 moveto
859.8632 494.5015 868.5844 504.7519 875.7834 513.213 curveto
stroke
grestore
% 9
gsave
1 setlinewidth
0 0 0 nodecolor
729.5769 348.9908 94.7833 18 ellipse_path stroke
0 0 0 nodecolor
14 /Times-Roman set_font
664.5769 345.2908 moveto 130 (mertvye_dushi.txt) alignedtext
grestore
% 34
gsave
1 setlinewidth
0 0 0 nodecolor
643.6745 328.3172 27 18 ellipse_path stroke
grestore
% 9--34
gsave
1 setlinewidth
0 0 0 edgecolor
newpath 670.3837 334.7451 moveto
670.0349 334.6612 669.6879 334.5777 669.3426 334.4946 curveto
stroke
grestore
% 9--10047
gsave
1 setlinewidth
dotted
0 0 0 edgecolor
newpath 749.7673 331.3007 moveto
757.9463 324.1346 767.3181 315.9234 775.2734 308.9532 curveto
stroke
grestore
% 9--10048
gsave
1 setlinewidth
dotted
0 0 0 edgecolor
newpath 756.7895 366.496 moveto
764.4189 371.4038 772.6297 376.6856 779.9663 381.405 curveto
stroke
grestore
% 10
gsave
1 setlinewidth
0 0 0 nodecolor
752.0369 106.7075 354.4373 18 ellipse_path stroke
0 0 0 nodecolor
14 /Times-Roman set_font
487.5369 103.0075 moveto 529 (povest_o_tom_kak_possorilsa_ivan_ivanovich_s_ivanom_nikiforovichem.txt) alignedtext
grestore
% 28
gsave
1 setlinewidth
0 0 0 nodecolor
689.2419 165.6917 27 18 ellipse_path stroke
grestore
% 10--28
gsave
1 setlinewidth
0 0 0 edgecolor
newpath 732.8551 124.7252 moveto
723.9102 133.1273 713.3982 143.0014 704.9358 150.9502 curveto
stroke
grestore
% 10045
gsave
1 setlinewidth
0 0 1 nodecolor
695.8699 49.0508 37.0935 18 ellipse_path stroke
0 0 0 nodecolor
14 /Times-Roman set_font
675.3699 45.3508 moveto 41 (0.934) alignedtext
grestore
% 10--10045
gsave
1 setlinewidth
dotted
0 0 0 edgecolor
newpath 734.2653 88.4646 moveto
727.0662 81.0745 718.8172 72.6067 711.8149 65.4187 curveto
stroke
grestore
% 10--10046
gsave
1 setlinewidth
dotted
0 0 0 edgecolor
newpath 772.654 124.6986 moveto
778.9071 130.1553 785.7294 136.1086 791.8147 141.4187 curveto
stroke
grestore
% 11
gsave
1 setlinewidth
0 0 0 nodecolor
636.0656 105.9637 81.4863 18 ellipse_path stroke
0 0 0 nodecolor
14 /Times-Roman set_font
581.5656 102.2637 moveto 109 (taras_bulba.txt) alignedtext
grestore
% 11--28
gsave
1 setlinewidth
0 0 0 edgecolor
newpath 652.0202 123.8841 moveto
659.4848 132.2683 668.2882 142.1564 675.459 150.2107 curveto
stroke
grestore
% 10044
gsave
1 setlinewidth
0 0 1 nodecolor
561.4375 132.0268 37.0935 18 ellipse_path stroke
0 0 0 nodecolor
14 /Times-Roman set_font
540.9375 128.3268 moveto 41 (0.935) alignedtext
grestore
% 11--10044
gsave
1 setlinewidth
dotted
0 0 0 edgecolor
newpath 592.2225 121.2755 moveto
592.0955 121.3198 591.9687 121.3641 591.842 121.4083 curveto
stroke
grestore
% 11--10045
gsave
1 setlinewidth
dotted
0 0 0 edgecolor
newpath 654.6602 88.2681 moveto
662.3408 80.9588 671.1887 72.5387 678.7124 65.3788 curveto
stroke
grestore
% 12
gsave
1 setlinewidth
0 0 0 nodecolor
402.1183 109.8656 85.2851 18 ellipse_path stroke
0 0 0 nodecolor
14 /Times-Roman set_font
344.6183 106.1656 moveto 115 (bednie_lyudi.txt) alignedtext
grestore
% 31
gsave
1 setlinewidth
0 0 0 nodecolor
394.6344 197.0572 27 18 ellipse_path stroke
grestore
% 12--31
gsave
1 setlinewidth
0 0 0 edgecolor
newpath 400.5676 127.9318 moveto
399.2832 142.896 397.467 164.0563 396.1831 179.0142 curveto
stroke
grestore
% 12--10042
gsave
1 setlinewidth
dotted
0 0 0 edgecolor
newpath 389.7492 91.772 moveto
382.6661 81.4107 373.8263 68.4799 366.8406 58.2611 curveto
stroke
grestore
% 10043
gsave
1 setlinewidth
0 0 1 nodecolor
467.6023 111.2322 37.0935 18 ellipse_path stroke
0 0 0 nodecolor
14 /Times-Roman set_font
447.1023 107.5322 moveto 41 (0.926) alignedtext
grestore
% 12--10043
gsave
1 setlinewidth
dotted
0 0 0 edgecolor
newpath 467.5548 111.2312 moveto
467.5706 111.2315 467.5825 111.2318 467.5904 111.2319 curveto
stroke
grestore
% 13
gsave
1 setlinewidth
0 0 0 nodecolor
73.4435 494.7799 73.387 18 ellipse_path stroke
0 0 0 nodecolor
14 /Times-Roman set_font
24.9435 491.0799 moveto 97 (otci_i_deti.txt) alignedtext
grestore
% 32
gsave
1 setlinewidth
0 0 0 nodecolor
160.1054 498.493 27 18 ellipse_path stroke
grestore
% 13--32
gsave
1 setlinewidth
0 0 0 edgecolor
newpath 145.7949 497.8799 moveto
145.9285 497.8856 146.0614 497.8913 146.1936 497.897 curveto
stroke
grestore
% 10037
gsave
1 setlinewidth
0 0 1 nodecolor
56.4951 573.8408 37.0935 18 ellipse_path stroke
0 0 0 nodecolor
14 /Times-Roman set_font
35.9951 570.1408 moveto 41 (0.894) alignedtext
grestore
% 13--10037
gsave
1 setlinewidth
dotted
0 0 0 edgecolor
newpath 69.5126 513.1168 moveto
66.755 525.9805 63.086 543.0953 60.3462 555.876 curveto
stroke
grestore
% 13--10038
gsave
1 setlinewidth
dotted
0 0 0 edgecolor
newpath 71.496 476.588 moveto
70.2312 464.7724 68.5894 449.4356 67.3281 437.6535 curveto
stroke
grestore
% 14
gsave
1 setlinewidth
0 0 0 nodecolor
248.8033 327.6459 71.4873 18 ellipse_path stroke
0 0 0 nodecolor
14 /Times-Roman set_font
201.8033 323.9459 moveto 94 (nakanune.txt) alignedtext
grestore
% 25
gsave
1 setlinewidth
0 0 0 nodecolor
301.7897 395.517 27 18 ellipse_path stroke
grestore
% 14--25
gsave
1 setlinewidth
0 0 0 edgecolor
newpath 262.7248 345.4783 moveto
270.9422 356.0041 281.2603 369.2206 289.2284 379.4271 curveto
stroke
grestore
% 14--10039
gsave
1 setlinewidth
dotted
0 0 0 edgecolor
newpath 178.4989 331.2179 moveto
178.3691 331.2245 178.2399 331.2311 178.1114 331.2376 curveto
stroke
grestore
% 14--10040
gsave
1 setlinewidth
dotted
0 0 0 edgecolor
newpath 242.0651 309.6001 moveto
237.2055 296.585 230.6738 279.0922 225.8203 266.0936 curveto
stroke
grestore
% 15
gsave
1 setlinewidth
0 0 0 nodecolor
137.8831 579.5452 51.9908 18 ellipse_path stroke
0 0 0 nodecolor
14 /Times-Roman set_font
105.8831 575.8452 moveto 64 (rudin.txt) alignedtext
grestore
% 15--32
gsave
1 setlinewidth
0 0 0 edgecolor
newpath 142.815 561.5571 moveto
146.4976 548.1254 151.508 529.8505 155.1873 516.4308 curveto
stroke
grestore
% 15--10036
gsave
1 setlinewidth
dotted
0 0 0 edgecolor
newpath 153.1639 596.9542 moveto
160.0962 604.8521 168.2578 614.1503 175.1111 621.9582 curveto
stroke
grestore
% 15--10037
gsave
1 setlinewidth
dotted
0 0 0 edgecolor
newpath 86.801 575.9649 moveto
86.6732 575.956 86.5456 575.947 86.4182 575.9381 curveto
stroke
grestore
% 16
gsave
1 setlinewidth
0 0 0 nodecolor
498.8885 190.1545 137.5759 18 ellipse_path stroke
0 0 0 nodecolor
14 /Times-Roman set_font
400.8885 186.4545 moveto 196 (prestuplenie_i_nakaznie.txt) alignedtext
grestore
% 27
gsave
1 setlinewidth
0 0 0 nodecolor
454.5138 263.9455 27 18 ellipse_path stroke
grestore
% 16--27
gsave
1 setlinewidth
0 0 0 edgecolor
newpath 487.9195 208.395 moveto
480.8358 220.1744 471.682 235.3964 464.7482 246.9266 curveto
stroke
grestore
% 16--10043
gsave
1 setlinewidth
dotted
0 0 0 edgecolor
newpath 491.6322 171.8498 moveto
486.5417 159.0086 479.769 141.9238 474.7114 129.1656 curveto
stroke
grestore
% 16--10044
gsave
1 setlinewidth
dotted
0 0 0 edgecolor
newpath 518.3365 172.0812 moveto
526.5131 164.4826 535.9544 155.7086 543.9127 148.3128 curveto
stroke
grestore
% 17
gsave
1 setlinewidth
0 0 0 nodecolor
359.985 661.8563 78.7863 18 ellipse_path stroke
0 0 0 nodecolor
14 /Times-Roman set_font
307.485 658.1563 moveto 105 (voina_i_mir.txt) alignedtext
grestore
% 17--29
gsave
1 setlinewidth
0 0 0 edgecolor
newpath 355.3642 643.561 moveto
351.7677 629.3216 346.8034 609.6664 343.228 595.5103 curveto
stroke
grestore
% 17--10053
gsave
1 setlinewidth
dotted
0 0 0 edgecolor
newpath 427.6124 654.9869 moveto
427.6286 654.9852 427.6409 654.984 427.6491 654.9832 curveto
stroke
grestore
% 17--10054
gsave
1 setlinewidth
dotted
0 0 0 edgecolor
newpath 338.5117 679.401 moveto
331.7341 684.9386 324.2951 691.0166 317.6944 696.4097 curveto
stroke
grestore
% 18
gsave
1 setlinewidth
0 0 0 nodecolor
584.1891 539.9564 55.7903 18 ellipse_path stroke
0 0 0 nodecolor
14 /Times-Roman set_font
549.1891 536.2564 moveto 70 (kazaki.txt) alignedtext
grestore
% 30
gsave
1 setlinewidth
0 0 0 nodecolor
607.1792 459.9178 27 18 ellipse_path stroke
grestore
% 18--30
gsave
1 setlinewidth
0 0 0 edgecolor
newpath 589.4059 521.7944 moveto
593.1949 508.6034 598.2966 490.842 602.0622 477.7322 curveto
stroke
grestore
% 18--10051
gsave
1 setlinewidth
dotted
0 0 0 edgecolor
newpath 596.4116 557.6808 moveto
604.0759 568.7952 613.9153 583.0637 621.5528 594.1392 curveto
stroke
grestore
% 18--10052
gsave
1 setlinewidth
dotted
0 0 0 edgecolor
newpath 559.4739 556.1676 moveto
553.3994 560.1521 546.9337 564.3931 540.9875 568.2933 curveto
stroke
grestore
% 19
gsave
1 setlinewidth
0 0 0 nodecolor
565.6592 378.0127 27 18 ellipse_path stroke
grestore
% 24
gsave
1 setlinewidth
0 0 0 nodecolor
471.1817 355.3317 27 18 ellipse_path stroke
grestore
% 19--24
gsave
1 setlinewidth
0 0 0 edgecolor
newpath 539.8428 371.815 moveto
526.4026 368.5885 510.0272 364.6573 496.6397 361.4434 curveto
stroke
grestore
% 19--30
gsave
1 setlinewidth
0 0 0 edgecolor
newpath 574.4645 395.3827 moveto
581.5582 409.3761 591.4768 428.9423 598.5289 442.8537 curveto
stroke
grestore
% 19--34
gsave
1 setlinewidth
0 0 0 edgecolor
newpath 585.3458 365.4724 moveto
597.1723 357.9389 612.1688 348.3862 623.9942 340.8534 curveto
stroke
grestore
% 20--28
gsave
1 setlinewidth
0 0 0 edgecolor
newpath 685.8531 231.6325 moveto
686.5791 217.507 687.5792 198.0457 688.3046 183.9292 curveto
stroke
grestore
% 20--34
gsave
1 setlinewidth
0 0 0 edgecolor
newpath 675.9657 266.9198 moveto
669.0958 279.982 659.6487 297.9444 652.7478 311.0655 curveto
stroke
grestore
% 21--23
gsave
1 setlinewidth
0 0 0 edgecolor
newpath 711.7876 510.6333 moveto
721.8282 511.6491 733.2154 512.8012 743.2403 513.8155 curveto
stroke
grestore
% 21--30
gsave
1 setlinewidth
0 0 0 edgecolor
newpath 664.8373 495.5482 moveto
653.2428 488.3833 638.6928 479.392 627.1099 472.2342 curveto
stroke
grestore
% 22--31
gsave
1 setlinewidth
0 0 0 edgecolor
newpath 339.9848 169.3739 moveto
350.2962 174.5973 362.5975 180.8286 372.9159 186.0554 curveto
stroke
grestore
% 26
gsave
1 setlinewidth
0 0 0 nodecolor
392.7116 412.3162 27 18 ellipse_path stroke
grestore
% 24--26
gsave
1 setlinewidth
0 0 0 edgecolor
newpath 452.5853 368.8363 moveto
440.0766 377.92 423.6552 389.8452 411.1744 398.9086 curveto
stroke
grestore
% 24--27
gsave
1 setlinewidth
0 0 0 edgecolor
newpath 467.8886 337.2767 moveto
464.9665 321.2555 460.72 297.9729 457.8 281.9629 curveto
stroke
grestore
% 25--26
gsave
1 setlinewidth
0 0 0 edgecolor
newpath 328.088 400.376 moveto
340.1508 402.6048 354.4168 405.2407 366.4723 407.4681 curveto
stroke
grestore
% 25--33
gsave
1 setlinewidth
0 0 0 edgecolor
newpath 280.0995 406.3635 moveto
268.4866 412.1708 254.2228 419.3036 242.6007 425.1154 curveto
stroke
grestore
% 26--35
gsave
1 setlinewidth
0 0 0 edgecolor
newpath 392.0589 430.6493 moveto
391.4956 446.4704 390.6867 469.1915 390.127 484.9138 curveto
stroke
grestore
% 27--31
gsave
1 setlinewidth
0 0 0 edgecolor
newpath 440.6258 248.4318 moveto
431.0903 237.7802 418.4707 223.6835 408.863 212.9511 curveto
stroke
grestore
% 29--35
gsave
1 setlinewidth
0 0 0 edgecolor
newpath 349.9628 560.9776 moveto
358.3807 548.6101 369.834 531.7833 378.2443 519.427 curveto
stroke
grestore
% 32--33
gsave
1 setlinewidth
0 0 0 edgecolor
newpath 174.8101 483.3632 moveto
184.2203 473.681 196.3937 461.1557 205.8593 451.4165 curveto
stroke
grestore
endpage
showpage
grestore
%%PageTrailer
%%EndPage: 1
%%Trailer
%%Pages: 1
%%BoundingBox: 36 36 540 370
end
restore
%%EOF
