\babel@toc {british}{}
\beamer@sectionintoc {1}{Introduction}{3}{0}{1}
\beamer@sectionintoc {2}{Kolmogorov Complexiteit}{4}{0}{2}
\beamer@sectionintoc {3}{Normal Compressor}{5}{0}{3}
\beamer@sectionintoc {4}{Classificatie}{8}{0}{4}
\beamer@sectionintoc {5}{Conclusie}{8}{0}{5}
