%!PS-Adobe-3.0
%%Creator: graphviz version 2.47.2 (0)
%%Title: tree
%%Pages: (atend)
%%BoundingBox: (atend)
%%EndComments
save
%%BeginProlog
/DotDict 200 dict def
DotDict begin

/setupLatin1 {
mark
/EncodingVector 256 array def
 EncodingVector 0

ISOLatin1Encoding 0 255 getinterval putinterval
EncodingVector 45 /hyphen put

% Set up ISO Latin 1 character encoding
/starnetISO {
        dup dup findfont dup length dict begin
        { 1 index /FID ne { def }{ pop pop } ifelse
        } forall
        /Encoding EncodingVector def
        currentdict end definefont
} def
/Times-Roman starnetISO def
/Times-Italic starnetISO def
/Times-Bold starnetISO def
/Times-BoldItalic starnetISO def
/Helvetica starnetISO def
/Helvetica-Oblique starnetISO def
/Helvetica-Bold starnetISO def
/Helvetica-BoldOblique starnetISO def
/Courier starnetISO def
/Courier-Oblique starnetISO def
/Courier-Bold starnetISO def
/Courier-BoldOblique starnetISO def
cleartomark
} bind def

%%BeginResource: procset graphviz 0 0
/coord-font-family /Times-Roman def
/default-font-family /Times-Roman def
/coordfont coord-font-family findfont 8 scalefont def

/InvScaleFactor 1.0 def
/set_scale {
       dup 1 exch div /InvScaleFactor exch def
       scale
} bind def

% styles
/solid { [] 0 setdash } bind def
/dashed { [9 InvScaleFactor mul dup ] 0 setdash } bind def
/dotted { [1 InvScaleFactor mul 6 InvScaleFactor mul] 0 setdash } bind def
/invis {/fill {newpath} def /stroke {newpath} def /show {pop newpath} def} bind def
/bold { 2 setlinewidth } bind def
/filled { } bind def
/unfilled { } bind def
/rounded { } bind def
/diagonals { } bind def
/tapered { } bind def

% hooks for setting color 
/nodecolor { sethsbcolor } bind def
/edgecolor { sethsbcolor } bind def
/graphcolor { sethsbcolor } bind def
/nopcolor {pop pop pop} bind def

/beginpage {	% i j npages
	/npages exch def
	/j exch def
	/i exch def
	/str 10 string def
	npages 1 gt {
		gsave
			coordfont setfont
			0 0 moveto
			(\() show i str cvs show (,) show j str cvs show (\)) show
		grestore
	} if
} bind def

/set_font {
	findfont exch
	scalefont setfont
} def

% draw text fitted to its expected width
/alignedtext {			% width text
	/text exch def
	/width exch def
	gsave
		width 0 gt {
			[] 0 setdash
			text stringwidth pop width exch sub text length div 0 text ashow
		} if
	grestore
} def

/boxprim {				% xcorner ycorner xsize ysize
		4 2 roll
		moveto
		2 copy
		exch 0 rlineto
		0 exch rlineto
		pop neg 0 rlineto
		closepath
} bind def

/ellipse_path {
	/ry exch def
	/rx exch def
	/y exch def
	/x exch def
	matrix currentmatrix
	newpath
	x y translate
	rx ry scale
	0 0 1 0 360 arc
	setmatrix
} bind def

/endpage { showpage } bind def
/showpage { } def

/layercolorseq
	[	% layer color sequence - darkest to lightest
		[0 0 0]
		[.2 .8 .8]
		[.4 .8 .8]
		[.6 .8 .8]
		[.8 .8 .8]
	]
def

/layerlen layercolorseq length def

/setlayer {/maxlayer exch def /curlayer exch def
	layercolorseq curlayer 1 sub layerlen mod get
	aload pop sethsbcolor
	/nodecolor {nopcolor} def
	/edgecolor {nopcolor} def
	/graphcolor {nopcolor} def
} bind def

/onlayer { curlayer ne {invis} if } def

/onlayers {
	/myupper exch def
	/mylower exch def
	curlayer mylower lt
	curlayer myupper gt
	or
	{invis} if
} def

/curlayer 0 def

%%EndResource
%%EndProlog
%%BeginSetup
14 default-font-family set_font
% /arrowlength 10 def
% /arrowwidth 5 def

% make sure pdfmark is harmless for PS-interpreters other than Distiller
/pdfmark where {pop} {userdict /pdfmark /cleartomark load put} ifelse
% make '<<' and '>>' safe on PS Level 1 devices
/languagelevel where {pop languagelevel}{1} ifelse
2 lt {
    userdict (<<) cvn ([) cvn load put
    userdict (>>) cvn ([) cvn load put
} if

%%EndSetup
setupLatin1
%%Page: 1 1
%%PageBoundingBox: 36 36 1566 1118
%%PageOrientation: Portrait
0 0 1 beginpage
gsave
36 36 1530 1082 boxprim clip newpath
1 1 set_scale 0 rotate 40 40 translate
0 0 0 graphcolor
14 /Times-Roman set_font
706.6624 7.8 moveto 109 (S\(T\)=0.895731) alignedtext
% 0
gsave
1 setlinewidth
0 0 0 nodecolor
464.5665 989.6963 215.5619 18 ellipse_path stroke
0 0 0 nodecolor
14 /Times-Roman set_font
306.5665 985.9963 moveto 316 (Machine Learning in Practice_\(NWI-IMC030) alignedtext
grestore
% 59
gsave
1 setlinewidth
0 0 0 nodecolor
451.3165 904.7538 27 18 ellipse_path stroke
grestore
% 0--59
gsave
1 setlinewidth
0 0 0 edgecolor
newpath 461.7565 971.6822 moveto
459.508 957.2671 456.3699 937.1501 454.1224 922.7419 curveto
stroke
grestore
% 10062
gsave
1 setlinewidth
0 0 1 nodecolor
533.2939 1022.8179 37.0935 18 ellipse_path stroke
0 0 0 nodecolor
14 /Times-Roman set_font
512.7939 1019.1179 moveto 41 (0.878) alignedtext
grestore
% 0--10062
gsave
1 setlinewidth
dotted
0 0 0 edgecolor
newpath 501.7463 1007.6143 moveto
503.391 1008.4069 505.027 1009.1953 506.6391 1009.9722 curveto
stroke
grestore
% 10093
gsave
1 setlinewidth
0 0 1 nodecolor
389.1201 1022.7098 37.0935 18 ellipse_path stroke
0 0 0 nodecolor
14 /Times-Roman set_font
368.6201 1019.0098 moveto 41 (0.814) alignedtext
grestore
% 0--10093
gsave
1 setlinewidth
dotted
0 0 0 edgecolor
newpath 423.7519 1007.5558 moveto
421.391 1008.5889 419.0463 1009.6149 416.7551 1010.6174 curveto
stroke
grestore
% 1
gsave
1 setlinewidth
0 0 0 nodecolor
336.7669 269.8527 209.8628 18 ellipse_path stroke
0 0 0 nodecolor
14 /Times-Roman set_font
183.2669 266.1527 moveto 307 (Law for Computer Scientists_\(NWI-IBC037) alignedtext
grestore
% 38
gsave
1 setlinewidth
0 0 0 nodecolor
348.2763 353.1494 27 18 ellipse_path stroke
grestore
% 1--38
gsave
1 setlinewidth
0 0 0 edgecolor
newpath 339.2643 287.9268 moveto
341.1948 301.8985 343.8545 321.1478 345.7838 335.1105 curveto
stroke
grestore
% 10071
gsave
1 setlinewidth
0 0 1 nodecolor
255.9545 254.2912 37.0935 18 ellipse_path stroke
0 0 0 nodecolor
14 /Times-Roman set_font
235.4545 250.5912 moveto 41 (0.751) alignedtext
grestore
% 1--10071
gsave
1 setlinewidth
dotted
0 0 0 edgecolor
newpath 256.013 254.3025 moveto
255.9936 254.2988 255.979 254.2959 255.9692 254.2941 curveto
stroke
grestore
% 10072
gsave
1 setlinewidth
0 0 1 nodecolor
416.2966 273.2637 37.0935 18 ellipse_path stroke
0 0 0 nodecolor
14 /Times-Roman set_font
395.7966 269.5637 moveto 41 (0.866) alignedtext
grestore
% 1--10072
gsave
1 setlinewidth
dotted
0 0 0 edgecolor
newpath 416.239 273.2612 moveto
416.2581 273.2621 416.2725 273.2627 416.2821 273.2631 curveto
stroke
grestore
% 2
gsave
1 setlinewidth
0 0 0 nodecolor
1231.8978 238.6098 177.3685 18 ellipse_path stroke
0 0 0 nodecolor
14 /Times-Roman set_font
1103.3978 234.9098 moveto 257 (Logic and Applications_\(NWI-IPI004) alignedtext
grestore
% 45
gsave
1 setlinewidth
0 0 0 nodecolor
1148.2158 270.4926 27 18 ellipse_path stroke
grestore
% 2--45
gsave
1 setlinewidth
0 0 0 edgecolor
newpath 1186.1393 256.0438 moveto
1181.2552 257.9046 1176.4429 259.7381 1171.9718 261.4416 curveto
stroke
grestore
% 10081
gsave
1 setlinewidth
0 0 1 nodecolor
1248.7374 157.6187 37.0935 18 ellipse_path stroke
0 0 0 nodecolor
14 /Times-Roman set_font
1228.2374 153.9187 moveto 41 (0.896) alignedtext
grestore
% 2--10081
gsave
1 setlinewidth
dotted
0 0 0 edgecolor
newpath 1235.7189 220.2317 moveto
1238.4942 206.8837 1242.2311 188.911 1244.9893 175.6451 curveto
stroke
grestore
% 10082
gsave
1 setlinewidth
0 0 1 nodecolor
1306.2241 268.7881 37.0935 18 ellipse_path stroke
0 0 0 nodecolor
14 /Times-Roman set_font
1285.7241 265.0881 moveto 41 (0.921) alignedtext
grestore
% 2--10082
gsave
1 setlinewidth
dotted
0 0 0 edgecolor
newpath 1275.1337 256.1646 moveto
1275.9002 256.4758 1276.6631 256.7856 1277.4211 257.0934 curveto
stroke
grestore
% 3
gsave
1 setlinewidth
0 0 0 nodecolor
953.4351 549.0995 174.6691 18 ellipse_path stroke
0 0 0 nodecolor
14 /Times-Roman set_font
826.9351 545.3995 moveto 253 (Information Retrieval_\(NWI-I00041) alignedtext
grestore
% 32
gsave
1 setlinewidth
0 0 0 nodecolor
989.3044 481.5658 27 18 ellipse_path stroke
grestore
% 3--32
gsave
1 setlinewidth
0 0 0 edgecolor
newpath 963.0474 531.0017 moveto
968.3599 520.9996 974.9241 508.6406 980.1603 498.7821 curveto
stroke
grestore
% 10087
gsave
1 setlinewidth
0 0 1 nodecolor
1006.9812 614.0918 37.0935 18 ellipse_path stroke
0 0 0 nodecolor
14 /Times-Roman set_font
986.4812 610.3918 moveto 41 (0.892) alignedtext
grestore
% 3--10087
gsave
1 setlinewidth
dotted
0 0 0 edgecolor
newpath 968.3507 567.2035 moveto
976.025 576.5184 985.3283 587.8103 992.882 596.9786 curveto
stroke
grestore
% 10088
gsave
1 setlinewidth
0 0 1 nodecolor
876.1924 565.1881 37.0935 18 ellipse_path stroke
0 0 0 nodecolor
14 /Times-Roman set_font
855.6924 561.4881 moveto 41 (0.872) alignedtext
grestore
% 3--10088
gsave
1 setlinewidth
dotted
0 0 0 edgecolor
newpath 876.2484 565.1765 moveto
876.2298 565.1803 876.2158 565.1832 876.2065 565.1852 curveto
stroke
grestore
% 4
gsave
1 setlinewidth
0 0 0 nodecolor
719.7745 909.4727 192.2659 18 ellipse_path stroke
0 0 0 nodecolor
14 /Times-Roman set_font
579.7745 905.7727 moveto 280 (Functional Programming_\(NWI-IBC040) alignedtext
grestore
% 39
gsave
1 setlinewidth
0 0 0 nodecolor
756.7637 852.9734 27 18 ellipse_path stroke
grestore
% 4--39
gsave
1 setlinewidth
0 0 0 edgecolor
newpath 731.6817 891.2849 moveto
736.2435 884.317 741.4203 876.4097 745.8814 869.5956 curveto
stroke
grestore
% 10065
gsave
1 setlinewidth
0 0 1 nodecolor
795.954 977.6194 37.0935 18 ellipse_path stroke
0 0 0 nodecolor
14 /Times-Roman set_font
775.454 973.9194 moveto 41 (0.826) alignedtext
grestore
% 4--10065
gsave
1 setlinewidth
dotted
0 0 0 edgecolor
newpath 739.7897 927.3774 moveto
751.6922 938.0248 766.6601 951.4144 778.1504 961.6931 curveto
stroke
grestore
% 10066
gsave
1 setlinewidth
0 0 1 nodecolor
624.56 870.9133 37.0935 18 ellipse_path stroke
0 0 0 nodecolor
14 /Times-Roman set_font
604.06 867.2133 moveto 41 (0.853) alignedtext
grestore
% 4--10066
gsave
1 setlinewidth
dotted
0 0 0 edgecolor
newpath 676.3467 891.8856 moveto
668.4992 888.7076 660.4991 885.4677 653.2082 882.5151 curveto
stroke
grestore
% 5
gsave
1 setlinewidth
0 0 0 nodecolor
1078.4434 614.0789 213.6622 18 ellipse_path stroke
0 0 0 nodecolor
14 /Times-Roman set_font
921.9434 610.3789 moveto 313 (Introduction to Cryptography_\(NWI-IBC023) alignedtext
grestore
% 43
gsave
1 setlinewidth
0 0 0 nodecolor
1068.0031 532.3922 27 18 ellipse_path stroke
grestore
% 5--43
gsave
1 setlinewidth
0 0 0 edgecolor
newpath 1076.1264 595.95 moveto
1074.3962 582.4131 1072.0422 563.9951 1070.3136 550.4705 curveto
stroke
grestore
% 10086
gsave
1 setlinewidth
0 0 1 nodecolor
1141.832 671.7924 37.0935 18 ellipse_path stroke
0 0 0 nodecolor
14 /Times-Roman set_font
1121.332 668.0924 moveto 41 (0.893) alignedtext
grestore
% 5--10086
gsave
1 setlinewidth
dotted
0 0 0 edgecolor
newpath 1098.1525 632.0234 moveto
1106.4388 639.5679 1116.0069 648.2794 1124.072 655.6225 curveto
stroke
grestore
% 5--10087
gsave
1 setlinewidth
dotted
0 0 0 edgecolor
newpath 1007.033 614.0918 moveto
1007.0158 614.0918 1007.0029 614.0918 1006.9942 614.0918 curveto
stroke
grestore
% 6
gsave
1 setlinewidth
0 0 0 nodecolor
798.6039 542.2587 159.4721 18 ellipse_path stroke
0 0 0 nodecolor
14 /Times-Roman set_font
684.1039 538.5587 moveto 229 (Research Methods_\(NWI-IBI007) alignedtext
grestore
% 37
gsave
1 setlinewidth
0 0 0 nodecolor
763.1363 478.9412 27 18 ellipse_path stroke
grestore
% 6--37
gsave
1 setlinewidth
0 0 0 edgecolor
newpath 788.5352 524.2838 moveto
783.538 515.3628 777.5354 504.6468 772.6206 495.8727 curveto
stroke
grestore
% 6--10088
gsave
1 setlinewidth
dotted
0 0 0 edgecolor
newpath 855.8069 559.1637 moveto
855.8978 559.1905 855.9885 559.2173 856.079 559.2441 curveto
stroke
grestore
% 10089
gsave
1 setlinewidth
0 0 1 nodecolor
759.1278 609.6265 37.0935 18 ellipse_path stroke
0 0 0 nodecolor
14 /Times-Roman set_font
738.6278 605.9265 moveto 41 (0.892) alignedtext
grestore
% 6--10089
gsave
1 setlinewidth
dotted
0 0 0 edgecolor
newpath 788.025 560.3121 moveto
782.2697 570.1337 775.1795 582.2336 769.4626 591.9897 curveto
stroke
grestore
% 7
gsave
1 setlinewidth
0 0 0 nodecolor
822.2225 252.7577 200.3646 18 ellipse_path stroke
0 0 0 nodecolor
14 /Times-Roman set_font
676.2225 249.0577 moveto 292 (Organizing Cyber Security_\(NWI-IBC039) alignedtext
grestore
% 56
gsave
1 setlinewidth
0 0 0 nodecolor
808.5208 336.1198 27 18 ellipse_path stroke
grestore
% 7--56
gsave
1 setlinewidth
0 0 0 edgecolor
newpath 819.2494 270.846 moveto
816.9512 284.8287 813.7848 304.0931 811.488 318.0668 curveto
stroke
grestore
% 10076
gsave
1 setlinewidth
0 0 1 nodecolor
776.8187 175.6395 37.0935 18 ellipse_path stroke
0 0 0 nodecolor
14 /Times-Roman set_font
756.3187 171.9395 moveto 41 (0.913) alignedtext
grestore
% 7--10076
gsave
1 setlinewidth
dotted
0 0 0 edgecolor
newpath 811.4624 234.4818 moveto
804.0674 221.9213 794.3089 205.3466 787.0338 192.9899 curveto
stroke
grestore
% 10077
gsave
1 setlinewidth
0 0 1 nodecolor
854.671 177.196 37.0935 18 ellipse_path stroke
0 0 0 nodecolor
14 /Times-Roman set_font
834.171 173.496 moveto 41 (0.963) alignedtext
grestore
% 7--10077
gsave
1 setlinewidth
dotted
0 0 0 edgecolor
newpath 830.0774 234.4663 moveto
835.2166 222.4988 841.8987 206.9385 847.0004 195.0582 curveto
stroke
grestore
% 8
gsave
1 setlinewidth
0 0 0 nodecolor
720.5648 191.1997 142.1749 18 ellipse_path stroke
0 0 0 nodecolor
14 /Times-Roman set_font
619.0648 187.4997 moveto 203 (Computability_\(NWI-IBC003) alignedtext
grestore
% 54
gsave
1 setlinewidth
0 0 0 nodecolor
744.0668 281.0045 27 18 ellipse_path stroke
grestore
% 8--54
gsave
1 setlinewidth
0 0 0 edgecolor
newpath 725.3208 209.373 moveto
729.4251 225.0562 735.3194 247.5794 739.3981 263.1646 curveto
stroke
grestore
% 10075
gsave
1 setlinewidth
0 0 1 nodecolor
650.4246 168.1701 37.0935 18 ellipse_path stroke
0 0 0 nodecolor
14 /Times-Roman set_font
629.9246 164.4701 moveto 41 (0.913) alignedtext
grestore
% 8--10075
gsave
1 setlinewidth
dotted
0 0 0 edgecolor
newpath 669.2209 174.3416 moveto
669.0537 174.2867 668.8873 174.232 668.7214 174.1776 curveto
stroke
grestore
% 8--10076
gsave
1 setlinewidth
dotted
0 0 0 edgecolor
newpath 776.6573 175.6842 moveto
776.7105 175.6695 776.7509 175.6583 776.7779 175.6508 curveto
stroke
grestore
% 9
gsave
1 setlinewidth
0 0 0 nodecolor
470.753 345.0082 256.1546 18 ellipse_path stroke
0 0 0 nodecolor
14 /Times-Roman set_font
281.753 341.3082 moveto 378 (Academisch Schrijven voor Informatici_\(NWI-IBC035) alignedtext
grestore
% 35
gsave
1 setlinewidth
0 0 0 nodecolor
502.2808 426.8065 27 18 ellipse_path stroke
grestore
% 9--35
gsave
1 setlinewidth
0 0 0 edgecolor
newpath 477.7501 363.1619 moveto
483.0473 376.9055 490.2812 395.6736 495.5198 409.265 curveto
stroke
grestore
% 9--10072
gsave
1 setlinewidth
dotted
0 0 0 edgecolor
newpath 457.0114 326.904 moveto
448.5671 315.779 437.8077 301.6038 429.4703 290.6196 curveto
stroke
grestore
% 10073
gsave
1 setlinewidth
0 0 1 nodecolor
528.6694 327.6261 37.0935 18 ellipse_path stroke
0 0 0 nodecolor
14 /Times-Roman set_font
508.1694 323.9261 moveto 41 (0.898) alignedtext
grestore
% 9--10073
gsave
1 setlinewidth
dotted
0 0 0 edgecolor
newpath 528.5032 327.6759 moveto
528.558 327.6595 528.5996 327.647 528.6274 327.6387 curveto
stroke
grestore
% 10
gsave
1 setlinewidth
0 0 0 nodecolor
261.9268 462.5046 261.8535 18 ellipse_path stroke
0 0 0 nodecolor
14 /Times-Roman set_font
68.4268 458.8046 moveto 387 (Syst. Appr. to Inform. and Organization_\(NWI-IMK010) alignedtext
grestore
% 41
gsave
1 setlinewidth
0 0 0 nodecolor
349.6034 478.7517 27 18 ellipse_path stroke
grestore
% 10--41
gsave
1 setlinewidth
0 0 0 edgecolor
newpath 349.5399 478.7399 moveto
349.5609 478.7438 349.5768 478.7467 349.5875 478.7487 curveto
stroke
grestore
% 10069
gsave
1 setlinewidth
0 0 1 nodecolor
244.9483 543.4634 37.0935 18 ellipse_path stroke
0 0 0 nodecolor
14 /Times-Roman set_font
224.4483 539.7634 moveto 41 (0.885) alignedtext
grestore
% 10--10069
gsave
1 setlinewidth
dotted
0 0 0 edgecolor
newpath 258.0741 480.8754 moveto
255.2759 494.2181 251.5082 512.1837 248.7273 525.4442 curveto
stroke
grestore
% 10070
gsave
1 setlinewidth
0 0 1 nodecolor
209.3559 396.0071 37.0935 18 ellipse_path stroke
0 0 0 nodecolor
14 /Times-Roman set_font
188.8559 392.3071 moveto 41 (0.893) alignedtext
grestore
% 10--10070
gsave
1 setlinewidth
dotted
0 0 0 edgecolor
newpath 247.5616 444.3339 moveto
239.9005 434.6434 230.5256 422.7849 222.9797 413.24 curveto
stroke
grestore
% 11
gsave
1 setlinewidth
0 0 0 nodecolor
1201.3976 635.7284 193.0657 18 ellipse_path stroke
0 0 0 nodecolor
14 /Times-Roman set_font
1060.8976 632.0284 moveto 281 (Security in Organisations_\(NWI-I00153) alignedtext
grestore
% 61
gsave
1 setlinewidth
0 0 0 nodecolor
1153.283 560.6592 27 18 ellipse_path stroke
grestore
% 11--61
gsave
1 setlinewidth
0 0 0 edgecolor
newpath 1189.7504 617.5562 moveto
1181.9075 605.3196 1171.6413 589.3021 1164.0004 577.3807 curveto
stroke
grestore
% 10085
gsave
1 setlinewidth
0 0 1 nodecolor
1280.8769 623.8524 37.0935 18 ellipse_path stroke
0 0 0 nodecolor
14 /Times-Roman set_font
1260.3769 620.1524 moveto 41 (0.185) alignedtext
grestore
% 11--10085
gsave
1 setlinewidth
dotted
0 0 0 edgecolor
newpath 1280.8193 623.861 moveto
1280.8384 623.8582 1280.8528 623.856 1280.8624 623.8546 curveto
stroke
grestore
% 11--10086
gsave
1 setlinewidth
dotted
0 0 0 edgecolor
newpath 1171.9639 653.5491 moveto
1169.7363 654.8978 1167.5061 656.2481 1165.3232 657.5697 curveto
stroke
grestore
% 12
gsave
1 setlinewidth
0 0 0 nodecolor
683.434 650.1029 183.0677 18 ellipse_path stroke
0 0 0 nodecolor
14 /Times-Roman set_font
550.434 646.4029 moveto 266 (Networks and Security_\(NWI-IBC048) alignedtext
grestore
% 42
gsave
1 setlinewidth
0 0 0 nodecolor
618.057 663.7033 27 18 ellipse_path stroke
grestore
% 12--42
gsave
1 setlinewidth
0 0 0 edgecolor
newpath 618.1043 663.6934 moveto
618.0886 663.6967 618.0768 663.6992 618.0689 663.7008 curveto
stroke
grestore
% 12--10089
gsave
1 setlinewidth
dotted
0 0 0 edgecolor
newpath 716.8547 632.2315 moveto
722.5577 629.1819 728.3967 626.0596 733.8439 623.1468 curveto
stroke
grestore
% 10090
gsave
1 setlinewidth
0 0 1 nodecolor
575.7692 646.4201 37.0935 18 ellipse_path stroke
0 0 0 nodecolor
14 /Times-Roman set_font
555.2692 642.7201 moveto 41 (0.860) alignedtext
grestore
% 12--10090
gsave
1 setlinewidth
dotted
0 0 0 edgecolor
newpath 575.8473 646.4228 moveto
575.8214 646.4219 575.8019 646.4212 575.7889 646.4208 curveto
stroke
grestore
% 13
gsave
1 setlinewidth
0 0 0 nodecolor
330.0983 562.1757 151.3732 18 ellipse_path stroke
0 0 0 nodecolor
14 /Times-Roman set_font
221.5983 558.4757 moveto 217 (Privacy Seminar_\(NWI-I00136) alignedtext
grestore
% 13--41
gsave
1 setlinewidth
0 0 0 edgecolor
newpath 334.3306 544.0739 moveto
337.6023 530.0809 342.1098 510.8022 345.3794 496.8181 curveto
stroke
grestore
% 10068
gsave
1 setlinewidth
0 0 1 nodecolor
377.5986 633.4113 37.0935 18 ellipse_path stroke
0 0 0 nodecolor
14 /Times-Roman set_font
357.0986 629.7113 moveto 41 (0.925) alignedtext
grestore
% 13--10068
gsave
1 setlinewidth
dotted
0 0 0 edgecolor
newpath 342.0846 580.1515 moveto
349.4502 591.1976 358.8353 605.2723 366.1077 616.1785 curveto
stroke
grestore
% 13--10069
gsave
1 setlinewidth
dotted
0 0 0 edgecolor
newpath 257.8808 546.3054 moveto
257.7593 546.2787 257.6384 546.2521 257.5182 546.2257 curveto
stroke
grestore
% 14
gsave
1 setlinewidth
0 0 0 nodecolor
800.9089 929.657 213.6622 18 ellipse_path stroke
0 0 0 nodecolor
14 /Times-Roman set_font
644.4089 925.957 moveto 313 (Object Oriented Programming_\(NWI-IPI005) alignedtext
grestore
% 14--39
gsave
1 setlinewidth
0 0 0 edgecolor
newpath 790.4471 911.484 moveto
783.2061 898.9057 773.6344 882.279 766.5455 869.9652 curveto
stroke
grestore
% 10064
gsave
1 setlinewidth
0 0 1 nodecolor
770.514 1026.8145 37.0935 18 ellipse_path stroke
0 0 0 nodecolor
14 /Times-Roman set_font
750.014 1023.1145 moveto 41 (0.841) alignedtext
grestore
% 14--10064
gsave
1 setlinewidth
dotted
0 0 0 edgecolor
newpath 795.1919 947.9316 moveto
789.7233 965.4117 781.5281 991.6079 776.1027 1008.9501 curveto
stroke
grestore
% 14--10065
gsave
1 setlinewidth
dotted
0 0 0 edgecolor
newpath 799.0357 947.7895 moveto
798.641 951.6095 798.2246 955.6403 797.8299 959.4612 curveto
stroke
grestore
% 15
gsave
1 setlinewidth
0 0 0 nodecolor
989.053 79.8836 241.5573 18 ellipse_path stroke
0 0 0 nodecolor
14 /Times-Roman set_font
811.053 76.1836 moveto 356 (System Development Management_\(NWI-IMC021) alignedtext
grestore
% 53
gsave
1 setlinewidth
0 0 0 nodecolor
971.6622 170.2799 27 18 ellipse_path stroke
grestore
% 15--53
gsave
1 setlinewidth
0 0 0 edgecolor
newpath 985.5337 98.1766 moveto
982.4966 113.9632 978.135 136.6347 975.1169 152.3226 curveto
stroke
grestore
% 10078
gsave
1 setlinewidth
0 0 1 nodecolor
925.3947 41 37.0935 18 ellipse_path stroke
0 0 0 nodecolor
14 /Times-Roman set_font
904.8947 37.3 moveto 41 (0.647) alignedtext
grestore
% 15--10078
gsave
1 setlinewidth
dotted
0 0 0 edgecolor
newpath 959.4602 61.8078 moveto
955.8237 59.5866 952.1481 57.3414 948.6245 55.1892 curveto
stroke
grestore
% 10079
gsave
1 setlinewidth
0 0 1 nodecolor
1051.4976 91.1307 37.0935 18 ellipse_path stroke
0 0 0 nodecolor
14 /Times-Roman set_font
1030.9976 87.4307 moveto 41 (0.880) alignedtext
grestore
% 15--10079
gsave
1 setlinewidth
dotted
0 0 0 edgecolor
newpath 1051.4524 91.1225 moveto
1051.4674 91.1252 1051.4787 91.1273 1051.4862 91.1286 curveto
stroke
grestore
% 16
gsave
1 setlinewidth
0 0 0 nodecolor
1237.7921 553.2131 197.665 18 ellipse_path stroke
0 0 0 nodecolor
14 /Times-Roman set_font
1093.7921 549.5131 moveto 288 (Security in Organisations_\(NWI-IMC053) alignedtext
grestore
% 16--61
gsave
1 setlinewidth
0 0 0 edgecolor
newpath 1153.3443 560.6538 moveto
1153.324 560.6556 1153.3087 560.6569 1153.2984 560.6578 curveto
stroke
grestore
% 10084
gsave
1 setlinewidth
0 0 1 nodecolor
1287.7986 491.6495 37.0935 18 ellipse_path stroke
0 0 0 nodecolor
14 /Times-Roman set_font
1267.2986 487.9495 moveto 41 (0.904) alignedtext
grestore
% 16--10084
gsave
1 setlinewidth
dotted
0 0 0 edgecolor
newpath 1252.5252 535.075 moveto
1259.3243 526.7045 1267.3498 516.8242 1274.0266 508.6044 curveto
stroke
grestore
% 16--10085
gsave
1 setlinewidth
dotted
0 0 0 edgecolor
newpath 1248.8875 571.4045 moveto
1255.4698 582.1965 1263.7691 595.8035 1270.2647 606.4533 curveto
stroke
grestore
% 17
gsave
1 setlinewidth
0 0 0 nodecolor
493.3521 697.6003 168.97 18 ellipse_path stroke
0 0 0 nodecolor
14 /Times-Roman set_font
371.3521 693.9003 moveto 244 (Bayesian Networks_\(NWI-IMC012) alignedtext
grestore
% 52
gsave
1 setlinewidth
0 0 0 nodecolor
544.1469 737.7007 27 18 ellipse_path stroke
grestore
% 17--52
gsave
1 setlinewidth
0 0 0 edgecolor
newpath 516.0753 715.5393 moveto
519.562 718.2919 523.1168 721.0983 526.4727 723.7476 curveto
stroke
grestore
% 17--10090
gsave
1 setlinewidth
dotted
0 0 0 edgecolor
newpath 522.1776 679.6999 moveto
532.2042 673.4735 543.309 666.5775 552.7978 660.6851 curveto
stroke
grestore
% 10091
gsave
1 setlinewidth
0 0 1 nodecolor
406.3899 742.4679 37.0935 18 ellipse_path stroke
0 0 0 nodecolor
14 /Times-Roman set_font
385.8899 738.7679 moveto 41 (0.851) alignedtext
grestore
% 17--10091
gsave
1 setlinewidth
dotted
0 0 0 edgecolor
newpath 458.9823 715.3331 moveto
449.962 719.9871 440.3939 724.9237 431.9268 729.2923 curveto
stroke
grestore
% 18
gsave
1 setlinewidth
0 0 0 nodecolor
698.9565 989.1986 204.1638 18 ellipse_path stroke
0 0 0 nodecolor
14 /Times-Roman set_font
549.9565 985.4986 moveto 298 (Semantics and Correctness_\(NWI-IBC026) alignedtext
grestore
% 46
gsave
1 setlinewidth
0 0 0 nodecolor
660.6153 904.8939 27 18 ellipse_path stroke
grestore
% 18--46
gsave
1 setlinewidth
0 0 0 edgecolor
newpath 690.637 970.9057 moveto
684.0738 956.4745 674.9804 936.4799 668.5254 922.2868 curveto
stroke
grestore
% 10063
gsave
1 setlinewidth
0 0 1 nodecolor
648.9874 1056.275 37.0935 18 ellipse_path stroke
0 0 0 nodecolor
14 /Times-Roman set_font
628.4874 1052.575 moveto 41 (0.717) alignedtext
grestore
% 18--10063
gsave
1 setlinewidth
dotted
0 0 0 edgecolor
newpath 685.5657 1007.1739 moveto
678.165 1017.1083 669.0204 1029.3836 661.726 1039.1753 curveto
stroke
grestore
% 18--10064
gsave
1 setlinewidth
dotted
0 0 0 edgecolor
newpath 733.0587 1007.1252 moveto
737.0903 1009.2446 741.1504 1011.3788 745.0336 1013.4201 curveto
stroke
grestore
% 19
gsave
1 setlinewidth
0 0 0 nodecolor
371.1149 941.7124 213.3623 18 ellipse_path stroke
0 0 0 nodecolor
14 /Times-Roman set_font
215.1149 938.0124 moveto 312 (Statistical Machine Learning_\(NWI-IMC056) alignedtext
grestore
% 19--59
gsave
1 setlinewidth
0 0 0 edgecolor
newpath 409.8061 923.8826 moveto
416.3755 920.8553 422.9953 917.8048 428.9592 915.0565 curveto
stroke
grestore
% 10092
gsave
1 setlinewidth
0 0 1 nodecolor
329.9448 877.5559 37.0935 18 ellipse_path stroke
0 0 0 nodecolor
14 /Times-Roman set_font
309.4448 873.8559 moveto 41 (0.828) alignedtext
grestore
% 19--10092
gsave
1 setlinewidth
dotted
0 0 0 edgecolor
newpath 359.4273 923.4993 moveto
353.7218 914.6083 346.8871 903.9576 341.2355 895.1506 curveto
stroke
grestore
% 19--10093
gsave
1 setlinewidth
dotted
0 0 0 edgecolor
newpath 375.2006 960.0919 moveto
378.168 973.441 382.1635 991.4151 385.1127 1004.682 curveto
stroke
grestore
% 20
gsave
1 setlinewidth
0 0 0 nodecolor
606.2719 981.968 193.8658 18 ellipse_path stroke
0 0 0 nodecolor
14 /Times-Roman set_font
465.2719 978.268 moveto 282 (Semantics and Rewriting_\(NWI-IBC025) alignedtext
grestore
% 20--46
gsave
1 setlinewidth
0 0 0 edgecolor
newpath 619.1506 963.7025 moveto
628.2527 950.7931 640.3464 933.6409 649.1226 921.1937 curveto
stroke
grestore
% 20--10062
gsave
1 setlinewidth
dotted
0 0 0 edgecolor
newpath 574.475 999.7666 moveto
568.9439 1002.8626 563.2666 1006.0405 557.9628 1009.0094 curveto
stroke
grestore
% 20--10063
gsave
1 setlinewidth
dotted
0 0 0 edgecolor
newpath 616.6122 999.9557 moveto
623.3775 1011.7245 632.1738 1027.0264 638.8898 1038.7094 curveto
stroke
grestore
% 21
gsave
1 setlinewidth
0 0 0 nodecolor
907.7953 123.6052 174.6691 18 ellipse_path stroke
0 0 0 nodecolor
14 /Times-Roman set_font
781.2953 119.9052 moveto 253 (Software Engineering_\(NWI-IBI001) alignedtext
grestore
% 21--53
gsave
1 setlinewidth
0 0 0 edgecolor
newpath 932.3053 141.5174 moveto
939.2 146.5562 946.5836 151.9522 953.0713 156.6935 curveto
stroke
grestore
% 21--10077
gsave
1 setlinewidth
dotted
0 0 0 edgecolor
newpath 889.8099 141.7486 moveto
883.6692 147.9432 876.8435 154.8288 870.8535 160.8714 curveto
stroke
grestore
% 21--10078
gsave
1 setlinewidth
dotted
0 0 0 edgecolor
newpath 911.7012 105.2725 moveto
914.638 91.4883 918.6411 72.6994 921.5603 58.9973 curveto
stroke
grestore
% 22
gsave
1 setlinewidth
0 0 0 nodecolor
461.6104 680.0687 243.1569 18 ellipse_path stroke
0 0 0 nodecolor
14 /Times-Roman set_font
282.6104 676.3687 moveto 358 (Foundations of Information Systems_\(NWI-I00035) alignedtext
grestore
% 51
gsave
1 setlinewidth
0 0 0 nodecolor
567.4616 712.7133 27 18 ellipse_path stroke
grestore
% 22--51
gsave
1 setlinewidth
0 0 0 edgecolor
newpath 518.564 697.6332 moveto
527.0785 700.2591 535.4531 702.8419 542.7997 705.1076 curveto
stroke
grestore
% 10067
gsave
1 setlinewidth
0 0 1 nodecolor
464.1346 767.2345 37.0935 18 ellipse_path stroke
0 0 0 nodecolor
14 /Times-Roman set_font
443.6346 763.5345 moveto 41 (0.770) alignedtext
grestore
% 22--10067
gsave
1 setlinewidth
dotted
0 0 0 edgecolor
newpath 462.1334 698.1295 moveto
462.5666 713.0893 463.1792 734.2434 463.6122 749.1968 curveto
stroke
grestore
% 22--10068
gsave
1 setlinewidth
dotted
0 0 0 edgecolor
newpath 429.3695 662.1632 moveto
420.3 657.1263 410.5875 651.7323 402.0535 646.9928 curveto
stroke
grestore
% 23
gsave
1 setlinewidth
0 0 0 nodecolor
1173.3887 188.2672 226.6599 18 ellipse_path stroke
0 0 0 nodecolor
14 /Times-Roman set_font
1006.8887 184.5672 moveto 333 (Category Theory and Coalgebra_\(NWI-IMC036) alignedtext
grestore
% 23--45
gsave
1 setlinewidth
0 0 0 edgecolor
newpath 1167.802 206.5157 moveto
1163.6015 220.2365 1157.8758 238.939 1153.7002 252.5781 curveto
stroke
grestore
% 10080
gsave
1 setlinewidth
0 0 1 nodecolor
1122.6521 142.8555 37.0935 18 ellipse_path stroke
0 0 0 nodecolor
14 /Times-Roman set_font
1102.1521 139.1555 moveto 41 (0.899) alignedtext
grestore
% 23--10080
gsave
1 setlinewidth
dotted
0 0 0 edgecolor
newpath 1153.3363 170.3193 moveto
1149.126 166.551 1144.7113 162.5996 1140.5846 158.9059 curveto
stroke
grestore
% 23--10081
gsave
1 setlinewidth
dotted
0 0 0 edgecolor
newpath 1217.2193 170.4389 moveto
1218.2554 170.0175 1219.285 169.5987 1220.305 169.1838 curveto
stroke
grestore
% 24
gsave
1 setlinewidth
0 0 0 nodecolor
563.1053 798.0876 173.5692 18 ellipse_path stroke
0 0 0 nodecolor
14 /Times-Roman set_font
437.6053 794.3876 moveto 251 (Information Systems_\(NWI-IBC020) alignedtext
grestore
% 24--51
gsave
1 setlinewidth
0 0 0 edgecolor
newpath 564.0292 779.9819 moveto
564.7684 765.4936 565.8001 745.2743 566.5391 730.7929 curveto
stroke
grestore
% 24--10066
gsave
1 setlinewidth
dotted
0 0 0 edgecolor
newpath 578.2964 816.0895 moveto
588.1065 827.7148 600.7838 842.7377 610.3863 854.1171 curveto
stroke
grestore
% 24--10067
gsave
1 setlinewidth
dotted
0 0 0 edgecolor
newpath 508.121 780.9468 moveto
503.7607 779.5875 499.4581 778.2462 495.3508 776.9658 curveto
stroke
grestore
% 25
gsave
1 setlinewidth
0 0 0 nodecolor
1250.1422 420.6505 146.774 18 ellipse_path stroke
0 0 0 nodecolor
14 /Times-Roman set_font
1145.1422 416.9505 moveto 210 (Image Analysis_\(NWI-IBC046) alignedtext
grestore
% 34
gsave
1 setlinewidth
0 0 0 nodecolor
1177.8917 371.7794 27 18 ellipse_path stroke
grestore
% 25--34
gsave
1 setlinewidth
0 0 0 edgecolor
newpath 1223.6491 402.7302 moveto
1214.7888 396.7371 1205.0946 390.1798 1196.9189 384.6497 curveto
stroke
grestore
% 10083
gsave
1 setlinewidth
0 0 1 nodecolor
1326.7588 384.6124 37.0935 18 ellipse_path stroke
0 0 0 nodecolor
14 /Times-Roman set_font
1306.2588 380.9124 moveto 41 (0.898) alignedtext
grestore
% 25--10083
gsave
1 setlinewidth
dotted
0 0 0 edgecolor
newpath 1287.5527 403.0538 moveto
1291.6552 401.1241 1295.7714 399.188 1299.713 397.334 curveto
stroke
grestore
% 25--10084
gsave
1 setlinewidth
dotted
0 0 0 edgecolor
newpath 1259.8397 438.9345 moveto
1265.5927 449.7815 1272.8463 463.4578 1278.5235 474.1618 curveto
stroke
grestore
% 26
gsave
1 setlinewidth
0 0 0 nodecolor
387.9959 815.1096 147.5738 18 ellipse_path stroke
0 0 0 nodecolor
14 /Times-Roman set_font
282.4959 811.4096 moveto 211 (Deep Learning_\(NWI-IMC058) alignedtext
grestore
% 36
gsave
1 setlinewidth
0 0 0 nodecolor
477.9414 817.8134 27 18 ellipse_path stroke
grestore
% 26--36
gsave
1 setlinewidth
0 0 0 edgecolor
newpath 477.8762 817.8114 moveto
477.8978 817.812 477.9141 817.8125 477.925 817.8129 curveto
stroke
grestore
% 26--10091
gsave
1 setlinewidth
dotted
0 0 0 edgecolor
newpath 392.6375 796.779 moveto
395.4472 785.683 399.0157 771.5901 401.8135 760.541 curveto
stroke
grestore
% 26--10092
gsave
1 setlinewidth
dotted
0 0 0 edgecolor
newpath 371.2051 833.1716 moveto
363.0346 841.9608 353.2809 852.4529 345.3086 861.0288 curveto
stroke
grestore
% 27
gsave
1 setlinewidth
0 0 0 nodecolor
1051.6181 182.0258 242.357 18 ellipse_path stroke
0 0 0 nodecolor
14 /Times-Roman set_font
873.1181 178.3258 moveto 357 (Information Modelling & Databases_\(NWI-IPC033) alignedtext
grestore
% 48
gsave
1 setlinewidth
0 0 0 nodecolor
1001.3141 252.5417 27 18 ellipse_path stroke
grestore
% 27--48
gsave
1 setlinewidth
0 0 0 edgecolor
newpath 1038.6636 200.1854 moveto
1030.7454 211.285 1020.6993 225.3676 1013.0209 236.1312 curveto
stroke
grestore
% 27--10079
gsave
1 setlinewidth
dotted
0 0 0 edgecolor
newpath 1051.5937 163.6318 moveto
1051.5727 147.7582 1051.5425 124.9616 1051.5215 109.1871 curveto
stroke
grestore
% 27--10080
gsave
1 setlinewidth
dotted
0 0 0 edgecolor
newpath 1084.2245 164.0456 moveto
1088.8929 161.4713 1093.6288 158.8598 1098.1068 156.3906 curveto
stroke
grestore
% 28
gsave
1 setlinewidth
0 0 0 nodecolor
263.4761 334.1022 167.0704 18 ellipse_path stroke
0 0 0 nodecolor
14 /Times-Roman set_font
142.9761 330.4022 moveto 241 (Law in Cyberspace_\(NWI-IMC006) alignedtext
grestore
% 28--38
gsave
1 setlinewidth
0 0 0 edgecolor
newpath 335.7637 350.3389 moveto
335.8815 350.3654 335.9987 350.3917 336.1152 350.4178 curveto
stroke
grestore
% 28--10070
gsave
1 setlinewidth
dotted
0 0 0 edgecolor
newpath 247.531 352.3409 moveto
240.0478 360.9005 231.192 371.0301 223.8947 379.377 curveto
stroke
grestore
% 28--10071
gsave
1 setlinewidth
dotted
0 0 0 edgecolor
newpath 261.7693 315.9918 moveto
260.5384 302.9303 258.8839 285.375 257.6545 272.3299 curveto
stroke
grestore
% 29
gsave
1 setlinewidth
0 0 0 nodecolor
1260.3981 337.2942 261.8535 18 ellipse_path stroke
0 0 0 nodecolor
14 /Times-Roman set_font
1066.8981 333.5942 moveto 387 (Intelligent Systems in Medical Imaging_\(NWI-IMC037) alignedtext
grestore
% 29--34
gsave
1 setlinewidth
0 0 0 edgecolor
newpath 1217.6949 355.1429 moveto
1211.8754 357.5753 1206.0945 359.9915 1200.8161 362.1977 curveto
stroke
grestore
% 29--10082
gsave
1 setlinewidth
dotted
0 0 0 edgecolor
newpath 1272.4384 319.2951 moveto
1279.3332 308.9879 1287.9379 296.1245 1294.7379 285.959 curveto
stroke
grestore
% 29--10083
gsave
1 setlinewidth
dotted
0 0 0 edgecolor
newpath 1285.8651 355.4534 moveto
1292.4442 360.1446 1299.4517 365.1413 1305.7732 369.6488 curveto
stroke
grestore
% 30
gsave
1 setlinewidth
0 0 0 nodecolor
589.8871 383.5959 227.4596 18 ellipse_path stroke
0 0 0 nodecolor
14 /Times-Roman set_font
422.8871 379.8959 moveto 334 (Research Seminar Data Science_\(NWI-IMC044) alignedtext
grestore
% 49
gsave
1 setlinewidth
0 0 0 nodecolor
594.5794 458.5063 27 18 ellipse_path stroke
grestore
% 30--49
gsave
1 setlinewidth
0 0 0 edgecolor
newpath 591.023 401.7296 moveto
591.7553 413.4208 592.7043 428.5706 593.4378 440.2799 curveto
stroke
grestore
% 30--10073
gsave
1 setlinewidth
dotted
0 0 0 edgecolor
newpath 570.1805 365.5786 moveto
562.4908 358.5482 553.7452 350.5523 546.2709 343.7187 curveto
stroke
grestore
% 10074
gsave
1 setlinewidth
0 0 1 nodecolor
616.923 310.3408 37.0935 18 ellipse_path stroke
0 0 0 nodecolor
14 /Times-Roman set_font
596.423 306.6408 moveto 41 (0.970) alignedtext
grestore
% 30--10074
gsave
1 setlinewidth
dotted
0 0 0 edgecolor
newpath 596.5702 365.4879 moveto
600.7609 354.133 606.1408 339.5557 610.3169 328.2405 curveto
stroke
grestore
% 31
gsave
1 setlinewidth
0 0 0 nodecolor
667.3209 255.1168 267.2527 18 ellipse_path stroke
0 0 0 nodecolor
14 /Times-Roman set_font
469.8209 251.4168 moveto 395 (Inl. Acad. Schrijven en Ond.Meth. Inform_\(NWI-IBC043) alignedtext
grestore
% 31--54
gsave
1 setlinewidth
0 0 0 edgecolor
newpath 719.7839 272.8134 moveto
719.8893 272.849 719.9945 272.8845 720.0996 272.9199 curveto
stroke
grestore
% 31--10074
gsave
1 setlinewidth
dotted
0 0 0 edgecolor
newpath 650.8187 273.1992 moveto
644.8476 279.7421 638.1339 287.0987 632.2664 293.5281 curveto
stroke
grestore
% 31--10075
gsave
1 setlinewidth
dotted
0 0 0 edgecolor
newpath 663.8199 237.1013 moveto
660.9201 222.1791 656.8196 201.0782 653.921 186.1624 curveto
stroke
grestore
% 32--43
gsave
1 setlinewidth
0 0 0 edgecolor
newpath 1008.758 494.1296 moveto
1020.8657 501.9492 1036.3837 511.9713 1048.5005 519.7967 curveto
stroke
grestore
% 55
gsave
1 setlinewidth
0 0 0 nodecolor
936.3913 411.1233 27 18 ellipse_path stroke
grestore
% 32--55
gsave
1 setlinewidth
0 0 0 edgecolor
newpath 977.0321 465.2278 moveto
968.4839 453.8477 957.1307 438.7334 948.5971 427.3727 curveto
stroke
grestore
% 33
gsave
1 setlinewidth
0 0 0 nodecolor
411.4417 421.406 27 18 ellipse_path stroke
grestore
% 33--35
gsave
1 setlinewidth
0 0 0 edgecolor
newpath 438.6965 423.0264 moveto
450.2982 423.7161 463.7932 424.5184 475.3584 425.2059 curveto
stroke
grestore
% 33--38
gsave
1 setlinewidth
0 0 0 edgecolor
newpath 397.1085 405.9175 moveto
386.7711 394.7469 372.8771 379.7331 362.5528 368.5766 curveto
stroke
grestore
% 33--41
gsave
1 setlinewidth
0 0 0 edgecolor
newpath 395.5168 436.174 moveto
386.3557 444.6695 374.8774 455.3139 365.6893 463.8345 curveto
stroke
grestore
% 44
gsave
1 setlinewidth
0 0 0 nodecolor
1094.0477 338.9688 27 18 ellipse_path stroke
grestore
% 34--44
gsave
1 setlinewidth
0 0 0 edgecolor
newpath 1154.5365 362.6398 moveto
1143.0043 358.127 1129.123 352.6948 1117.5685 348.1732 curveto
stroke
grestore
% 35--49
gsave
1 setlinewidth
0 0 0 edgecolor
newpath 526.5312 435.1352 moveto
540.0976 439.7946 556.9509 445.5828 570.491 450.2332 curveto
stroke
grestore
% 36--52
gsave
1 setlinewidth
0 0 0 edgecolor
newpath 491.0215 801.9857 moveto
502.6282 787.9408 519.4955 767.5304 531.094 753.4955 curveto
stroke
grestore
% 36--59
gsave
1 setlinewidth
0 0 0 edgecolor
newpath 472.4247 835.8275 moveto
467.8247 850.8481 461.3074 872.1296 456.735 887.0602 curveto
stroke
grestore
% 40
gsave
1 setlinewidth
0 0 0 nodecolor
672.3627 515.9862 27 18 ellipse_path stroke
grestore
% 37--40
gsave
1 setlinewidth
0 0 0 edgecolor
newpath 739.7598 488.4812 moveto
726.207 494.0122 709.1993 500.9531 695.6599 506.4785 curveto
stroke
grestore
% 60
gsave
1 setlinewidth
0 0 0 nodecolor
837.9039 417.1187 27 18 ellipse_path stroke
grestore
% 37--60
gsave
1 setlinewidth
0 0 0 edgecolor
newpath 780.1022 464.9127 moveto
792.2522 454.8663 808.553 441.3879 820.7463 431.3056 curveto
stroke
grestore
% 57
gsave
1 setlinewidth
0 0 0 nodecolor
691.247 805.1433 27 18 ellipse_path stroke
grestore
% 39--57
gsave
1 setlinewidth
0 0 0 edgecolor
newpath 738.5136 839.65 moveto
729.578 833.1266 718.8375 825.2855 709.8544 818.7275 curveto
stroke
grestore
% 40--49
gsave
1 setlinewidth
0 0 0 edgecolor
newpath 653.9291 502.3643 moveto
641.5298 493.2015 625.2522 481.1727 612.8807 472.0305 curveto
stroke
grestore
% 50
gsave
1 setlinewidth
0 0 0 nodecolor
655.2382 610.2358 27 18 ellipse_path stroke
grestore
% 40--50
gsave
1 setlinewidth
0 0 0 edgecolor
newpath 669.0609 534.1585 moveto
666.0285 550.8479 661.559 575.4475 658.5298 592.1193 curveto
stroke
grestore
% 42--50
gsave
1 setlinewidth
0 0 0 edgecolor
newpath 629.4146 647.3707 moveto
633.9421 640.8601 639.1476 633.3744 643.6935 626.8373 curveto
stroke
grestore
% 42--52
gsave
1 setlinewidth
0 0 0 edgecolor
newpath 602.7427 679.0356 moveto
589.9734 691.82 571.8815 709.9333 559.1886 722.6412 curveto
stroke
grestore
% 43--61
gsave
1 setlinewidth
0 0 0 edgecolor
newpath 1092.2128 540.4168 moveto
1103.7357 544.2362 1117.4821 548.7926 1129.0128 552.6146 curveto
stroke
grestore
% 44--45
gsave
1 setlinewidth
0 0 0 edgecolor
newpath 1106.8848 322.7409 moveto
1115.5196 311.8252 1126.8553 297.4953 1135.4709 286.604 curveto
stroke
grestore
% 58
gsave
1 setlinewidth
0 0 0 nodecolor
1002.025 342.5712 27 18 ellipse_path stroke
grestore
% 44--58
gsave
1 setlinewidth
0 0 0 edgecolor
newpath 1066.9356 340.0302 moveto
1055.0599 340.4951 1041.1511 341.0396 1029.2613 341.505 curveto
stroke
grestore
% 46--57
gsave
1 setlinewidth
0 0 0 edgecolor
newpath 666.0916 887.0605 moveto
671.6672 868.904 680.2597 840.9229 685.8181 822.8223 curveto
stroke
grestore
% 47
gsave
1 setlinewidth
0 0 0 nodecolor
660.1639 712.3878 27 18 ellipse_path stroke
grestore
% 47--50
gsave
1 setlinewidth
0 0 0 edgecolor
newpath 659.2832 694.1251 moveto
658.3867 675.5314 657.005 646.8767 656.1112 628.3404 curveto
stroke
grestore
% 47--51
gsave
1 setlinewidth
0 0 0 edgecolor
newpath 632.8515 712.4837 moveto
620.7813 712.5261 606.6263 712.5758 594.5787 712.6181 curveto
stroke
grestore
% 47--57
gsave
1 setlinewidth
0 0 0 edgecolor
newpath 666.157 730.272 moveto
671.6611 746.6969 679.774 770.9065 685.2723 787.314 curveto
stroke
grestore
% 48--53
gsave
1 setlinewidth
0 0 0 edgecolor
newpath 994.8801 234.6921 moveto
989.8724 220.7996 982.9602 201.6233 977.9818 187.8121 curveto
stroke
grestore
% 48--58
gsave
1 setlinewidth
0 0 0 edgecolor
newpath 1001.458 270.7605 moveto
1001.5813 286.3802 1001.7581 308.7676 1001.8813 324.3795 curveto
stroke
grestore
% 54--56
gsave
1 setlinewidth
0 0 0 edgecolor
newpath 761.0013 295.4854 moveto
770.4004 303.5227 782.0588 313.4919 791.4756 321.5443 curveto
stroke
grestore
% 55--58
gsave
1 setlinewidth
0 0 0 edgecolor
newpath 950.9576 395.9094 moveto
961.6831 384.7069 976.2223 369.5212 987.0444 358.2179 curveto
stroke
grestore
% 55--60
gsave
1 setlinewidth
0 0 0 edgecolor
newpath 909.4792 412.7616 moveto
895.6964 413.6006 878.9525 414.6199 865.1257 415.4616 curveto
stroke
grestore
% 56--60
gsave
1 setlinewidth
0 0 0 edgecolor
newpath 814.8965 353.6954 moveto
819.825 367.2816 826.6152 385.9999 831.5406 399.5774 curveto
stroke
grestore
endpage
showpage
grestore
%%PageTrailer
%%EndPage: 1
%%Trailer
%%Pages: 1
%%BoundingBox: 36 36 1566 1118
end
restore
%%EOF
