\relax 
\@writefile{toc}{\contentsline {section}{\numberline {1}Introduction}{3}{}\protected@file@percent }
\@writefile{toc}{\contentsline {section}{\numberline {2}Preliminaries}{4}{}\protected@file@percent }
\@writefile{toc}{\contentsline {subsection}{\numberline {2.1}Towards Kolmogorov complexity}{4}{}\protected@file@percent }
\@writefile{toc}{\contentsline {subsubsection}{\numberline {2.1.1}Computability theory}{4}{}\protected@file@percent }
\@writefile{toc}{\contentsline {subsubsection}{\numberline {2.1.2}Variants of Kolmogorov complexity}{6}{}\protected@file@percent }
\@writefile{toc}{\contentsline {subsubsection}{\numberline {2.1.3}Nearest Information Distance}{6}{}\protected@file@percent }
\@writefile{toc}{\contentsline {subsubsection}{\numberline {2.1.4}Algorithmic Probability}{6}{}\protected@file@percent }
\@writefile{toc}{\contentsline {subsection}{\numberline {2.2}Machine Learning}{6}{}\protected@file@percent }
\@writefile{toc}{\contentsline {subsubsection}{\numberline {2.2.1}Neural Networks}{6}{}\protected@file@percent }
\@writefile{toc}{\contentsline {subsubsection}{\numberline {2.2.2}Autoencoders}{6}{}\protected@file@percent }
\@writefile{toc}{\contentsline {section}{\numberline {3}Experimental application}{7}{}\protected@file@percent }
\@writefile{toc}{\contentsline {subsection}{\numberline {3.1}Kolmogorov complexity of complex files}{7}{}\protected@file@percent }
\@writefile{toc}{\contentsline {subsection}{\numberline {3.2}Translation}{7}{}\protected@file@percent }
\@writefile{toc}{\contentsline {subsubsection}{\numberline {3.2.1}Using continuity under transformation}{7}{}\protected@file@percent }
\@writefile{toc}{\contentsline {subsubsection}{\numberline {3.2.2}Nearest Information Distance}{7}{}\protected@file@percent }
\@writefile{toc}{\contentsline {subsubsection}{\numberline {3.2.3}experiemntal comparison}{7}{}\protected@file@percent }
\@writefile{toc}{\contentsline {subsection}{\numberline {3.3}Chess puzzle complexity}{7}{}\protected@file@percent }
\@writefile{toc}{\contentsline {subsection}{\numberline {3.4}Machine learning}{7}{}\protected@file@percent }
\@writefile{toc}{\contentsline {subsection}{\numberline {3.5}Statistical applications}{7}{}\protected@file@percent }
\citation{Bloem}
\@writefile{toc}{\contentsline {section}{\numberline {4}Conclusion}{8}{}\protected@file@percent }
\bibcite{Srinivas}{1}
\bibcite{Zenil}{2}
\bibcite{Vitanyi}{3}
\bibcite{Goldberg}{4}
\bibcite{Harik}{5}
\bibcite{Levin}{6}
\bibcite{Soler-Toscano}{7}
\bibcite{Soler-Toscano2}{8}
\bibcite{Solomonoff}{9}
\bibcite{Cebrian}{10}
\bibcite{Bloem}{11}
\gdef \@abspage@last{9}
