\relax 
\citation{cilibrasi}
\bibcite{cilibrasi}{1}
\@writefile{toc}{\contentsline {section}{\numberline {I}Curse the first: scalability}{1}\protected@file@percent }
\@writefile{toc}{\contentsline {section}{\numberline {II}Curse the second: the curse of the numerical data}{1}\protected@file@percent }
\@writefile{toc}{\contentsline {section}{\numberline {III}Curse the third: the curse of Big Data}{1}\protected@file@percent }
\@writefile{toc}{\contentsline {section}{\numberline {IV}Curse the fourth: the curse of the alternative}{1}\protected@file@percent }
\@writefile{toc}{\contentsline {section}{\numberline {V}Curse the fifth: the curse of the absence of domain-specific knowledge}{1}\protected@file@percent }
\@writefile{toc}{\contentsline {section}{\numberline {VI}Conclusion}{1}\protected@file@percent }
\@writefile{toc}{\contentsline {section}{References}{1}\protected@file@percent }
